> !reset now

'PS Echtzeitsysteme - ucboard

'Magnetometer init failed!


> !daq grp 4 ~all _tics cruise_drvval hall_cnt hall_dt hall_dt8

:ok

> !daq start

:started

> !steer 100

:100
> !drv c 2000

:C 2000

#4:4031 | 900 | 2 | 37753 | 3775
#4:4081 | 900 | 3 | 726 | 3848
#4:4131 | 900 | 4 | 582 | 3906
#4:4181 | 900 | 5 | 404 | 3946
#4:4231 | 900 | 6 | 351 | 3981
#4:4275 | 900 | 7 | 309 | 4012
#4:4325 | 900 | 9 | 247 | 287
#4:4374 | 900 | 11 | 225 | 263
#4:4416 | 900 | 13 | 200 | 206
#4:4471 | 900 | 16 | 163 | 170
#4:4523 | 900 | 19 | 161 | 148
#4:4572 | 846 | 22 | 159 | 135
#4:4628 | 663 | 26 | 150 | 121
#4:4670 | 560 | 29 | 135 | 114
#4:4722 | 473 | 33 | 124 | 108
#4:4774 | 397 | 37 | 125 | 104
#4:4824 | 348 | 41 | 118 | 102
#4:4876 | 331 | 45 | 127 | 101
#4:4925 | 328 | 49 | 119 | 100
#4:4976 | 311 | 53 | 120 | 100
#4:5025 | 308 | 57 | 117 | 100
#4:5078 | 353 | 61 | 129 | 102
#4:5127 | 353 | 65 | 118 | 102
#4:5179 | 326 | 69 | 127 | 100
#4:5228 | 329 | 73 | 118 | 101
#4:5280 | 321 | 77 | 125 | 100
#4:5329 | 319 | 81 | 120 | 100
#4:5380 | 312 | 85 | 124 | 100
#4:5429 | 306 | 89 | 117 | 99
#4:5480 | 312 | 93 | 125 | 100
#4:5529 | 320 | 97 | 120 | 100
#4:5581 | 317 | 101 | 127 | 100
#4:5630 | 317 | 105 | 119 | 100
#4:5681 | 319 | 109 | 126 | 100
#4:5731 | 316 | 113 | 120 | 100
#4:5769 | 315 | 116 | 130 | 100
#4:5830 | 304 | 121 | 119 | 99
#4:5869 | 299 | 124 | 128 | 99
#4:5930 | 301 | 129 | 119 | 99
#4:5969 | 306 | 132 | 132 | 100
#4:6030 | 302 | 137 | 119 | 99
#4:6081 | 298 | 141 | 125 | 99
#4:6130 | 300 | 145 | 117 | 99
#4:6181 | 300 | 149 | 124 | 99
#4:6230 | 298 | 153 | 119 | 99
#4:6281 | 300 | 157 | 125 | 99
#4:6330 | 308 | 161 | 118 | 100
#4:6381 | 308 | 165 | 124 | 100
#4:6430 | 298 | 169 | 119 | 99
#4:6481 | 293 | 173 | 123 | 99
#4:6529 | 297 | 177 | 118 | 99
#4:6581 | 305 | 181 | 125 | 100
#4:6630 | 315 | 185 | 119 | 100
#4:6681 | 316 | 189 | 124 | 100
#4:6730 | 305 | 193 | 118 | 100
#4:6781 | 300 | 197 | 123 | 99
#4:6830 | 298 | 201 | 118 | 99
#4:6881 | 299 | 205 | 124 | 99
#4:6930 | 301 | 209 | 118 | 99
#4:6981 | 302 | 213 | 125 | 100
#4:7030 | 307 | 217 | 118 | 100
#4:7081 | 312 | 221 | 125 | 100
#4:7130 | 312 | 225 | 118 | 100
#4:7169 | 310 | 228 | 130 | 100
#4:7231 | 311 | 233 | 119 | 100
#4:7270 | 321 | 236 | 133 | 100
#4:7320 | 322 | 240 | 115 | 101
#4:7372 | 328 | 244 | 132 | 101
#4:7421 | 316 | 248 | 116 | 100
#4:7472 | 306 | 252 | 131 | 100
#4:7521 | 311 | 0 | 114 | 100
#4:7572 | 308 | 4 | 131 | 100
#4:7622 | 318 | 8 | 115 | 100
#4:7673 | 321 | 12 | 132 | 100
#4:7722 | 308 | 16 | 114 | 100
#4:7773 | 304 | 20 | 131 | 100
#4:7824 | 329 | 24 | 115 | 101
#4:7875 | 332 | 28 | 130 | 101
#4:7925 | 325 | 32 | 113 | 101
#4:7976 | 327 | 36 | 131 | 101
#4:8026 | 325 | 40 | 115 | 101
#4:8077 | 326 | 44 | 132 | 101
#4:8127 | 321 | 48 | 114 | 100
#4:8178 | 317 | 52 | 132 | 100
#4:8228 | 320 | 56 | 115 | 100
#4:8279 | 324 | 60 | 133 | 101
#4:8329 | 324 | 64 | 115 | 101
#4:8381 | 320 | 68 | 133 | 101
#4:8430 | 319 | 72 | 114 | 100
#4:8481 | 317 | 76 | 131 | 100
#4:8530 | 304 | 80 | 112 | 100
#4:8581 | 301 | 84 | 130 | 99
#4:8631 | 300 | 88 | 114 | 100
#4:8681 | 306 | 92 | 131 | 100
#4:8731 | 308 | 96 | 114 | 100
#4:8768 | 302 | 99 | 122 | 100
#4:8831 | 298 | 104 | 111 | 99
#4:8881 | 297 | 108 | 129 | 99
#4:8931 | 291 | 112 | 113 | 99
#4:8981 | 292 | 116 | 130 | 99
#4:9030 | 291 | 120 | 113 | 99
#4:9081 | 292 | 124 | 132 | 99
#4:9131 | 303 | 128 | 114 | 100
#4:9181 | 306 | 132 | 131 | 100
#4:9231 | 299 | 136 | 113 | 99
#4:9281 | 297 | 140 | 130 | 99
#4:9331 | 299 | 144 | 114 | 100
#4:9368 | 306 | 147 | 125 | 100
#4:9431 | 313 | 152 | 114 | 100
#4:9469 | 308 | 155 | 123 | 100
#4:9531 | 297 | 160 | 113 | 99
#4:9569 | 292 | 163 | 123 | 99
#4:9631 | 292 | 168 | 113 | 99
#4:9669 | 297 | 171 | 125 | 100
#4:9731 | 298 | 176 | 114 | 100
#4:9769 | 300 | 179 | 124 | 100
#4:9821 | 309 | 183 | 129 | 100
#4:9870 | 313 | 187 | 124 | 100
#4:9921 | 313 | 191 | 129 | 100
#4:9971 | 316 | 195 | 126 | 100
#4:10023 | 319 | 199 | 130 | 101
#4:10072 | 325 | 203 | 127 | 101
#4:10124 | 326 | 207 | 130 | 101
#4:10174 | 334 | 211 | 127 | 101
#4:10225 | 314 | 215 | 127 | 100
#4:10275 | 304 | 219 | 126 | 100
#4:10326 | 314 | 223 | 128 | 100
#4:10375 | 305 | 227 | 126 | 100
#4:10427 | 316 | 231 | 131 | 101
#4:10476 | 323 | 235 | 127 | 101
#4:10528 | 316 | 239 | 127 | 101
#4:10578 | 321 | 243 | 128 | 101
#4:10631 | 341 | 247 | 133 | 102
#4:10680 | 341 | 251 | 124 | 102
#4:10718 | 317 | 254 | 125 | 101
#4:10781 | 311 | 3 | 127 | 101
#4:10820 | 322 | 6 | 128 | 101
#4:10870 | 322 | 10 | 134 | 101
#4:10921 | 320 | 14 | 126 | 101
#4:10970 | 308 | 18 | 134 | 100
#4:11021 | 304 | 22 | 127 | 100
#4:11071 | 309 | 26 | 135 | 100
#4:11122 | 310 | 30 | 126 | 100
#4:11172 | 312 | 34 | 133 | 100
#4:11223 | 315 | 38 | 126 | 100
#4:11273 | 308 | 42 | 132 | 100
#4:11323 | 298 | 46 | 127 | 100
#4:11373 | 296 | 50 | 135 | 100
#4:11423 | 295 | 54 | 126 | 100
#4:11473 | 300 | 58 | 135 | 100
#4:11524 | 303 | 62 | 125 | 100
#4:11574 | 304 | 66 | 133 | 100
#4:11625 | 306 | 70 | 126 | 100
#4:11674 | 298 | 74 | 133 | 100
#4:11725 | 297 | 78 | 127 | 100
#4:11774 | 298 | 82 | 131 | 100
#4:11825 | 296 | 86 | 127 | 100
#4:11874 | 301 | 90 | 132 | 100
#4:11925 | 305 | 94 | 127 | 100
#4:11975 | 306 | 98 | 133 | 100
#4:12026 | 294 | 102 | 127 | 100
#4:12075 | 290 | 106 | 132 | 99
#4:12126 | 294 | 110 | 126 | 100
#4:12175 | 304 | 114 | 134 | 100
#4:12226 | 310 | 118 | 126 | 100
#4:12276 | 308 | 122 | 134 | 100
#4:12327 | 308 | 126 | 126 | 100
#4:12376 | 298 | 130 | 133 | 100
#4:12427 | 293 | 134 | 127 | 100
#4:12477 | 297 | 138 | 133 | 100
#4:12528 | 301 | 142 | 127 | 100
#4:12577 | 303 | 146 | 133 | 100
#4:12628 | 304 | 150 | 126 | 100
#4:12678 | 304 | 154 | 133 | 100
#4:12729 | 310 | 158 | 127 | 100
#4:12779 | 313 | 162 | 135 | 101
#4:12830 | 309 | 166 | 127 | 100
#4:12880 | 312 | 170 | 135 | 101
#4:12931 | 320 | 174 | 127 | 101
#4:12981 | 320 | 178 | 135 | 101
#4:13020 | 314 | 181 | 126 | 101
#4:13069 | 309 | 185 | 121 | 100
#4:13121 | 308 | 189 | 125 | 100
#4:13170 | 304 | 193 | 118 | 100
#4:13221 | 301 | 197 | 127 | 100
#4:13271 | 313 | 201 | 120 | 101
#4:13323 | 316 | 205 | 127 | 101
#4:13372 | 316 | 209 | 120 | 101
#4:13425 | 338 | 213 | 132 | 102
#4:13476 | 363 | 217 | 122 | 103
#4:13527 | 340 | 221 | 125 | 102
#4:13577 | 317 | 225 | 120 | 101
#4:13629 | 325 | 229 | 125 | 101
#4:13679 | 327 | 233 | 120 | 101
#4:13731 | 325 | 237 | 126 | 101
#4:13780 | 319 | 241 | 120 | 101
#4:13819 | 314 | 244 | 133 | 101
#4:13881 | 316 | 249 | 119 | 101
#4:13921 | 315 | 252 | 132 | 101
#4:13971 | 313 | 0 | 115 | 101
#4:14022 | 310 | 4 | 131 | 101
#4:14071 | 309 | 8 | 113 | 100
#4:14123 | 308 | 12 | 133 | 100
#4:14172 | 296 | 16 | 112 | 100
#4:14223 | 288 | 20 | 130 | 99
#4:14272 | 301 | 24 | 113 | 100
#4:14323 | 307 | 28 | 131 | 100
#4:14373 | 306 | 32 | 113 | 100
#4:14424 | 303 | 36 | 131 | 100
#4:14474 | 295 | 40 | 114 | 100
#4:14524 | 292 | 44 | 130 | 100
#4:14574 | 292 | 48 | 111 | 100
#4:14625 | 293 | 52 | 130 | 100
#4:14674 | 296 | 56 | 114 | 100
#4:14725 | 301 | 60 | 131 | 100
#4:14775 | 305 | 64 | 114 | 100
#4:14826 | 297 | 68 | 130 | 100
#4:14875 | 293 | 72 | 115 | 100
#4:14926 | 294 | 76 | 130 | 100
#4:14975 | 292 | 80 | 114 | 100
#4:15026 | 297 | 84 | 131 | 100
#4:15076 | 310 | 88 | 115 | 101
#4:15127 | 308 | 92 | 131 | 101
#4:15177 | 298 | 96 | 114 | 100
#4:15228 | 293 | 100 | 129 | 100
#4:15277 | 297 | 104 | 113 | 100
#4:15328 | 307 | 108 | 131 | 100
#4:15378 | 311 | 112 | 115 | 101
#4:15430 | 311 | 116 | 131 | 101
#4:15480 | 306 | 120 | 114 | 100
#4:15530 | 302 | 124 | 131 | 100
#4:15580 | 300 | 128 | 112 | 100
#4:15631 | 304 | 132 | 130 | 100
#4:15681 | 307 | 136 | 114 | 101
#4:15719 | 311 | 139 | 127 | 101
#4:15771 | 313 | 143 | 131 | 101
#4:15820 | 308 | 147 | 125 | 101
#4:15872 | 298 | 151 | 127 | 100
#4:15921 | 297 | 155 | 126 | 100
#4:15972 | 295 | 159 | 128 | 100
#4:16021 | 295 | 163 | 126 | 100
#4:16073 | 302 | 167 | 130 | 100
#4:16123 | 314 | 171 | 127 | 101
#4:16175 | 322 | 175 | 131 | 101
#4:16225 | 327 | 179 | 128 | 102
#4:16278 | 339 | 183 | 132 | 102
#4:16329 | 361 | 187 | 126 | 103
#4:16380 | 343 | 191 | 131 | 102
#4:16431 | 321 | 195 | 128 | 101
#4:16470 | 334 | 198 | 128 | 102
#4:16519 | 317 | 202 | 131 | 101
#4:16571 | 315 | 206 | 128 | 101
#4:16621 | 311 | 210 | 132 | 101
#4:16672 | 302 | 214 | 128 | 100
#4:16722 | 308 | 218 | 133 | 101
#4:16773 | 308 | 222 | 128 | 101
#4:16823 | 308 | 226 | 133 | 101
#4:16874 | 311 | 230 | 127 | 101
#4:16924 | 308 | 234 | 133 | 101
#4:16975 | 300 | 238 | 128 | 100
#4:17024 | 294 | 242 | 132 | 100
#4:17075 | 289 | 246 | 127 | 100
#4:17125 | 295 | 250 | 130 | 100
#4:17176 | 301 | 254 | 127 | 100
#4:17226 | 299 | 2 | 131 | 100
#4:17277 | 299 | 6 | 126 | 100
#4:17326 | 301 | 10 | 132 | 100
#4:17378 | 300 | 14 | 128 | 100
#4:17427 | 303 | 18 | 132 | 100
#4:17478 | 300 | 22 | 127 | 100
#4:17528 | 298 | 26 | 132 | 100
#4:17580 | 309 | 30 | 129 | 101
#4:17629 | 312 | 34 | 132 | 101
#4:17680 | 299 | 38 | 127 | 100
#4:17730 | 295 | 42 | 132 | 100
#4:17781 | 296 | 46 | 127 | 100
#4:17831 | 297 | 50 | 132 | 100
#4:17869 | 297 | 53 | 127 | 100
#4:17918 | 306 | 57 | 119 | 101
#4:17970 | 315 | 61 | 127 | 101
#4:18020 | 306 | 65 | 119 | 101
#4:18071 | 296 | 69 | 126 | 100
#4:18120 | 297 | 73 | 118 | 100
#4:18172 | 300 | 77 | 126 | 100
#4:18221 | 305 | 81 | 119 | 101
#4:18273 | 310 | 85 | 127 | 101
#4:18322 | 303 | 89 | 118 | 101
#4:18374 | 296 | 93 | 126 | 100
#4:18423 | 300 | 97 | 119 | 100
#4:18475 | 298 | 101 | 124 | 100
#4:18524 | 301 | 105 | 117 | 100
#4:18576 | 315 | 109 | 126 | 101
#4:18626 | 322 | 113 | 120 | 101
#4:18678 | 318 | 117 | 126 | 101
#4:18727 | 305 | 121 | 117 | 101
#4:18779 | 302 | 125 | 126 | 100
#4:18828 | 302 | 129 | 118 | 100
#4:18880 | 303 | 133 | 127 | 100
#4:18930 | 312 | 137 | 119 | 101
#4:18981 | 317 | 141 | 125 | 101
#4:19031 | 319 | 145 | 119 | 101
#4:19071 | 316 | 148 | 131 | 101
#4:19122 | 327 | 152 | 118 | 102
#4:19175 | 357 | 156 | 137 | 103
#4:19225 | 351 | 160 | 115 | 103
#4:19277 | 323 | 164 | 131 | 102
#4:19327 | 321 | 168 | 116 | 101
#4:19378 | 317 | 172 | 131 | 101
#4:19429 | 309 | 176 | 117 | 101
#4:19479 | 299 | 180 | 130 | 100
#4:19530 | 299 | 184 | 115 | 100
#4:19581 | 309 | 188 | 131 | 101
#4:19631 | 314 | 192 | 118 | 101
#4:19670 | 318 | 195 | 126 | 101
#4:19722 | 321 | 199 | 130 | 101
#4:19771 | 311 | 203 | 123 | 101
#4:19823 | 308 | 207 | 130 | 101
#4:19872 | 299 | 211 | 124 | 100
#4:19923 | 289 | 215 | 130 | 100
#4:19973 | 298 | 219 | 125 | 100
#4:20024 | 297 | 223 | 130 | 100
#4:20074 | 303 | 227 | 124 | 101
#4:20125 | 302 | 231 | 128 | 101
#4:20175 | 297 | 235 | 123 | 100
#4:20226 | 300 | 239 | 129 | 100
#4:20276 | 301 | 243 | 124 | 101
#4:20327 | 302 | 247 | 130 | 101
#4:20377 | 299 | 251 | 126 | 100
#4:20428 | 299 | 255 | 129 | 100
#4:20478 | 309 | 3 | 127 | 101
#4:20530 | 313 | 7 | 129 | 101
#4:20579 | 303 | 11 | 124 | 101
#4:20631 | 305 | 15 | 130 | 101
#4:20680 | 305 | 19 | 124 | 101
#4:20719 | 294 | 22 | 127 | 100
#4:20781 | 297 | 27 | 126 | 101
#4:20820 | 310 | 30 | 129 | 101
#4:20870 | 311 | 34 | 133 | 101
#4:20921 | 303 | 38 | 128 | 101
#4:20971 | 297 | 42 | 132 | 100
#4:21022 | 294 | 46 | 127 | 100
#4:21072 | 300 | 50 | 133 | 100
#4:21123 | 302 | 54 | 127 | 101
#4:21173 | 304 | 58 | 132 | 101
#4:21225 | 308 | 62 | 129 | 101
#4:21275 | 307 | 66 | 133 | 101
#4:21326 | 307 | 70 | 128 | 101
#4:21376 | 304 | 74 | 133 | 101
#4:21427 | 301 | 78 | 128 | 101
#4:21477 | 312 | 82 | 133 | 101
#4:21529 | 313 | 86 | 127 | 101
#4:21579 | 311 | 90 | 134 | 101
#4:21630 | 307 | 94 | 128 | 101
#4:21681 | 307 | 98 | 136 | 101
#4:21719 | 319 | 101 | 127 | 102
#4:21769 | 323 | 105 | 121 | 102
#4:21822 | 321 | 109 | 126 | 102
#4:21872 | 325 | 113 | 119 | 102
#4:21925 | 340 | 117 | 128 | 103
#4:21975 | 350 | 121 | 124 | 103
#4:22028 | 352 | 125 | 130 | 103
#4:22078 | 343 | 129 | 120 | 103
#4:22131 | 327 | 133 | 126 | 102
#4:22180 | 310 | 137 | 119 | 101
#4:22219 | 307 | 140 | 131 | 101
#4:22281 | 309 | 145 | 119 | 101
#4:22320 | 302 | 148 | 130 | 101
#4:22371 | 298 | 152 | 116 | 100
#4:22422 | 309 | 156 | 132 | 101
#4:22472 | 312 | 160 | 115 | 101
#4:22524 | 313 | 164 | 132 | 101
#4:22574 | 314 | 168 | 115 | 101
#4:22625 | 309 | 172 | 131 | 101
#4:22675 | 300 | 176 | 114 | 101
#4:22726 | 293 | 180 | 129 | 100
#4:22776 | 291 | 184 | 113 | 100
#4:22827 | 302 | 188 | 132 | 101
#4:22877 | 308 | 192 | 115 | 101
#4:22928 | 302 | 196 | 131 | 101
#4:22978 | 297 | 200 | 115 | 100
#4:23029 | 292 | 204 | 131 | 100
#4:23079 | 294 | 208 | 115 | 100
#4:23130 | 300 | 212 | 131 | 101
#4:23180 | 301 | 216 | 114 | 101
#4:23231 | 301 | 220 | 131 | 101
#4:23281 | 303 | 224 | 115 | 101
#4:23320 | 306 | 227 | 125 | 101
#4:23372 | 310 | 231 | 130 | 101
#4:23421 | 308 | 235 | 125 | 101
#4:23473 | 304 | 239 | 131 | 101
#4:23522 | 299 | 243 | 124 | 101
#4:23574 | 293 | 247 | 130 | 100
#4:23623 | 294 | 251 | 125 | 100
#4:23675 | 298 | 255 | 130 | 101
#4:23724 | 301 | 3 | 125 | 101
#4:23776 | 304 | 7 | 128 | 101
#4:23826 | 304 | 11 | 126 | 101
#4:23878 | 307 | 15 | 131 | 101
#4:23927 | 308 | 19 | 125 | 101
#4:23979 | 305 | 23 | 131 | 101
#4:24028 | 306 | 27 | 124 | 101
#4:24080 | 302 | 31 | 128 | 101
#4:24130 | 307 | 35 | 126 | 101
#4:24169 | 306 | 38 | 129 | 101
#4:24231 | 309 | 43 | 125 | 101
#4:24270 | 304 | 46 | 128 | 101
#4:24320 | 304 | 50 | 132 | 101
#4:24372 | 310 | 54 | 128 | 101
#4:24422 | 309 | 58 | 132 | 101
#4:24474 | 310 | 62 | 128 | 101
#4:24523 | 303 | 66 | 134 | 101
#4:24576 | 317 | 70 | 130 | 102
#4:24626 | 320 | 74 | 133 | 102
#4:24677 | 312 | 78 | 129 | 101
#4:24728 | 322 | 82 | 134 | 102
#4:24780 | 335 | 86 | 131 | 102
#4:24831 | 338 | 90 | 133 | 103
#4:24871 | 340 | 93 | 130 | 103
#4:24921 | 345 | 97 | 123 | 103
#4:24973 | 335 | 101 | 128 | 102
#4:25023 | 322 | 105 | 121 | 102
#4:25075 | 306 | 109 | 127 | 101
#4:25124 | 299 | 113 | 120 | 101
#4:25176 | 298 | 117 | 127 | 101
#4:25225 | 293 | 121 | 119 | 100
#4:25277 | 303 | 125 | 127 | 101
#4:25327 | 314 | 129 | 119 | 101
#4:25379 | 316 | 133 | 126 | 102
#4:25429 | 320 | 137 | 120 | 102
#4:25481 | 314 | 141 | 128 | 102
#4:25531 | 308 | 145 | 119 | 101
#4:25570 | 296 | 148 | 131 | 101
#4:25620 | 293 | 152 | 115 | 100
#4:25671 | 300 | 156 | 131 | 101
#4:25721 | 302 | 160 | 117 | 101
#4:25772 | 304 | 164 | 131 | 101
#4:25822 | 297 | 168 | 115 | 101
#4:25873 | 296 | 172 | 132 | 101
#4:25923 | 297 | 176 | 115 | 101
#4:25975 | 301 | 180 | 131 | 101
#4:26025 | 305 | 184 | 115 | 101
#4:26076 | 302 | 188 | 132 | 101
#4:26126 | 308 | 192 | 115 | 101
#4:26178 | 313 | 196 | 130 | 101
#4:26228 | 312 | 200 | 115 | 101
#4:26279 | 299 | 204 | 130 | 101
#4:26330 | 300 | 208 | 116 | 101
#4:26381 | 304 | 212 | 132 | 101
#4:26431 | 304 | 216 | 115 | 101
#4:26468 | 297 | 219 | 125 | 101
#4:26521 | 301 | 223 | 131 | 101
#4:26570 | 305 | 227 | 125 | 101
#4:26622 | 303 | 231 | 129 | 101
#4:26672 | 303 | 235 | 125 | 101
#4:26723 | 300 | 239 | 130 | 101
#4:26773 | 302 | 243 | 126 | 101
#4:26825 | 308 | 247 | 131 | 101
#4:26875 | 308 | 251 | 126 | 101
#4:26926 | 305 | 255 | 129 | 101
#4:26976 | 298 | 3 | 124 | 101
#4:27028 | 301 | 7 | 130 | 101
#4:27077 | 303 | 11 | 125 | 101
#4:27129 | 305 | 15 | 130 | 101
#4:27179 | 316 | 19 | 127 | 102
#4:27218 | 317 | 22 | 129 | 102
#4:27281 | 316 | 27 | 126 | 102
#4:27321 | 323 | 30 | 131 | 102
#4:27371 | 317 | 34 | 135 | 102
#4:27423 | 318 | 38 | 128 | 102
#4:27474 | 328 | 42 | 134 | 102
#4:27526 | 320 | 46 | 129 | 102
#4:27576 | 319 | 50 | 134 | 102
#4:27628 | 328 | 54 | 130 | 102
#4:27679 | 338 | 58 | 135 | 103
#4:27718 | 341 | 61 | 130 | 103
#4:27769 | 342 | 65 | 123 | 103
#4:27822 | 337 | 69 | 129 | 103
#4:27871 | 319 | 73 | 119 | 102
#4:27923 | 307 | 77 | 126 | 101
#4:27973 | 306 | 81 | 120 | 101
#4:28025 | 297 | 85 | 126 | 101
#4:28074 | 296 | 89 | 120 | 101
#4:28126 | 300 | 93 | 127 | 101
#4:28176 | 308 | 97 | 121 | 101
#4:28228 | 312 | 101 | 126 | 101
#4:28278 | 310 | 105 | 120 | 101
#4:28330 | 311 | 109 | 127 | 101
#4:28379 | 303 | 113 | 120 | 101
#4:28431 | 295 | 117 | 125 | 100
#4:28480 | 288 | 121 | 120 | 100
#4:28531 | 288 | 125 | 126 | 100
#4:28581 | 299 | 129 | 121 | 101
#4:28620 | 303 | 132 | 133 | 101
#4:28670 | 304 | 136 | 114 | 101
#4:28721 | 299 | 140 | 132 | 101
#4:28772 | 300 | 144 | 115 | 101
#4:28823 | 307 | 148 | 133 | 101
#4:28874 | 310 | 152 | 115 | 101
#4:28925 | 305 | 156 | 131 | 101
#4:28975 | 302 | 160 | 116 | 101
#4:29026 | 307 | 164 | 132 | 101
#4:29077 | 314 | 168 | 118 | 102
#4:29128 | 314 | 172 | 133 | 102
#4:29179 | 305 | 176 | 116 | 101
#4:29230 | 304 | 180 | 131 | 101
#4:29280 | 307 | 184 | 116 | 101
#4:29331 | 303 | 188 | 131 | 101
#4:29381 | 296 | 192 | 115 | 101
#4:29420 | 296 | 195 | 127 | 101
#4:29471 | 300 | 199 | 130 | 101
#4:29521 | 296 | 203 | 124 | 101
#4:29573 | 297 | 207 | 130 | 101
#4:29622 | 301 | 211 | 126 | 101
#4:29674 | 302 | 215 | 131 | 101
#4:29724 | 306 | 219 | 127 | 101
#4:29776 | 310 | 223 | 133 | 101
#4:29826 | 310 | 227 | 125 | 101
#4:29878 | 307 | 231 | 130 | 101
#4:29928 | 309 | 235 | 125 | 101
#4:29979 | 310 | 239 | 131 | 101
#4:30029 | 305 | 243 | 125 | 101
#4:30081 | 303 | 247 | 131 | 101
#4:30131 | 305 | 251 | 127 | 101
#4:30170 | 314 | 254 | 130 | 102
#4:30220 | 305 | 2 | 134 | 101
#4:30271 | 302 | 6 | 131 | 101
#4:30322 | 318 | 10 | 135 | 102
#4:30374 | 322 | 14 | 130 | 102
#4:30425 | 317 | 18 | 136 | 102
#4:30477 | 321 | 22 | 130 | 102
#4:30528 | 331 | 26 | 136 | 103
#4:30580 | 338 | 30 | 130 | 103
#4:30631 | 335 | 34 | 136 | 103
#4:30670 | 329 | 37 | 126 | 102
#4:30720 | 328 | 41 | 121 | 102
#4:30772 | 317 | 45 | 126 | 102
#4:30822 | 309 | 49 | 120 | 101
#4:30874 | 308 | 53 | 127 | 101
#4:30924 | 308 | 57 | 120 | 101
#4:30976 | 306 | 61 | 129 | 101
#4:31025 | 306 | 65 | 122 | 101
#4:31077 | 308 | 69 | 128 | 101
#4:31127 | 308 | 73 | 119 | 101
#4:31179 | 309 | 77 | 127 | 101
#4:31229 | 309 | 81 | 121 | 101
#4:31281 | 297 | 85 | 127 | 101
#4:31330 | 290 | 89 | 122 | 100
#4:31369 | 294 | 92 | 131 | 101
#4:31431 | 303 | 97 | 121 | 101
#4:31471 | 307 | 100 | 131 | 101
#4:31521 | 304 | 104 | 117 | 101
#4:31572 | 300 | 108 | 131 | 101
#4:31622 | 294 | 112 | 116 | 101
#4:31673 | 293 | 116 | 132 | 101
#4:31723 | 300 | 120 | 116 | 101
#4:31775 | 301 | 124 | 131 | 101
#4:31825 | 300 | 128 | 115 | 101
#4:31876 | 304 | 132 | 133 | 101
#4:31927 | 312 | 136 | 117 | 102
#4:31978 | 314 | 140 | 133 | 102
#4:32029 | 315 | 144 | 117 | 102
#4:32081 | 315 | 148 | 132 | 102
#4:32131 | 310 | 152 | 117 | 101
#4:32169 | 305 | 155 | 125 | 101
#4:32221 | 298 | 159 | 130 | 101
#4:32270 | 292 | 163 | 126 | 101
#4:32322 | 289 | 167 | 130 | 100
> !daq stop

#4:32371 | 296 | 171 | 125 | 101
:stopped

> !drv off

:OFF

