> !reset now

'PS Echtzeitsysteme - ucboard

'US device 3 not found!

'PS Echtzeitsysteme - ucboard

'US device 3 not found!


'PS Echtzeitsysteme - ucboard

'US device 3 not found!


> !daq grp 4 ~all _tics cruise_drvval hall_cnt hall_dt hall_dt8

:ok

> !daq start

> !steer 100

:start
> !drv c 2000

:C 2000

#4:4020 | 900 | 2 | 37994 | 3799
#4:4120 | 900 | 3 | 573 | 3856
#4:4168 | 900 | 4 | 443 | 3901
#4:4201 | 900 | 5 | 336 | 3934
#4:4258 | 871 | 7 | 257 | 3991
#4:4305 | 900 | 9 | 227 | 238
#4:4362 | 854 | 12 | 200 | 194
#4:4415 | 733 | 15 | 165 | 157
#4:4461 | 644 | 18 | 140 | 138
#4:4520 | 570 | 22 | 145 | 121
#4:4561 | 488 | 25 | 136 | 113
#4:4611 | 424 | 29 | 126 | 106
#4:4662 | 377 | 33 | 127 | 101
#4:4710 | 347 | 37 | 120 | 98
#4:4769 | 322 | 42 | 109 | 95
#4:4817 | 305 | 46 | 124 | 94
#4:4863 | 293 | 50 | 107 | 93
#4:4910 | 284 | 54 | 122 | 92
#4:4966 | 275 | 59 | 108 | 92
#4:5013 | 265 | 63 | 114 | 91
#4:5069 | 253 | 68 | 119 | 90
#4:5114 | 247 | 72 | 114 | 90
#4:5170 | 242 | 77 | 110 | 89
#4:5216 | 238 | 81 | 115 | 89
#4:5259 | 235 | 85 | 110 | 89
#4:5315 | 229 | 90 | 104 | 89
#4:5361 | 232 | 94 | 117 | 89
#4:5416 | 232 | 99 | 105 | 89
#4:5461 | 225 | 103 | 110 | 89
#4:5516 | 217 | 108 | 117 | 88
#4:5561 | 208 | 112 | 111 | 88
#4:5615 | 202 | 117 | 109 | 87
#4:5670 | 204 | 122 | 103 | 88
#4:5715 | 209 | 126 | 116 | 88
#4:5769 | 201 | 131 | 104 | 88
#4:5814 | 199 | 135 | 110 | 88
#4:5869 | 202 | 140 | 117 | 88
#4:5915 | 208 | 144 | 112 | 89
#4:5970 | 208 | 149 | 110 | 89
#4:6015 | 204 | 153 | 114 | 88
#4:6070 | 202 | 158 | 117 | 89
#4:6115 | 205 | 162 | 102 | 89
#4:6160 | 202 | 166 | 118 | 89
#4:6214 | 202 | 171 | 105 | 89
#4:6260 | 201 | 175 | 112 | 89
#4:6316 | 203 | 180 | 117 | 89
#4:6361 | 197 | 184 | 112 | 89
#4:6416 | 196 | 189 | 111 | 89
#4:6462 | 200 | 193 | 115 | 89
#4:6518 | 203 | 198 | 118 | 90
#4:6562 | 203 | 202 | 104 | 90
#4:6619 | 200 | 207 | 110 | 90
#4:6663 | 200 | 211 | 106 | 90
#4:6720 | 199 | 216 | 113 | 90
#4:6765 | 195 | 220 | 119 | 90
#4:6811 | 198 | 224 | 113 | 90
#4:6867 | 195 | 229 | 111 | 90
#4:6913 | 192 | 233 | 114 | 90
#4:6968 | 189 | 238 | 118 | 89
#4:7013 | 192 | 242 | 104 | 90
#4:7070 | 192 | 247 | 112 | 90
#4:7114 | 192 | 251 | 107 | 90
#4:7161 | 194 | 255 | 113 | 90
#4:7218 | 199 | 4 | 120 | 91
#4:7264 | 198 | 8 | 115 | 91
#4:7320 | 200 | 13 | 112 | 91
#4:7367 | 197 | 17 | 118 | 91
#4:7412 | 199 | 21 | 113 | 91
#4:7470 | 200 | 26 | 106 | 91
#4:7516 | 205 | 30 | 121 | 92
#4:7562 | 208 | 34 | 107 | 92
#4:7609 | 209 | 38 | 121 | 92
#4:7666 | 207 | 43 | 110 | 92
#4:7713 | 202 | 47 | 113 | 92
#4:7770 | 192 | 52 | 121 | 91
#4:7816 | 186 | 56 | 115 | 91
#4:7861 | 186 | 60 | 121 | 91
#4:7920 | 190 | 65 | 118 | 91
#4:7965 | 194 | 69 | 114 | 92
#4:8012 | 193 | 73 | 118 | 92
#4:8069 | 188 | 78 | 120 | 91
#4:8115 | 192 | 82 | 106 | 92
#4:8161 | 191 | 86 | 120 | 92
#4:8218 | 187 | 91 | 109 | 92
#4:8265 | 188 | 95 | 114 | 92
#4:8310 | 190 | 99 | 110 | 92
#4:8369 | 193 | 104 | 117 | 92
#4:8415 | 192 | 108 | 123 | 92
#4:8462 | 195 | 112 | 118 | 93
#4:8520 | 197 | 117 | 114 | 93
#4:8568 | 197 | 121 | 119 | 93
#4:8614 | 196 | 125 | 116 | 93
#4:8661 | 197 | 129 | 119 | 93
#4:8720 | 199 | 134 | 124 | 94
#4:8767 | 203 | 138 | 109 | 94
#4:8814 | 203 | 142 | 122 | 94
#4:8861 | 202 | 146 | 108 | 94
#4:8920 | 202 | 151 | 116 | 94
#4:8967 | 205 | 155 | 112 | 94
#4:9015 | 209 | 159 | 116 | 95
#4:9061 | 201 | 163 | 111 | 94
#4:9109 | 194 | 167 | 117 | 93
#4:9168 | 192 | 172 | 124 | 93
#4:9215 | 192 | 176 | 118 | 93
#4:9262 | 192 | 180 | 125 | 93
#4:9309 | 193 | 184 | 119 | 94
#4:9368 | 197 | 189 | 117 | 94
#4:9416 | 193 | 193 | 120 | 94
#4:9462 | 191 | 197 | 116 | 94
#4:9510 | 188 | 201 | 120 | 93
#4:9568 | 187 | 206 | 123 | 93
#4:9615 | 187 | 210 | 107 | 94
#4:9663 | 187 | 214 | 123 | 94
#4:9720 | 188 | 219 | 110 | 94
#4:9768 | 185 | 223 | 116 | 94
#4:9815 | 190 | 227 | 111 | 94
#4:9863 | 192 | 231 | 117 | 94
#4:9909 | 189 | 235 | 110 | 94
#4:9969 | 181 | 240 | 119 | 93
#4:10015 | 176 | 244 | 123 | 93
#4:10062 | 171 | 248 | 118 | 93
#4:10120 | 174 | 253 | 115 | 93
#4:10169 | 179 | 1 | 121 | 94
#4:10215 | 182 | 5 | 115 | 94
#4:10263 | 178 | 9 | 119 | 94
#4:10309 | 177 | 13 | 116 | 94
#4:10368 | 180 | 18 | 109 | 94
#4:10416 | 185 | 22 | 124 | 95
#4:10463 | 185 | 26 | 109 | 95
#4:10511 | 180 | 30 | 123 | 94
#4:10569 | 180 | 35 | 111 | 94
#4:10618 | 185 | 39 | 117 | 95
#4:10665 | 185 | 43 | 112 | 95
#4:10713 | 182 | 47 | 118 | 95
#4:10760 | 184 | 51 | 113 | 95
#4:10809 | 185 | 55 | 118 | 95
#4:10868 | 179 | 60 | 123 | 95
#4:10915 | 172 | 64 | 119 | 94
#4:10963 | 179 | 68 | 126 | 95
#4:11011 | 183 | 72 | 121 | 95
#4:11070 | 186 | 77 | 118 | 95
#4:11119 | 184 | 81 | 122 | 95
#4:11166 | 183 | 85 | 117 | 95
#4:11215 | 184 | 89 | 123 | 95
#4:11261 | 181 | 93 | 118 | 95
#4:11311 | 182 | 97 | 124 | 95
#4:11370 | 182 | 102 | 124 | 95
#4:11417 | 177 | 106 | 110 | 95
#4:11465 | 174 | 110 | 123 | 95
#4:11512 | 171 | 114 | 109 | 94
#4:11560 | 171 | 118 | 124 | 95
#4:11619 | 174 | 123 | 112 | 95
#4:11667 | 174 | 127 | 119 | 95
#4:11714 | 177 | 131 | 113 | 95
#4:11764 | 180 | 135 | 119 | 96
#4:11811 | 180 | 139 | 113 | 96
#4:11860 | 179 | 143 | 119 | 96
#4:11920 | 179 | 148 | 127 | 96
#4:11968 | 175 | 152 | 121 | 95
#4:12016 | 177 | 156 | 127 | 96
#4:12064 | 178 | 160 | 123 | 96
#4:12112 | 183 | 164 | 129 | 96
#4:12161 | 183 | 168 | 121 | 96
#4:12209 | 183 | 172 | 128 | 96
#4:12258 | 186 | 176 | 123 | 97
#4:12318 | 183 | 181 | 119 | 96
#4:12367 | 175 | 185 | 122 | 96
#4:12414 | 169 | 189 | 118 | 95
#4:12463 | 169 | 193 | 124 | 95
#4:12510 | 173 | 197 | 120 | 96
#4:12560 | 179 | 201 | 124 | 96
#4:12620 | 178 | 206 | 125 | 96
#4:12667 | 174 | 210 | 110 | 96
#4:12716 | 173 | 214 | 126 | 96
#4:12764 | 175 | 218 | 111 | 96
#4:12813 | 172 | 222 | 125 | 96
#4:12860 | 173 | 226 | 111 | 96
#4:12909 | 173 | 230 | 125 | 96
#4:12969 | 177 | 235 | 115 | 97
#4:13019 | 180 | 239 | 121 | 97
#4:13066 | 182 | 243 | 115 | 97
#4:13116 | 185 | 247 | 121 | 97
#4:13164 | 185 | 251 | 115 | 97
#4:13214 | 183 | 255 | 117 | 97
#4:13261 | 178 | 3 | 116 | 97
#4:13312 | 181 | 7 | 121 | 97
#4:13360 | 184 | 11 | 116 | 97
#4:13410 | 185 | 15 | 121 | 98
#4:13458 | 186 | 19 | 116 | 98
#4:13508 | 186 | 23 | 122 | 98
#4:13569 | 187 | 28 | 130 | 98
#4:13619 | 188 | 32 | 126 | 98
#4:13668 | 193 | 36 | 131 | 98
#4:13718 | 189 | 40 | 125 | 98
#4:13767 | 186 | 44 | 130 | 98
#4:13816 | 183 | 48 | 124 | 98
#4:13864 | 179 | 52 | 130 | 97
#4:13914 | 179 | 56 | 124 | 97
#4:13962 | 176 | 60 | 130 | 97
#4:14011 | 176 | 64 | 124 | 97
#4:14060 | 180 | 68 | 130 | 98
#4:14110 | 179 | 72 | 124 | 98
#4:14170 | 176 | 77 | 120 | 97
#4:14219 | 170 | 81 | 124 | 97
#4:14267 | 171 | 85 | 121 | 97
#4:14317 | 173 | 89 | 125 | 97
#4:14365 | 174 | 93 | 121 | 97
#4:14415 | 176 | 97 | 124 | 97
#4:14463 | 175 | 101 | 122 | 97
#4:14513 | 178 | 105 | 126 | 98
#4:14561 | 182 | 109 | 122 | 98
#4:14612 | 181 | 113 | 126 | 98
#4:14660 | 175 | 117 | 121 | 98
#4:14709 | 171 | 121 | 124 | 97
#4:14770 | 165 | 126 | 126 | 97
#4:14818 | 163 | 130 | 112 | 96
#4:14867 | 164 | 134 | 126 | 97
#4:14915 | 168 | 138 | 113 | 97
#4:14964 | 168 | 142 | 126 | 97
#4:15013 | 168 | 146 | 113 | 97
#4:15062 | 168 | 150 | 126 | 97
#4:15111 | 169 | 154 | 114 | 97
#4:15161 | 176 | 158 | 128 | 98
#4:15209 | 178 | 162 | 113 | 98
#4:15259 | 176 | 166 | 127 | 98
#4:15319 | 172 | 171 | 116 | 98
#4:15370 | 176 | 175 | 120 | 98
#4:15418 | 177 | 179 | 117 | 98
#4:15469 | 178 | 183 | 121 | 98
#4:15517 | 178 | 187 | 116 | 98
#4:15568 | 178 | 191 | 121 | 98
#4:15616 | 176 | 195 | 116 | 98
#4:15666 | 169 | 199 | 121 | 98
#4:15714 | 166 | 203 | 116 | 97
#4:15764 | 170 | 207 | 122 | 98
#4:15812 | 175 | 211 | 116 | 98
#4:15863 | 176 | 215 | 123 | 98
#4:15911 | 178 | 219 | 117 | 99
#4:15962 | 177 | 223 | 121 | 99
#4:16011 | 175 | 227 | 116 | 98
#4:16061 | 173 | 231 | 121 | 98
#4:16110 | 176 | 235 | 118 | 99
#4:16160 | 177 | 239 | 120 | 99
#4:16209 | 175 | 243 | 117 | 98
#4:16259 | 172 | 247 | 120 | 98
#4:16320 | 169 | 252 | 131 | 98
#4:16370 | 171 | 0 | 125 | 98
#4:16419 | 170 | 4 | 132 | 98
#4:16469 | 171 | 8 | 124 | 98
#4:16518 | 172 | 12 | 131 | 98
#4:16568 | 175 | 16 | 125 | 99
#4:16617 | 177 | 20 | 132 | 99
#4:16668 | 179 | 24 | 126 | 99
#4:16717 | 177 | 28 | 131 | 99
#4:16767 | 173 | 32 | 125 | 99
#4:16816 | 175 | 36 | 132 | 99
#4:16866 | 173 | 40 | 125 | 99
#4:16915 | 174 | 44 | 132 | 99
#4:16966 | 178 | 48 | 126 | 99
#4:17015 | 182 | 52 | 133 | 100
#4:17066 | 182 | 56 | 126 | 100
#4:17115 | 182 | 60 | 133 | 100
#4:17165 | 179 | 64 | 126 | 99
#4:17214 | 171 | 68 | 130 | 99
#4:17264 | 166 | 72 | 125 | 98
#4:17313 | 165 | 76 | 132 | 98
#4:17363 | 169 | 80 | 125 | 98
#4:17412 | 172 | 84 | 132 | 99
#4:17463 | 177 | 88 | 126 | 99
#4:17511 | 171 | 92 | 131 | 99
#4:17561 | 167 | 96 | 125 | 98
#4:17611 | 170 | 100 | 131 | 99
#4:17661 | 172 | 104 | 125 | 99
#4:17710 | 171 | 108 | 131 | 99
#4:17760 | 170 | 112 | 126 | 99
#4:17810 | 172 | 116 | 132 | 99
#4:17860 | 175 | 120 | 127 | 99
#4:17910 | 179 | 124 | 133 | 100
#4:17960 | 179 | 128 | 128 | 100
#4:18010 | 182 | 132 | 134 | 100
#4:18061 | 181 | 136 | 127 | 100
#4:18110 | 177 | 140 | 131 | 100
#4:18161 | 176 | 144 | 126 | 99
#4:18210 | 179 | 148 | 134 | 100
#4:18261 | 181 | 152 | 127 | 100
#4:18311 | 182 | 156 | 134 | 100
#4:18361 | 183 | 160 | 126 | 100
#4:18411 | 184 | 164 | 135 | 100
#4:18463 | 185 | 168 | 126 | 100
#4:18512 | 182 | 172 | 134 | 100
#4:18564 | 190 | 176 | 131 | 101
#4:18613 | 185 | 180 | 133 | 100
#4:18664 | 179 | 184 | 127 | 100
#4:18714 | 177 | 188 | 132 | 100
#4:18764 | 174 | 192 | 127 | 99
#4:18814 | 177 | 196 | 133 | 100
#4:18864 | 174 | 200 | 126 | 99
#4:18914 | 177 | 204 | 133 | 100
#4:18965 | 179 | 208 | 127 | 100
#4:19014 | 180 | 212 | 133 | 100
#4:19065 | 175 | 216 | 126 | 100
#4:19114 | 171 | 220 | 132 | 99
#4:19164 | 170 | 224 | 125 | 99
#4:19214 | 172 | 228 | 133 | 99
#4:19264 | 173 | 232 | 126 | 99
#4:19314 | 174 | 236 | 133 | 100
#4:19364 | 174 | 240 | 126 | 100
#4:19414 | 175 | 244 | 135 | 100
#4:19465 | 181 | 248 | 128 | 100
#4:19514 | 179 | 252 | 134 | 100
#4:19565 | 175 | 0 | 125 | 100
#4:19614 | 170 | 4 | 132 | 99
#4:19664 | 165 | 8 | 125 | 99
#4:19713 | 162 | 12 | 131 | 98
#4:19763 | 162 | 16 | 125 | 99
#4:19813 | 166 | 20 | 132 | 99
#4:19863 | 168 | 24 | 126 | 99
#4:19912 | 168 | 28 | 132 | 99
#4:19962 | 164 | 32 | 125 | 99
#4:20012 | 167 | 36 | 133 | 99
#4:20062 | 171 | 40 | 127 | 100
#4:20112 | 177 | 44 | 134 | 100
#4:20163 | 176 | 48 | 126 | 100
#4:20213 | 173 | 52 | 133 | 100
#4:20263 | 173 | 56 | 126 | 100
#4:20313 | 178 | 60 | 134 | 100
#4:20364 | 179 | 64 | 126 | 100
#4:20414 | 177 | 68 | 134 | 100
#4:20465 | 178 | 72 | 126 | 100
#4:20515 | 178 | 76 | 135 | 100
#4:20565 | 176 | 80 | 126 | 100
#4:20614 | 165 | 84 | 130 | 99
#4:20665 | 168 | 88 | 127 | 99
#4:20715 | 174 | 92 | 133 | 100
#4:20766 | 176 | 96 | 127 | 100
#4:20816 | 178 | 100 | 134 | 100
#4:20867 | 179 | 104 | 127 | 100
#4:20916 | 176 | 108 | 133 | 100
#4:20967 | 174 | 112 | 128 | 100
#4:21017 | 173 | 116 | 134 | 100
#4:21068 | 172 | 120 | 127 | 100
#4:21117 | 174 | 124 | 134 | 100
#4:21168 | 172 | 128 | 127 | 100
#4:21218 | 173 | 132 | 134 | 100
#4:21268 | 170 | 136 | 126 | 100
#4:21318 | 170 | 140 | 133 | 100
#4:21369 | 172 | 144 | 126 | 100
#4:21418 | 172 | 148 | 133 | 100
#4:21469 | 172 | 152 | 126 | 100
#4:21519 | 174 | 156 | 134 | 100
#4:21570 | 178 | 160 | 127 | 101
#4:21620 | 179 | 164 | 134 | 101
#4:21659 | 178 | 167 | 124 | 101
#4:21708 | 176 | 171 | 119 | 100
#4:21759 | 175 | 175 | 124 | 100
#4:21808 | 174 | 179 | 118 | 100
#4:21860 | 175 | 183 | 124 | 100
#4:21909 | 179 | 187 | 119 | 101
#4:21961 | 181 | 191 | 125 | 101
#4:22011 | 183 | 195 | 120 | 101
#4:22063 | 182 | 199 | 125 | 101
#4:22112 | 179 | 203 | 119 | 101
#4:22163 | 172 | 207 | 123 | 100
#4:22212 | 165 | 211 | 118 | 99
#4:22263 | 164 | 215 | 123 | 99
#4:22312 | 167 | 219 | 119 | 100
#4:22363 | 171 | 223 | 123 | 100
#4:22413 | 173 | 227 | 119 | 100
#4:22464 | 170 | 231 | 122 | 100
#4:22513 | 168 | 235 | 119 | 100
#4:22564 | 171 | 239 | 124 | 100
#4:22613 | 172 | 243 | 119 | 100
#4:22665 | 170 | 247 | 123 | 100
#4:22714 | 169 | 251 | 119 | 100
#4:22765 | 168 | 255 | 123 | 100
#4:22814 | 170 | 3 | 118 | 100
#4:22866 | 175 | 7 | 125 | 100
#4:22916 | 178 | 11 | 119 | 101
#4:22968 | 181 | 15 | 126 | 101
#4:23017 | 182 | 19 | 121 | 101
#4:23069 | 178 | 23 | 121 | 101
#4:23118 | 176 | 27 | 121 | 101
#4:23170 | 175 | 31 | 125 | 101
#4:23220 | 180 | 35 | 121 | 101
#4:23259 | 181 | 38 | 132 | 101
#4:23309 | 182 | 42 | 117 | 101
#4:23361 | 183 | 46 | 132 | 101
#4:23411 | 183 | 50 | 118 | 101
#4:23462 | 181 | 54 | 133 | 101
#4:23513 | 183 | 58 | 118 | 101
#4:23565 | 186 | 62 | 133 | 102
#4:23614 | 181 | 66 | 116 | 101
#4:23665 | 175 | 70 | 131 | 100
#4:23715 | 173 | 74 | 116 | 100
#4:23766 | 172 | 78 | 131 | 100
#4:23816 | 173 | 82 | 116 | 100
#4:23867 | 173 | 86 | 133 | 100
#4:23917 | 176 | 90 | 116 | 101
#4:23968 | 177 | 94 | 132 | 101
#4:24018 | 176 | 98 | 116 | 101
#4:24069 | 173 | 102 | 131 | 100
#4:24119 | 172 | 106 | 117 | 100
#4:24170 | 171 | 110 | 130 | 100
#4:24220 | 172 | 114 | 117 | 100
#4:24258 | 173 | 117 | 124 | 100
#4:24320 | 174 | 122 | 117 | 101
#4:24359 | 174 | 125 | 125 | 101
#4:24410 | 174 | 129 | 129 | 101
#4:24460 | 179 | 133 | 125 | 101
#4:24511 | 180 | 137 | 130 | 101
#4:24561 | 176 | 141 | 125 | 101
#4:24612 | 169 | 145 | 127 | 100
#4:24661 | 162 | 149 | 123 | 99
#4:24711 | 160 | 153 | 127 | 99
#4:24761 | 162 | 157 | 125 | 99
#4:24812 | 167 | 161 | 128 | 100
#4:24861 | 164 | 165 | 124 | 100
#4:24912 | 164 | 169 | 128 | 100
#4:24961 | 163 | 173 | 124 | 100
#4:25012 | 164 | 177 | 129 | 100
#4:25062 | 169 | 181 | 125 | 100
#4:25113 | 174 | 185 | 130 | 101
#4:25163 | 176 | 189 | 125 | 101
#4:25214 | 173 | 193 | 129 | 101
#4:25264 | 174 | 197 | 125 | 101
#4:25316 | 178 | 201 | 130 | 101
#4:25366 | 181 | 205 | 126 | 101
#4:25418 | 179 | 209 | 130 | 101
#4:25468 | 178 | 213 | 126 | 101
#4:25519 | 178 | 217 | 129 | 101
#4:25569 | 175 | 221 | 125 | 101
#4:25620 | 170 | 225 | 128 | 100
#4:25670 | 168 | 229 | 126 | 100
#4:25708 | 175 | 232 | 126 | 101
#4:25758 | 177 | 236 | 135 | 101
#4:25810 | 178 | 240 | 126 | 101
#4:25860 | 180 | 244 | 136 | 101
#4:25911 | 180 | 248 | 126 | 101
#4:25961 | 177 | 252 | 135 | 101
#4:26013 | 174 | 0 | 126 | 101
#4:26063 | 177 | 4 | 137 | 101
#4:26114 | 177 | 8 | 126 | 101
#4:26164 | 174 | 12 | 134 | 101
#4:26215 | 173 | 16 | 125 | 101
#4:26265 | 171 | 20 | 134 | 100
#4:26316 | 170 | 24 | 125 | 100
#4:26366 | 172 | 28 | 135 | 101
#4:26417 | 172 | 32 | 125 | 101
#4:26467 | 171 | 36 | 135 | 100
#4:26518 | 175 | 40 | 126 | 101
#4:26569 | 177 | 44 | 136 | 101
#4:26620 | 179 | 48 | 125 | 101
#4:26670 | 179 | 52 | 135 | 101
#4:26709 | 174 | 55 | 123 | 101
#4:26758 | 173 | 59 | 120 | 101
#4:26810 | 175 | 63 | 125 | 101
#4:26859 | 175 | 67 | 120 | 101
#4:26911 | 176 | 71 | 125 | 101
#4:26961 | 179 | 75 | 121 | 101
#4:27014 | 181 | 79 | 127 | 101
#4:27063 | 182 | 83 | 121 | 102
#4:27115 | 180 | 87 | 124 | 101
#4:27165 | 177 | 91 | 119 | 101
#4:27216 | 170 | 95 | 124 | 100
#4:27265 | 166 | 99 | 119 | 100
#4:27317 | 166 | 103 | 124 | 100
#4:27366 | 168 | 107 | 119 | 100
#4:27418 | 172 | 111 | 124 | 101
#4:27467 | 174 | 115 | 120 | 101
#4:27519 | 170 | 119 | 123 | 100
#4:27568 | 168 | 123 | 120 | 100
#4:27620 | 172 | 127 | 124 | 101
#4:27669 | 173 | 131 | 120 | 101
#4:27709 | 172 | 134 | 132 | 101
#4:27770 | 172 | 139 | 119 | 101
#4:27810 | 172 | 142 | 132 | 101
#4:27860 | 173 | 146 | 116 | 101
#4:27911 | 177 | 150 | 134 | 101
#4:27961 | 181 | 154 | 116 | 102
#4:28014 | 183 | 158 | 133 | 102
#4:28064 | 184 | 162 | 116 | 102
#4:28116 | 182 | 166 | 130 | 102
#4:28166 | 179 | 170 | 118 | 101
#4:28217 | 178 | 174 | 132 | 101
#4:28268 | 181 | 178 | 116 | 101
#4:28319 | 182 | 182 | 133 | 102
#4:28370 | 181 | 186 | 118 | 102
#4:28408 | 182 | 189 | 126 | 102
#4:28460 | 182 | 193 | 131 | 102
#4:28510 | 182 | 197 | 127 | 102
#4:28562 | 184 | 201 | 131 | 102
#4:28613 | 186 | 205 | 126 | 102
#4:28664 | 182 | 209 | 129 | 102
#4:28714 | 176 | 213 | 125 | 101
#4:28765 | 173 | 217 | 128 | 101
#4:28815 | 173 | 221 | 125 | 101
#4:28867 | 173 | 225 | 128 | 101
#4:28917 | 173 | 229 | 126 | 101
#4:28968 | 177 | 233 | 129 | 101
#4:29018 | 178 | 237 | 126 | 101
#4:29070 | 176 | 241 | 128 | 101
#4:29119 | 172 | 245 | 126 | 101
#4:29170 | 170 | 249 | 129 | 100
#4:29220 | 171 | 253 | 126 | 101
#4:29259 | 172 | 0 | 126 | 101
#4:29309 | 175 | 4 | 136 | 101
#4:29360 | 175 | 8 | 126 | 101
#4:29410 | 173 | 12 | 135 | 101
#4:29461 | 173 | 16 | 126 | 101
#4:29511 | 177 | 20 | 136 | 101
#4:29562 | 176 | 24 | 126 | 101
#4:29613 | 170 | 28 | 134 | 100
#4:29663 | 167 | 32 | 125 | 100
#4:29713 | 161 | 36 | 133 | 100
#4:29763 | 162 | 40 | 125 | 100
#4:29813 | 163 | 44 | 134 | 100
#4:29864 | 167 | 48 | 126 | 100
#4:29914 | 167 | 52 | 134 | 100
#4:29964 | 164 | 56 | 124 | 100
#4:30014 | 165 | 60 | 134 | 100
#4:30065 | 167 | 64 | 126 | 100
#4:30115 | 173 | 68 | 136 | 101
#4:30167 | 176 | 72 | 127 | 101
#4:30217 | 174 | 76 | 135 | 101
#4:30268 | 172 | 80 | 127 | 101
#4:30318 | 175 | 84 | 136 | 101
#4:30370 | 177 | 88 | 127 | 101
#4:30420 | 179 | 92 | 136 | 101
#4:30459 | 176 | 95 | 124 | 101
#4:30508 | 176 | 99 | 121 | 101
#4:30560 | 177 | 103 | 124 | 101
#4:30609 | 172 | 107 | 119 | 101
#4:30661 | 165 | 111 | 123 | 100
#4:30710 | 167 | 115 | 120 | 100
#4:30762 | 175 | 119 | 124 | 101
#4:30812 | 175 | 123 | 119 | 101
#4:30864 | 177 | 127 | 124 | 101
#4:30914 | 179 | 131 | 121 | 101
#4:30966 | 176 | 135 | 124 | 101
#4:31015 | 173 | 139 | 119 | 101
#4:31067 | 175 | 143 | 126 | 101
#4:31117 | 178 | 147 | 120 | 101
#4:31169 | 175 | 151 | 125 | 101
#4:31218 | 170 | 155 | 119 | 101
#4:31269 | 169 | 159 | 123 | 100
#4:31319 | 168 | 163 | 119 | 100
#4:31370 | 168 | 167 | 124 | 100
#4:31420 | 169 | 171 | 119 | 100
#4:31459 | 168 | 174 | 132 | 100
#4:31509 | 168 | 178 | 116 | 100
#4:31560 | 172 | 182 | 133 | 101
#4:31610 | 174 | 186 | 117 | 101
#4:31662 | 178 | 190 | 133 | 101
#4:31712 | 176 | 194 | 116 | 101
#4:31763 | 174 | 198 | 134 | 101
#4:31813 | 174 | 202 | 116 | 101
#4:31865 | 174 | 206 | 134 | 101
#4:31915 | 174 | 210 | 116 | 101
#4:31967 | 176 | 214 | 133 | 101
#4:32017 | 179 | 218 | 117 | 101
#4:32069 | 180 | 222 | 135 | 102
#4:32119 | 180 | 226 | 116 | 102
#4:32170 | 180 | 230 | 134 | 101
#4:32220 | 175 | 234 | 115 | 101
#4:32258 | 168 | 237 | 125 | 100
#4:32309 | 163 | 241 | 128 | 100
#4:32358 | 163 | 245 | 124 | 100
> !daq stop

:stopped

> !drv off

:OFF

