> !reset now

'PS Echtzeitsysteme - ucboard

'US device 3 not found!


> !daq grp 4 ~all _tics cruise_drvval hall_cnt hall_dt hall_dt8

:ok

> !daq start

:started

> !steer 100

:100
> !drv c 500

:C 500

#4:4025 | 900 | 2 | 605 | 60
#4:4125 | 0 | 3 | 605 | 121
#4:4175 | 0 | 4 | 611 | 182
#4:4225 | 0 | 5 | 556 | 237
#4:4275 | 0 | 6 | 629 | 300
#4:4375 | 0 | 7 | 726 | 373
#4:4425 | 0 | 8 | 746 | 448
#4:4525 | 74 | 9 | 899 | 477
#4:4625 | 132 | 10 | 965 | 574
#4:4675 | 278 | 11 | 748 | 588
#4:4775 | 297 | 12 | 584 | 585
#4:4822 | 282 | 13 | 447 | 574
#4:4862 | 254 | 14 | 400 | 551
#4:4898 | 203 | 15 | 363 | 515
#4:4961 | 9 | 17 | 316 | 413
#4:4995 | 0 | 18 | 336 | 351
#4:5061 | 0 | 20 | 334 | 283
#4:5093 | 0 | 21 | 323 | 271
#4:5162 | 0 | 23 | 347 | 264
#4:5193 | 0 | 24 | 311 | 263
#4:5267 | 0 | 26 | 394 | 272
#4:5305 | 0 | 27 | 374 | 277
#4:5346 | 0 | 28 | 414 | 285
#4:5386 | 0 | 29 | 397 | 292
#4:5472 | 0 | 31 | 439 | 310
#4:5513 | 0 | 32 | 406 | 319
#4:5557 | 0 | 33 | 436 | 328
#4:5609 | 0 | 34 | 519 | 341
#4:5659 | 0 | 35 | 501 | 354
#4:5716 | 0 | 36 | 569 | 369
#4:5773 | 0 | 37 | 568 | 386
#4:5825 | 0 | 38 | 630 | 407
#4:5875 | 0 | 39 | 681 | 431
#4:5925 | 25 | 40 | 672 | 458
#4:6025 | 82 | 41 | 675 | 481
#4:6075 | 127 | 42 | 769 | 506
#4:6175 | 171 | 43 | 591 | 515
#4:6225 | 186 | 44 | 568 | 515
#4:6275 | 187 | 45 | 473 | 506
#4:6324 | 142 | 46 | 449 | 488
#4:6366 | 97 | 47 | 422 | 462
#4:6403 | 35 | 48 | 367 | 431
#4:6440 | 0 | 49 | 371 | 401
#4:6521 | 0 | 51 | 385 | 345
#4:6563 | 0 | 52 | 420 | 330
#4:6603 | 0 | 53 | 399 | 323
#4:6647 | 0 | 54 | 442 | 322
#4:6692 | 0 | 55 | 450 | 325
#4:6734 | 0 | 56 | 420 | 330
#4:6779 | 0 | 57 | 450 | 338
#4:6833 | 0 | 58 | 538 | 350
#4:6885 | 0 | 59 | 521 | 364
#4:6944 | 0 | 60 | 593 | 381
#4:7003 | 0 | 61 | 586 | 400
#4:7068 | 2 | 62 | 654 | 421
#4:7125 | 3 | 63 | 695 | 446
#4:7175 | 57 | 64 | 659 | 469
#4:7225 | 104 | 65 | 654 | 490
#4:7325 | 142 | 66 | 656 | 502
#4:7375 | 163 | 67 | 543 | 504
#4:7425 | 168 | 68 | 523 | 497
#4:7475 | 157 | 69 | 457 | 484
#4:7525 | 136 | 70 | 439 | 463
#4:7573 | 40 | 71 | 415 | 435
#4:7610 | 0 | 72 | 366 | 405
#4:7647 | 0 | 73 | 374 | 377
#4:7689 | 0 | 74 | 416 | 353
#4:7772 | 0 | 76 | 439 | 330
#4:7815 | 0 | 77 | 424 | 327
#4:7861 | 0 | 78 | 458 | 329
#4:7907 | 0 | 79 | 466 | 334
#4:7951 | 0 | 80 | 437 | 341
#4:7998 | 0 | 81 | 471 | 351
#4:8054 | 0 | 82 | 556 | 365
#4:8108 | 0 | 83 | 540 | 379
#4:8170 | 0 | 84 | 621 | 397
#4:8225 | 0 | 85 | 623 | 417
#4:8275 | 0 | 86 | 711 | 442
#4:8375 | 50 | 87 | 789 | 475
#4:8425 | 114 | 88 | 743 | 505
#4:8475 | 167 | 89 | 675 | 526
#4:8575 | 202 | 90 | 631 | 533
#4:8625 | 213 | 91 | 495 | 529
#4:8675 | 208 | 92 | 464 | 513
#4:8723 | 147 | 93 | 397 | 490
#4:8763 | 92 | 94 | 392 | 458
#4:8799 | 0 | 95 | 365 | 416
#4:8865 | 0 | 97 | 331 | 340
#4:8903 | 0 | 98 | 382 | 315
#4:8940 | 0 | 99 | 363 | 302
#4:9018 | 0 | 101 | 380 | 294
#4:9059 | 0 | 102 | 410 | 296
#4:9100 | 0 | 103 | 415 | 301
#4:9139 | 0 | 104 | 386 | 306
#4:9181 | 0 | 105 | 420 | 315
#4:9230 | 0 | 106 | 494 | 327
#4:9278 | 0 | 107 | 477 | 338
#4:9332 | 0 | 108 | 541 | 352
#4:9386 | 0 | 109 | 533 | 368
#4:9445 | 0 | 110 | 598 | 386
#4:9509 | 0 | 111 | 637 | 409
#4:9571 | 21 | 112 | 620 | 432
#4:9625 | 22 | 113 | 713 | 461
#4:9725 | 83 | 114 | 840 | 496
#4:9775 | 146 | 115 | 699 | 518
#4:9825 | 183 | 116 | 643 | 528
#4:9875 | 198 | 117 | 520 | 527
#4:9925 | 197 | 118 | 484 | 516
#4:9975 | 183 | 119 | 441 | 496
#4:10025 | 152 | 120 | 368 | 471
#4:10075 | 108 | 121 | 364 | 436
#4:10119 | 0 | 122 | 401 | 392
#4:10155 | 0 | 123 | 359 | 358
#4:10194 | 0 | 124 | 386 | 332
#4:10271 | 0 | 126 | 392 | 308
#4:10311 | 0 | 127 | 404 | 305
#4:10348 | 0 | 128 | 374 | 305
#4:10389 | 0 | 129 | 405 | 309
#4:10437 | 0 | 130 | 477 | 317
#4:10482 | 0 | 131 | 453 | 326
#4:10533 | 0 | 132 | 513 | 339
#4:10584 | 0 | 133 | 506 | 352
#4:10640 | 0 | 134 | 559 | 369
#4:10698 | 0 | 135 | 584 | 387
#4:10754 | 0 | 136 | 558 | 405
#4:10817 | 8 | 137 | 626 | 427
#4:10875 | 8 | 138 | 785 | 458
#4:10925 | 73 | 139 | 742 | 487
#4:11025 | 129 | 140 | 728 | 509
#4:11075 | 164 | 141 | 604 | 518
#4:11125 | 181 | 142 | 553 | 518
#4:11175 | 180 | 143 | 487 | 508
#4:11225 | 167 | 144 | 403 | 493
#4:11275 | 142 | 145 | 399 | 470
#4:11325 | 103 | 146 | 427 | 434
#4:11369 | 0 | 147 | 387 | 399
#4:11409 | 0 | 148 | 400 | 366
#4:11447 | 0 | 149 | 376 | 343
#4:11487 | 0 | 150 | 407 | 329
#4:11567 | 0 | 152 | 381 | 319
#4:11608 | 0 | 153 | 411 | 320
#4:11657 | 0 | 154 | 491 | 326
#4:11705 | 0 | 155 | 475 | 335
#4:11758 | 0 | 156 | 536 | 349
#4:11811 | 0 | 157 | 530 | 364
#4:11871 | 0 | 158 | 597 | 383
#4:11925 | 0 | 159 | 644 | 407
#4:11975 | 0 | 160 | 629 | 431
#4:12025 | 19 | 161 | 728 | 463
#4:12125 | 84 | 162 | 847 | 499
#4:12225 | 148 | 163 | 688 | 520
#4:12275 | 183 | 164 | 618 | 528
#4:12325 | 197 | 165 | 500 | 525
#4:12375 | 194 | 166 | 467 | 512
#4:12425 | 175 | 167 | 430 | 491
#4:12463 | 94 | 168 | 357 | 464
#4:12498 | 16 | 169 | 357 | 427
#4:12539 | 0 | 170 | 402 | 382
#4:12616 | 0 | 172 | 394 | 328
#4:12653 | 0 | 173 | 376 | 316
#4:12694 | 0 | 174 | 403 | 309
#4:12773 | 0 | 176 | 381 | 310
#4:12814 | 0 | 177 | 408 | 315
#4:12862 | 0 | 178 | 485 | 323
#4:12909 | 0 | 179 | 472 | 333
#4:12964 | 0 | 180 | 543 | 348
#4:13017 | 0 | 181 | 533 | 364
#4:13075 | 0 | 182 | 590 | 382
#4:13125 | 0 | 183 | 622 | 403
#4:13175 | 0 | 184 | 599 | 425
#4:13225 | 3 | 185 | 677 | 452
#4:13325 | 60 | 186 | 810 | 484
#4:13375 | 121 | 187 | 696 | 507
#4:13475 | 161 | 188 | 640 | 517
#4:13525 | 178 | 189 | 540 | 517
#4:13575 | 180 | 190 | 492 | 507
#4:13625 | 165 | 191 | 446 | 490
#4:13666 | 97 | 192 | 374 | 467
#4:13703 | 36 | 193 | 370 | 437
#4:13744 | 0 | 194 | 411 | 397
#4:13822 | 0 | 196 | 400 | 341
#4:13860 | 0 | 197 | 381 | 325
#4:13901 | 0 | 198 | 408 | 316
#4:13943 | 0 | 199 | 417 | 314
#4:14022 | 0 | 201 | 411 | 318
#4:14071 | 0 | 202 | 488 | 326
#4:14118 | 0 | 203 | 470 | 335
#4:14171 | 0 | 204 | 527 | 348
#4:14223 | 0 | 205 | 522 | 362
#4:14275 | 0 | 206 | 573 | 379
#4:14325 | 0 | 207 | 611 | 398
#4:14375 | 0 | 208 | 588 | 419
#4:14425 | 0 | 209 | 658 | 444
#4:14525 | 43 | 210 | 837 | 479
#4:14625 | 110 | 211 | 789 | 510
#4:14675 | 165 | 212 | 742 | 532
#4:14725 | 199 | 213 | 595 | 539
#4:14775 | 210 | 214 | 523 | 534
#4:14825 | 205 | 215 | 454 | 518
#4:14875 | 182 | 216 | 370 | 497
#4:14925 | 149 | 217 | 365 | 467
#4:14973 | 6 | 218 | 389 | 423
#4:15009 | 0 | 219 | 357 | 379
#4:15047 | 0 | 220 | 380 | 343
#4:15121 | 0 | 222 | 384 | 305
#4:15159 | 0 | 223 | 385 | 298
#4:15195 | 0 | 224 | 359 | 297
#4:15234 | 0 | 225 | 384 | 299
#4:15322 | 0 | 227 | 432 | 312
#4:15370 | 0 | 228 | 479 | 322
#4:15417 | 0 | 229 | 469 | 334
#4:15468 | 0 | 230 | 511 | 347
#4:15521 | 0 | 231 | 535 | 362
#4:15572 | 0 | 232 | 508 | 376
#4:15625 | 0 | 233 | 560 | 394
#4:15675 | 0 | 234 | 695 | 419
#4:15725 | 0 | 235 | 703 | 446
#4:15825 | 43 | 236 | 850 | 483
#4:15925 | 115 | 237 | 799 | 516
#4:15975 | 170 | 238 | 739 | 539
#4:16025 | 205 | 239 | 599 | 545
#4:16075 | 215 | 240 | 456 | 540
#4:16125 | 210 | 241 | 418 | 526
#4:16175 | 189 | 242 | 426 | 499
#4:16225 | 150 | 243 | 374 | 466
#4:16273 | 0 | 244 | 380 | 419
#4:16307 | 0 | 245 | 344 | 373
#4:16342 | 0 | 246 | 349 | 334
#4:16410 | 0 | 248 | 318 | 297
#4:16444 | 0 | 249 | 343 | 289
#4:16522 | 0 | 251 | 382 | 287
#4:16564 | 0 | 252 | 422 | 291
#4:16606 | 0 | 253 | 412 | 298
#4:16650 | 0 | 254 | 446 | 308
#4:16696 | 0 | 255 | 461 | 318
#4:16740 | 0 | 0 | 435 | 330
#4:16787 | 0 | 1 | 470 | 342
#4:16843 | 0 | 2 | 562 | 359
#4:16899 | 0 | 3 | 555 | 376
#4:16963 | 0 | 4 | 644 | 398
#4:17025 | 0 | 5 | 653 | 423
#4:17075 | 0 | 6 | 753 | 453
#4:17175 | 51 | 7 | 867 | 494
#4:17225 | 126 | 8 | 772 | 528
#4:17325 | 183 | 9 | 656 | 546
#4:17375 | 210 | 10 | 612 | 551
#4:17425 | 218 | 11 | 474 | 543
#4:17475 | 209 | 12 | 448 | 523
#4:17525 | 182 | 13 | 391 | 497
#4:17564 | 75 | 14 | 378 | 460
#4:17600 | 0 | 15 | 358 | 409
#4:17664 | 0 | 17 | 319 | 330
#4:17701 | 0 | 18 | 366 | 305
#4:17773 | 0 | 20 | 375 | 285
#4:17810 | 0 | 21 | 367 | 283
#4:17849 | 0 | 22 | 391 | 284
#4:17925 | 0 | 24 | 366 | 292
#4:17964 | 0 | 25 | 389 | 300
#4:18010 | 0 | 26 | 461 | 309
#4:18054 | 0 | 27 | 439 | 318
#4:18103 | 0 | 28 | 490 | 330
#4:18152 | 0 | 29 | 483 | 341
#4:18204 | 0 | 30 | 524 | 355
#4:18259 | 0 | 31 | 548 | 370
#4:18311 | 0 | 32 | 516 | 385
#4:18367 | 0 | 33 | 565 | 402
#4:18425 | 0 | 34 | 693 | 426
#4:18475 | 0 | 35 | 689 | 451
#4:18575 | 40 | 36 | 821 | 484
#4:18625 | 103 | 37 | 777 | 513
#4:18725 | 153 | 38 | 692 | 530
#4:18775 | 181 | 39 | 586 | 534
#4:18825 | 186 | 40 | 458 | 528
#4:18875 | 179 | 41 | 431 | 515
#4:18925 | 160 | 42 | 447 | 490
#4:18966 | 67 | 43 | 392 | 460
#4:19006 | 0 | 44 | 398 | 418
#4:19043 | 0 | 45 | 373 | 378
#4:19121 | 0 | 47 | 391 | 327
#4:19156 | 0 | 48 | 354 | 317
#4:19195 | 0 | 49 | 388 | 312
#4:19240 | 0 | 50 | 450 | 313
#4:19283 | 0 | 51 | 431 | 317
#4:19331 | 0 | 52 | 479 | 325
#4:19379 | 0 | 53 | 477 | 335
#4:19431 | 0 | 54 | 522 | 349
#4:19486 | 0 | 55 | 551 | 365
#4:19539 | 0 | 56 | 529 | 383
#4:19599 | 0 | 57 | 592 | 403
#4:19674 | 1 | 58 | 749 | 433
#4:19725 | 1 | 59 | 767 | 467
#4:19825 | 71 | 60 | 868 | 505
#4:19875 | 140 | 61 | 766 | 534
#4:19975 | 186 | 62 | 659 | 548
#4:20025 | 206 | 63 | 552 | 548
#4:20075 | 207 | 64 | 427 | 538
#4:20118 | 166 | 65 | 401 | 519
#4:20160 | 115 | 66 | 424 | 486
#4:20197 | 42 | 67 | 370 | 447
#4:20273 | 0 | 69 | 366 | 359
#4:20311 | 0 | 70 | 376 | 331
#4:20348 | 0 | 71 | 375 | 313
#4:20420 | 0 | 73 | 366 | 301
#4:20463 | 0 | 74 | 435 | 302
#4:20505 | 0 | 75 | 413 | 307
#4:20551 | 0 | 76 | 462 | 314
#4:20596 | 0 | 77 | 446 | 322
#4:20644 | 0 | 78 | 488 | 333
#4:20696 | 0 | 79 | 514 | 347
#4:20744 | 0 | 80 | 482 | 360
#4:20798 | 0 | 81 | 534 | 377
#4:20863 | 0 | 82 | 656 | 399
#4:20925 | 0 | 83 | 666 | 425
#4:20975 | 0 | 84 | 818 | 460
#4:21075 | 56 | 85 | 883 | 504
#4:21175 | 136 | 86 | 866 | 542
#4:21225 | 193 | 87 | 701 | 560
#4:21275 | 219 | 88 | 523 | 564
#4:21325 | 226 | 89 | 467 | 558
#4:21375 | 220 | 90 | 464 | 538
#4:21425 | 195 | 91 | 397 | 512
#4:21475 | 156 | 92 | 400 | 470
#4:21518 | 0 | 93 | 362 | 418
#4:21554 | 0 | 94 | 355 | 367
#4:21622 | 0 | 96 | 327 | 313
#4:21656 | 0 | 97 | 337 | 300
#4:21696 | 0 | 98 | 399 | 293
#4:21734 | 0 | 99 | 378 | 291
#4:21817 | 0 | 101 | 410 | 299
#4:21862 | 0 | 102 | 445 | 308
#4:21908 | 0 | 103 | 462 | 318
#4:21951 | 0 | 104 | 432 | 329
#4:21999 | 0 | 105 | 471 | 342
#4:22055 | 0 | 106 | 567 | 359
#4:22111 | 0 | 107 | 557 | 377
#4:22175 | 0 | 108 | 651 | 399
#4:22225 | 0 | 109 | 663 | 425
#4:22275 | 0 | 110 | 775 | 458
#4:22375 | 48 | 111 | 902 | 502
#4:22475 | 128 | 112 | 764 | 535
#4:22525 | 180 | 113 | 680 | 556
#4:22575 | 209 | 114 | 628 | 562
#4:22625 | 218 | 115 | 480 | 554
#4:22675 | 210 | 116 | 456 | 535
#4:22725 | 185 | 117 | 403 | 509
#4:22775 | 148 | 118 | 394 | 471
#4:22825 | 83 | 119 | 376 | 418
#4:22862 | 0 | 120 | 329 | 375
#4:22895 | 0 | 121 | 331 | 340
#4:22968 | 0 | 123 | 354 | 301
#4:23006 | 0 | 124 | 381 | 294
#4:23044 | 0 | 125 | 378 | 291
#4:23084 | 0 | 126 | 407 | 293
#4:23165 | 0 | 128 | 389 | 302
#4:23207 | 0 | 129 | 422 | 312
#4:23258 | 0 | 130 | 505 | 325
#4:23306 | 0 | 131 | 482 | 338
#4:23361 | 0 | 132 | 554 | 355
#4:23417 | 0 | 133 | 560 | 373
#4:23475 | 0 | 134 | 634 | 396
#4:23525 | 0 | 135 | 692 | 424
#4:23575 | 0 | 136 | 698 | 455
#4:23675 | 39 | 137 | 836 | 496
#4:23775 | 115 | 138 | 922 | 538
#4:23825 | 181 | 139 | 711 | 561
#4:23925 | 215 | 140 | 618 | 567
#4:23975 | 225 | 141 | 501 | 561
#4:24025 | 218 | 142 | 457 | 543
#4:24066 | 156 | 143 | 414 | 516
#4:24101 | 98 | 144 | 349 | 481
#4:24175 | 5 | 146 | 387 | 379
#4:24211 | 0 | 147 | 361 | 344
#4:24250 | 0 | 148 | 386 | 320
#4:24286 | 0 | 149 | 366 | 307
#4:24367 | 0 | 151 | 410 | 300
#4:24405 | 0 | 152 | 382 | 303
#4:24446 | 0 | 153 | 414 | 310
#4:24496 | 0 | 154 | 496 | 320
#4:24545 | 0 | 155 | 485 | 333
#4:24601 | 0 | 156 | 564 | 351
#4:24659 | 0 | 157 | 580 | 372
#4:24724 | 0 | 158 | 651 | 398
#4:24775 | 0 | 159 | 713 | 428
#4:24825 | 0 | 160 | 715 | 462
#4:24925 | 55 | 161 | 840 | 504
#4:25025 | 131 | 162 | 936 | 548
#4:25075 | 196 | 163 | 695 | 569
#4:25125 | 226 | 164 | 600 | 573
#4:25175 | 231 | 165 | 481 | 563
#4:25225 | 221 | 166 | 440 | 542
#4:25275 | 194 | 167 | 400 | 511
#4:25325 | 149 | 168 | 342 | 473
#4:25375 | 88 | 169 | 342 | 423
#4:25413 | 0 | 170 | 376 | 367
#4:25446 | 0 | 171 | 335 | 331
#4:25517 | 0 | 173 | 349 | 294
#4:25553 | 0 | 174 | 361 | 286
#4:25624 | 0 | 176 | 339 | 282
#4:25660 | 0 | 177 | 363 | 285
#4:25703 | 0 | 178 | 425 | 290
#4:25743 | 0 | 179 | 403 | 296
#4:25788 | 0 | 180 | 452 | 306
#4:25833 | 0 | 181 | 444 | 315
#4:25881 | 0 | 182 | 484 | 328
#4:25931 | 0 | 183 | 501 | 341
#4:25979 | 0 | 184 | 478 | 355
#4:26032 | 0 | 185 | 523 | 371
#4:26096 | 0 | 186 | 642 | 393
#4:26160 | 0 | 187 | 642 | 417
#4:26225 | 0 | 188 | 766 | 448
#4:26275 | 20 | 189 | 840 | 488
#4:26375 | 96 | 190 | 932 | 532
#4:26475 | 168 | 191 | 766 | 559
#4:26525 | 206 | 192 | 556 | 567
#4:26575 | 217 | 193 | 485 | 563
#4:26625 | 215 | 194 | 481 | 547
#4:26675 | 194 | 195 | 399 | 522
#4:26724 | 103 | 196 | 403 | 486
#4:26761 | 13 | 197 | 375 | 440
#4:26798 | 0 | 198 | 370 | 383
#4:26868 | 0 | 200 | 331 | 321
#4:26903 | 0 | 201 | 351 | 308
#4:26944 | 0 | 202 | 410 | 301
#4:26983 | 0 | 203 | 386 | 299
#4:27067 | 0 | 205 | 415 | 306
#4:27112 | 0 | 206 | 447 | 313
#4:27158 | 0 | 207 | 455 | 322
#4:27200 | 0 | 208 | 427 | 332
#4:27246 | 0 | 209 | 459 | 342
#4:27301 | 0 | 210 | 546 | 356
#4:27353 | 0 | 211 | 521 | 370
#4:27413 | 0 | 212 | 598 | 387
#4:27473 | 0 | 213 | 602 | 406
#4:27525 | 0 | 214 | 674 | 428
#4:27575 | 0 | 215 | 719 | 455
#4:27675 | 33 | 216 | 720 | 484
#4:27725 | 88 | 217 | 760 | 514
#4:27825 | 141 | 218 | 762 | 536
#4:27875 | 174 | 219 | 603 | 544
#4:27925 | 185 | 220 | 566 | 541
#4:27975 | 183 | 221 | 475 | 528
#4:28025 | 166 | 222 | 446 | 505
#4:28075 | 133 | 223 | 415 | 475
#4:28124 | 9 | 224 | 359 | 438
#4:28161 | 0 | 225 | 371 | 400
#4:28203 | 0 | 226 | 422 | 366
#4:28242 | 0 | 227 | 394 | 345
#4:28286 | 0 | 228 | 435 | 332
#4:28375 | 0 | 230 | 459 | 328
#4:28423 | 0 | 231 | 477 | 334
#4:28467 | 0 | 232 | 449 | 343
#4:28516 | 0 | 233 | 486 | 355
#4:28575 | 0 | 234 | 590 | 372
#4:28625 | 0 | 235 | 580 | 390
#4:28675 | 0 | 236 | 673 | 414
#4:28725 | 0 | 237 | 695 | 441
#4:28825 | 9 | 238 | 822 | 477
#4:28925 | 81 | 239 | 843 | 514
#4:28975 | 142 | 240 | 677 | 536
#4:29025 | 177 | 241 | 609 | 549
#4:29075 | 197 | 242 | 583 | 548
#4:29125 | 196 | 243 | 471 | 537
#4:29175 | 183 | 244 | 459 | 516
#4:29225 | 153 | 245 | 411 | 487
#4:29275 | 108 | 246 | 399 | 445
#4:29325 | 28 | 247 | 386 | 399
#4:29371 | 0 | 248 | 345 | 366
#4:29407 | 0 | 249 | 355 | 341
#4:29447 | 0 | 250 | 406 | 323
#4:29486 | 0 | 251 | 385 | 314
#4:29570 | 0 | 253 | 417 | 312
#4:29615 | 0 | 254 | 449 | 317
#4:29661 | 0 | 255 | 463 | 325
#4:29705 | 0 | 0 | 435 | 334
#4:29753 | 0 | 1 | 473 | 346
#4:29810 | 0 | 2 | 571 | 362
#4:29866 | 0 | 3 | 557 | 379
#4:29925 | 0 | 4 | 647 | 401
#4:29975 | 0 | 5 | 668 | 426
#4:30025 | 0 | 6 | 770 | 458
#4:30125 | 45 | 7 | 855 | 498
#4:30225 | 117 | 8 | 761 | 530
#4:30275 | 170 | 9 | 692 | 552
#4:30325 | 202 | 10 | 650 | 560
#4:30375 | 213 | 11 | 498 | 554
#4:30425 | 207 | 12 | 462 | 535
#4:30475 | 182 | 13 | 398 | 509
#4:30525 | 143 | 14 | 393 | 471
#4:30575 | 80 | 15 | 378 | 423
#4:30616 | 0 | 16 | 327 | 380
#4:30649 | 0 | 17 | 332 | 344
#4:30723 | 0 | 19 | 353 | 302
#4:30761 | 0 | 20 | 383 | 294
#4:30799 | 0 | 21 | 376 | 292
#4:30839 | 0 | 22 | 402 | 293
#4:30917 | 0 | 24 | 377 | 300
#4:30957 | 0 | 25 | 404 | 308
#4:31005 | 0 | 26 | 477 | 317
#4:31051 | 0 | 27 | 454 | 327
#4:31103 | 0 | 28 | 518 | 341
#4:31154 | 0 | 29 | 518 | 355
#4:31211 | 0 | 30 | 572 | 372
#4:31272 | 0 | 31 | 604 | 392
#4:31325 | 0 | 32 | 590 | 414
#4:31375 | 0 | 33 | 661 | 439
#4:31475 | 3 | 34 | 854 | 477
#4:31525 | 78 | 35 | 835 | 515
#4:31625 | 142 | 36 | 791 | 542
#4:31675 | 184 | 37 | 640 | 555
#4:31725 | 203 | 38 | 563 | 554
#4:31775 | 202 | 39 | 481 | 541
#4:31825 | 188 | 40 | 393 | 522
#4:31875 | 159 | 41 | 382 | 494
#4:31925 | 116 | 42 | 412 | 449
#4:31970 | 0 | 43 | 369 | 403
#4:32007 | 0 | 44 | 378 | 362
#4:32044 | 0 | 45 | 366 | 334
#4:32122 | 0 | 47 | 387 | 307
#4:32158 | 0 | 48 | 361 | 304
#4:32197 | 0 | 49 | 387 | 305
#4:32242 | 0 | 50 | 452 | 309
#4:32285 | 0 | 51 | 427 | 315
#4:32332 | 0 | 52 | 476 | 324
> !daq stop

:stopped

> !drv off

:OFF

