> !reset now

'PS Echtzeitsysteme - ucboard

'US device 3 not found!


> !daq grp 4 ~all _tics cruise_drvval hall_cnt hall_dt hall_dt8

:ok

> !daq start

:started

> !steer 100

:100
> !drv c 500

:C 500

#4:4145 | 300 | 2 | 625 | 62
#4:4195 | 0 | 3 | 481 | 110
#4:4245 | 0 | 4 | 410 | 151
#4:4295 | 0 | 5 | 449 | 196
#4:4345 | 0 | 6 | 498 | 246
#4:4395 | 0 | 7 | 479 | 294
#4:4445 | 0 | 8 | 542 | 348
#4:4495 | 8 | 9 | 545 | 340
#4:4545 | 1 | 10 | 628 | 403
#4:4645 | 48 | 11 | 637 | 419
#4:4695 | 56 | 12 | 623 | 440
#4:4745 | 68 | 13 | 607 | 456
#4:4845 | 76 | 14 | 674 | 473
#4:4895 | 85 | 15 | 599 | 485
#4:4945 | 90 | 16 | 610 | 492
#4:4995 | 93 | 17 | 549 | 492
#4:5045 | 93 | 18 | 544 | 484
#4:5095 | 89 | 19 | 509 | 471
#4:5145 | 84 | 20 | 449 | 454
#4:5195 | 75 | 21 | 455 | 439
#4:5245 | 68 | 22 | 502 | 422
#4:5295 | 58 | 23 | 460 | 408
#4:5345 | 50 | 24 | 483 | 395
#4:5395 | 42 | 25 | 445 | 385
#4:5445 | 35 | 26 | 467 | 377
#4:5495 | 30 | 27 | 470 | 373
#4:5545 | 27 | 28 | 430 | 371
#4:5590 | 26 | 29 | 453 | 371
#4:5641 | 26 | 30 | 511 | 372
#4:5688 | 27 | 31 | 466 | 372
#4:5739 | 28 | 32 | 506 | 375
#4:5785 | 29 | 33 | 459 | 376
#4:5832 | 30 | 34 | 471 | 376
#4:5880 | 30 | 35 | 478 | 377
#4:5922 | 30 | 36 | 423 | 377
#4:5966 | 28 | 37 | 435 | 375
#4:6015 | 27 | 38 | 494 | 373
#4:6060 | 26 | 39 | 449 | 371
#4:6107 | 23 | 40 | 472 | 368
#4:6151 | 22 | 41 | 438 | 366
#4:6241 | 18 | 43 | 447 | 361
#4:6282 | 17 | 44 | 407 | 360
#4:6324 | 16 | 45 | 423 | 358
#4:6373 | 15 | 46 | 485 | 357
#4:6418 | 15 | 47 | 447 | 357
#4:6467 | 16 | 48 | 488 | 359
#4:6512 | 18 | 49 | 458 | 361
#4:6561 | 21 | 50 | 490 | 364
#4:6611 | 24 | 51 | 491 | 369
#4:6655 | 27 | 52 | 447 | 373
#4:6702 | 30 | 53 | 467 | 377
#4:6755 | 33 | 54 | 529 | 382
#4:6803 | 36 | 55 | 484 | 385
#4:6855 | 38 | 56 | 518 | 388
#4:6903 | 39 | 57 | 478 | 390
#4:6953 | 40 | 58 | 503 | 392
#4:7003 | 41 | 59 | 498 | 392
#4:7095 | 41 | 61 | 464 | 392
#4:7145 | 40 | 62 | 525 | 392
#4:7195 | 40 | 63 | 484 | 392
#4:7245 | 40 | 64 | 518 | 392
#4:7295 | 40 | 65 | 475 | 391
#4:7345 | 40 | 66 | 496 | 391
#4:7394 | 39 | 67 | 497 | 390
#4:7439 | 39 | 68 | 448 | 390
#4:7486 | 39 | 69 | 463 | 390
#4:7537 | 39 | 70 | 518 | 390
#4:7585 | 38 | 71 | 478 | 389
#4:7637 | 38 | 72 | 513 | 389
#4:7683 | 38 | 73 | 466 | 388
#4:7731 | 36 | 74 | 480 | 386
#4:7779 | 35 | 75 | 477 | 384
#4:7822 | 34 | 76 | 429 | 382
#4:7866 | 32 | 77 | 444 | 380
#4:7916 | 31 | 78 | 500 | 379
#4:7961 | 29 | 79 | 452 | 376
#4:8010 | 27 | 80 | 486 | 373
#4:8055 | 26 | 81 | 448 | 372
#4:8102 | 25 | 82 | 465 | 370
#4:8189 | 22 | 84 | 410 | 366
#4:8231 | 21 | 85 | 430 | 365
#4:8280 | 20 | 86 | 487 | 363
#4:8325 | 20 | 87 | 449 | 363
#4:8373 | 19 | 88 | 481 | 363
#4:8418 | 19 | 89 | 450 | 363
#4:8466 | 20 | 90 | 477 | 364
#4:8514 | 22 | 91 | 477 | 366
#4:8557 | 23 | 92 | 425 | 367
#4:8601 | 24 | 93 | 446 | 369
#4:8652 | 26 | 94 | 507 | 371
#4:8698 | 27 | 95 | 462 | 372
#4:8793 | 28 | 97 | 454 | 374
#4:8841 | 28 | 98 | 474 | 374
#4:8888 | 28 | 99 | 476 | 374
#4:8931 | 28 | 100 | 428 | 374
#4:8976 | 28 | 101 | 444 | 374
#4:9026 | 28 | 102 | 502 | 374
#4:9072 | 27 | 103 | 460 | 373
#4:9121 | 27 | 104 | 493 | 373
#4:9167 | 27 | 105 | 454 | 373
#4:9214 | 27 | 106 | 470 | 373
#4:9261 | 27 | 107 | 473 | 372
#4:9304 | 27 | 108 | 427 | 372
#4:9348 | 26 | 109 | 441 | 372
#4:9443 | 25 | 111 | 448 | 370
#4:9492 | 25 | 112 | 489 | 370
#4:9537 | 24 | 113 | 451 | 369
#4:9584 | 24 | 114 | 468 | 369
#4:9630 | 24 | 115 | 462 | 368
#4:9672 | 23 | 116 | 418 | 367
#4:9716 | 23 | 117 | 439 | 367
#4:9766 | 23 | 118 | 498 | 367
#4:9811 | 23 | 119 | 455 | 368
#4:9860 | 23 | 120 | 485 | 367
#4:9905 | 23 | 121 | 454 | 368
#4:9952 | 24 | 122 | 472 | 368
#4:10042 | 24 | 124 | 425 | 369
#4:10086 | 24 | 125 | 439 | 369
#4:10136 | 25 | 126 | 503 | 370
#4:10182 | 25 | 127 | 459 | 370
#4:10231 | 25 | 128 | 488 | 371
#4:10276 | 25 | 129 | 455 | 371
#4:10324 | 26 | 130 | 475 | 371
#4:10371 | 26 | 131 | 472 | 371
#4:10413 | 26 | 132 | 423 | 371
#4:10458 | 26 | 133 | 442 | 371
#4:10507 | 25 | 134 | 495 | 371
#4:10553 | 25 | 135 | 456 | 370
#4:10602 | 25 | 136 | 489 | 370
#4:10693 | 24 | 138 | 466 | 369
#4:10740 | 24 | 139 | 469 | 369
#4:10783 | 24 | 140 | 422 | 369
#4:10827 | 24 | 141 | 439 | 369
#4:10876 | 24 | 142 | 497 | 369
#4:10922 | 24 | 143 | 453 | 369
#4:10970 | 24 | 144 | 486 | 368
#4:11016 | 24 | 145 | 458 | 369
#4:11063 | 25 | 146 | 472 | 369
#4:11110 | 25 | 147 | 469 | 369
#4:11153 | 25 | 148 | 427 | 370
#4:11199 | 27 | 149 | 464 | 372
#4:11252 | 29 | 150 | 527 | 375
#4:11300 | 30 | 151 | 475 | 377
#4:11350 | 32 | 152 | 503 | 379
#4:11397 | 32 | 153 | 470 | 380
#4:11495 | 34 | 155 | 488 | 385
#4:11539 | 36 | 156 | 439 | 386
#4:11585 | 36 | 157 | 459 | 385
#4:11638 | 36 | 158 | 526 | 385
#4:11688 | 37 | 159 | 497 | 387
#4:11738 | 37 | 160 | 501 | 387
#4:11786 | 38 | 161 | 483 | 388
#4:11836 | 38 | 162 | 498 | 389
#4:11885 | 39 | 163 | 493 | 389
#4:11930 | 39 | 164 | 445 | 390
#4:11976 | 39 | 165 | 461 | 390
#4:12028 | 39 | 166 | 519 | 390
#4:12076 | 38 | 167 | 480 | 388
#4:12127 | 38 | 168 | 510 | 389
#4:12174 | 37 | 169 | 468 | 387
#4:12222 | 36 | 170 | 485 | 386
#4:12271 | 36 | 171 | 481 | 385
#4:12314 | 35 | 172 | 439 | 384
#4:12360 | 35 | 173 | 456 | 384
#4:12411 | 34 | 174 | 513 | 383
#4:12459 | 34 | 175 | 471 | 382
#4:12509 | 34 | 176 | 507 | 382
#4:12556 | 34 | 177 | 468 | 382
#4:12605 | 34 | 178 | 485 | 382
#4:12653 | 34 | 179 | 484 | 382
#4:12743 | 33 | 181 | 458 | 382
#4:12795 | 33 | 182 | 523 | 383
#4:12841 | 34 | 183 | 468 | 383
#4:12892 | 34 | 184 | 504 | 382
#4:12939 | 34 | 185 | 472 | 383
#4:12989 | 34 | 186 | 491 | 383
#4:13037 | 35 | 187 | 488 | 384
#4:13081 | 35 | 188 | 436 | 384
#4:13126 | 35 | 189 | 453 | 383
#4:13179 | 34 | 190 | 522 | 383
#4:13226 | 35 | 191 | 475 | 384
#4:13277 | 35 | 192 | 503 | 384
#4:13324 | 35 | 193 | 472 | 384
#4:13373 | 35 | 194 | 493 | 384
#4:13422 | 35 | 195 | 490 | 384
#4:13466 | 36 | 196 | 442 | 385
#4:13512 | 36 | 197 | 456 | 385
#4:13564 | 36 | 198 | 522 | 385
#4:13612 | 36 | 199 | 480 | 386
#4:13664 | 37 | 200 | 513 | 387
#4:13711 | 37 | 201 | 473 | 387
#4:13761 | 37 | 202 | 495 | 387
#4:13811 | 38 | 203 | 499 | 388
#4:13855 | 38 | 204 | 446 | 388
#4:13902 | 39 | 205 | 470 | 390
#4:13956 | 40 | 206 | 533 | 391
#4:14004 | 40 | 207 | 479 | 391
#4:14056 | 40 | 208 | 522 | 392
#4:14105 | 41 | 209 | 488 | 393
#4:14155 | 42 | 210 | 503 | 394
#4:14205 | 42 | 211 | 500 | 394
#4:14250 | 42 | 212 | 448 | 394
#4:14297 | 42 | 213 | 468 | 394
#4:14350 | 42 | 214 | 532 | 394
#4:14398 | 41 | 215 | 475 | 394
#4:14495 | 40 | 217 | 472 | 390
#4:14545 | 39 | 218 | 493 | 389
#4:14593 | 37 | 219 | 482 | 388
#4:14636 | 36 | 220 | 426 | 385
#4:14681 | 35 | 221 | 451 | 384
#4:14732 | 33 | 222 | 507 | 381
#4:14777 | 32 | 223 | 455 | 379
#4:14825 | 30 | 224 | 480 | 377
#4:14870 | 28 | 225 | 445 | 374
#4:14916 | 26 | 226 | 463 | 371
#4:14963 | 24 | 227 | 463 | 369
#4:15003 | 23 | 228 | 406 | 367
#4:15094 | 19 | 230 | 484 | 362
#4:15138 | 18 | 231 | 439 | 361
#4:15186 | 17 | 232 | 471 | 360
#4:15230 | 17 | 233 | 443 | 359
#4:15277 | 17 | 234 | 469 | 360
#4:15325 | 18 | 235 | 476 | 361
#4:15368 | 20 | 236 | 430 | 364
#4:15413 | 23 | 237 | 456 | 367
#4:15465 | 25 | 238 | 521 | 371
#4:15513 | 28 | 239 | 477 | 374
#4:15564 | 31 | 240 | 510 | 378
#4:15612 | 33 | 241 | 477 | 382
#4:15661 | 35 | 242 | 489 | 384
#4:15710 | 35 | 243 | 487 | 385
#4:15753 | 35 | 244 | 428 | 384
#4:15798 | 35 | 245 | 457 | 384
#4:15850 | 35 | 246 | 515 | 384
#4:15896 | 34 | 247 | 466 | 383
#4:15993 | 33 | 249 | 469 | 381
#4:16042 | 33 | 250 | 488 | 381
#4:16091 | 33 | 251 | 487 | 381
#4:16134 | 33 | 252 | 426 | 381
#4:16179 | 32 | 253 | 451 | 380
#4:16230 | 32 | 254 | 511 | 380
#4:16276 | 32 | 255 | 466 | 379
#4:16326 | 31 | 0 | 491 | 379
#4:16372 | 31 | 1 | 464 | 378
#4:16420 | 30 | 2 | 481 | 377
#4:16469 | 30 | 3 | 483 | 377
#4:16511 | 30 | 4 | 423 | 377
#4:16555 | 29 | 5 | 445 | 376
#4:16606 | 29 | 6 | 505 | 376
#4:16652 | 28 | 7 | 457 | 375
#4:16745 | 28 | 9 | 449 | 373
#4:16793 | 26 | 10 | 472 | 372
#4:16840 | 26 | 11 | 473 | 371
#4:16882 | 25 | 12 | 416 | 370
#4:16926 | 25 | 13 | 437 | 370
#4:16975 | 24 | 14 | 498 | 369
#4:17021 | 24 | 15 | 454 | 369
#4:17069 | 23 | 16 | 482 | 368
#4:17114 | 24 | 17 | 452 | 368
#4:17161 | 23 | 18 | 467 | 368
#4:17208 | 23 | 19 | 470 | 367
#4:17294 | 23 | 21 | 441 | 368
#4:17345 | 23 | 22 | 509 | 369
#4:17391 | 24 | 23 | 458 | 369
#4:17440 | 25 | 24 | 496 | 371
#4:17487 | 26 | 25 | 463 | 372
#4:17535 | 28 | 26 | 486 | 374
#4:17584 | 29 | 27 | 483 | 375
#4:17627 | 30 | 28 | 429 | 376
#4:17673 | 31 | 29 | 458 | 378
#4:17725 | 32 | 30 | 524 | 380
#4:17773 | 33 | 31 | 475 | 381
#4:17824 | 34 | 32 | 510 | 383
#4:17871 | 35 | 33 | 480 | 384
#4:17923 | 37 | 34 | 509 | 387
#4:17974 | 39 | 35 | 509 | 389
#4:18019 | 40 | 36 | 454 | 392
#4:18067 | 42 | 37 | 484 | 394
#4:18123 | 44 | 38 | 553 | 397
#4:18172 | 45 | 39 | 493 | 399
#4:18225 | 46 | 40 | 529 | 401
#4:18274 | 47 | 41 | 490 | 402
#4:18325 | 47 | 42 | 509 | 402
#4:18376 | 47 | 43 | 508 | 402
#4:18421 | 46 | 44 | 449 | 401
#4:18468 | 46 | 45 | 469 | 400
#4:18522 | 45 | 46 | 542 | 399
#4:18571 | 45 | 47 | 490 | 399
#4:18623 | 44 | 48 | 515 | 397
#4:18671 | 43 | 49 | 485 | 397
#4:18722 | 43 | 50 | 506 | 396
#4:18773 | 43 | 51 | 505 | 396
#4:18818 | 44 | 52 | 456 | 397
#4:18867 | 44 | 53 | 482 | 398
#4:18921 | 44 | 54 | 543 | 398
#4:18971 | 45 | 55 | 500 | 399
#4:19025 | 47 | 56 | 540 | 402
#4:19076 | 48 | 57 | 508 | 404
#4:19128 | 49 | 58 | 526 | 406
#4:19181 | 50 | 59 | 526 | 408
#4:19228 | 51 | 60 | 464 | 409
#4:19276 | 51 | 61 | 489 | 409
#4:19332 | 52 | 62 | 552 | 410
#4:19381 | 51 | 63 | 494 | 410
#4:19433 | 50 | 64 | 519 | 408
#4:19482 | 49 | 65 | 487 | 406
#4:19533 | 48 | 66 | 509 | 404
#4:19584 | 47 | 67 | 510 | 402
#4:19629 | 46 | 68 | 451 | 401
#4:19677 | 46 | 69 | 480 | 400
#4:19734 | 46 | 70 | 564 | 401
#4:19785 | 48 | 71 | 519 | 404
#4:19841 | 50 | 72 | 556 | 407
#4:19893 | 52 | 73 | 521 | 411
#4:19945 | 52 | 74 | 549 | 415
#4:19995 | 54 | 75 | 550 | 419
#4:20045 | 57 | 76 | 482 | 422
#4:20095 | 58 | 77 | 498 | 424
#4:20145 | 59 | 78 | 560 | 423
#4:20195 | 59 | 79 | 508 | 422
#4:20245 | 58 | 80 | 542 | 421
#4:20295 | 58 | 81 | 489 | 418
#4:20345 | 56 | 82 | 514 | 414
#4:20395 | 54 | 83 | 507 | 410
#4:20445 | 51 | 84 | 462 | 408
#4:20495 | 50 | 85 | 481 | 406
#4:20545 | 50 | 86 | 547 | 405
#4:20595 | 49 | 87 | 491 | 403
#4:20645 | 48 | 88 | 526 | 402
#4:20695 | 47 | 89 | 490 | 402
#4:20745 | 47 | 90 | 519 | 402
#4:20795 | 47 | 91 | 499 | 401
#4:20845 | 46 | 92 | 454 | 401
#4:20895 | 46 | 93 | 474 | 400
#4:20945 | 46 | 94 | 541 | 399
#4:20995 | 45 | 95 | 489 | 399
#4:21045 | 45 | 96 | 519 | 398
#4:21095 | 45 | 97 | 483 | 398
#4:21145 | 44 | 98 | 503 | 396
#4:21195 | 43 | 99 | 505 | 397
#4:21245 | 43 | 100 | 443 | 395
#4:21295 | 43 | 101 | 463 | 394
#4:21345 | 42 | 102 | 531 | 393
#4:21395 | 41 | 103 | 486 | 393
#4:21445 | 41 | 104 | 517 | 393
#4:21495 | 41 | 105 | 481 | 393
#4:21545 | 41 | 106 | 502 | 393
#4:21595 | 41 | 107 | 511 | 393
#4:21645 | 41 | 108 | 452 | 394
#4:21695 | 42 | 109 | 470 | 395
#4:21745 | 42 | 110 | 536 | 395
#4:21795 | 43 | 111 | 490 | 396
#4:21845 | 43 | 112 | 529 | 397
#4:21895 | 44 | 113 | 490 | 398
#4:21945 | 44 | 114 | 511 | 399
#4:21995 | 45 | 115 | 514 | 399
#4:22045 | 45 | 116 | 461 | 400
#4:22095 | 46 | 117 | 483 | 401
#4:22145 | 46 | 118 | 541 | 402
#4:22195 | 47 | 119 | 487 | 402
#4:22245 | 47 | 120 | 527 | 401
#4:22295 | 46 | 121 | 489 | 401
#4:22345 | 46 | 122 | 509 | 401
#4:22395 | 46 | 123 | 510 | 401
#4:22445 | 46 | 124 | 455 | 400
#4:22495 | 46 | 125 | 479 | 400
#4:22545 | 45 | 126 | 542 | 400
#4:22595 | 45 | 127 | 488 | 400
#4:22645 | 45 | 128 | 524 | 399
#4:22695 | 45 | 129 | 484 | 399
#4:22745 | 45 | 130 | 503 | 398
#4:22795 | 45 | 131 | 496 | 397
#4:22845 | 44 | 132 | 437 | 395
#4:22894 | 41 | 133 | 454 | 393
#4:22945 | 41 | 134 | 518 | 390
#4:22993 | 38 | 135 | 470 | 388
#4:23043 | 36 | 136 | 499 | 386
#4:23089 | 35 | 137 | 463 | 384
#4:23137 | 33 | 138 | 479 | 381
#4:23185 | 32 | 139 | 479 | 380
#4:23227 | 31 | 140 | 422 | 378
#4:23271 | 30 | 141 | 437 | 377
#4:23320 | 28 | 142 | 492 | 374
#4:23365 | 26 | 143 | 450 | 372
#4:23413 | 25 | 144 | 482 | 370
#4:23458 | 24 | 145 | 444 | 368
#4:23504 | 22 | 146 | 460 | 366
#4:23592 | 20 | 148 | 412 | 364
#4:23636 | 20 | 149 | 438 | 364
#4:23686 | 21 | 150 | 503 | 365
#4:23732 | 22 | 151 | 459 | 366
#4:23782 | 24 | 152 | 502 | 368
#4:23830 | 26 | 153 | 473 | 371
#4:23878 | 28 | 154 | 485 | 374
#4:23926 | 29 | 155 | 482 | 375
#4:23970 | 30 | 156 | 434 | 378
#4:24016 | 32 | 157 | 456 | 379
#4:24067 | 33 | 158 | 517 | 381
#4:24114 | 33 | 159 | 468 | 382
#4:24164 | 33 | 160 | 495 | 381
#4:24210 | 32 | 161 | 466 | 380
#4:24259 | 33 | 162 | 488 | 380
#4:24308 | 33 | 163 | 488 | 381
#4:24395 | 32 | 165 | 448 | 379
#4:24445 | 32 | 166 | 508 | 378
#4:24492 | 31 | 167 | 462 | 378
#4:24542 | 30 | 168 | 494 | 378
#4:24588 | 30 | 169 | 458 | 377
#4:24635 | 29 | 170 | 473 | 375
#4:24683 | 28 | 171 | 482 | 375
#4:24726 | 29 | 172 | 425 | 375
#4:24770 | 28 | 173 | 445 | 375
#4:24821 | 28 | 174 | 509 | 375
#4:24868 | 28 | 175 | 463 | 375
#4:24917 | 28 | 176 | 495 | 375
#4:24963 | 28 | 177 | 458 | 375
#4:25010 | 29 | 178 | 474 | 375
#4:25058 | 28 | 179 | 480 | 375
#4:25101 | 29 | 180 | 430 | 375
#4:25147 | 29 | 181 | 451 | 376
#4:25244 | 29 | 183 | 464 | 376
#4:25294 | 30 | 184 | 502 | 377
#4:25341 | 30 | 185 | 464 | 377
#4:25388 | 30 | 186 | 477 | 378
#4:25436 | 30 | 187 | 479 | 377
#4:25479 | 30 | 188 | 427 | 377
#4:25524 | 30 | 189 | 450 | 377
#4:25575 | 30 | 190 | 513 | 377
#4:25621 | 30 | 191 | 458 | 377
#4:25671 | 29 | 192 | 492 | 376
#4:25717 | 29 | 193 | 459 | 375
#4:25764 | 29 | 194 | 473 | 375
#4:25811 | 28 | 195 | 477 | 375
#4:25854 | 28 | 196 | 424 | 374
#4:25899 | 28 | 197 | 446 | 374
#4:25949 | 28 | 198 | 507 | 374
#4:26045 | 28 | 200 | 490 | 374
#4:26091 | 28 | 201 | 459 | 374
#4:26139 | 28 | 202 | 477 | 374
#4:26187 | 29 | 203 | 484 | 375
#4:26231 | 30 | 204 | 437 | 376
#4:26278 | 31 | 205 | 470 | 379
#4:26331 | 33 | 206 | 527 | 381
#4:26378 | 34 | 207 | 477 | 382
#4:26430 | 35 | 208 | 517 | 385
#4:26478 | 36 | 209 | 474 | 386
#4:26527 | 37 | 210 | 489 | 387
#4:26576 | 38 | 211 | 495 | 389
#4:26621 | 38 | 212 | 443 | 389
#4:26667 | 38 | 213 | 466 | 389
#4:26720 | 39 | 214 | 532 | 389
#4:26771 | 40 | 215 | 504 | 392
#4:26822 | 40 | 216 | 510 | 391
#4:26871 | 41 | 217 | 495 | 393
#4:26921 | 42 | 218 | 496 | 394
#4:26971 | 42 | 219 | 500 | 394
#4:27016 | 42 | 220 | 444 | 395
#4:27062 | 42 | 221 | 465 | 395
#4:27115 | 42 | 222 | 528 | 394
#4:27163 | 40 | 223 | 479 | 392
#4:27214 | 40 | 224 | 509 | 392
#4:27261 | 39 | 225 | 475 | 390
#4:27311 | 38 | 226 | 491 | 389
#4:27360 | 38 | 227 | 490 | 388
#4:27403 | 37 | 228 | 434 | 387
#4:27449 | 37 | 229 | 460 | 386
#4:27502 | 36 | 230 | 525 | 386
#4:27549 | 36 | 231 | 474 | 386
#4:27600 | 36 | 232 | 508 | 385
#4:27647 | 36 | 233 | 469 | 385
#4:27745 | 36 | 235 | 494 | 385
#4:27789 | 36 | 236 | 434 | 385
#4:27835 | 36 | 237 | 461 | 385
#4:27888 | 36 | 238 | 526 | 386
#4:27935 | 36 | 239 | 476 | 386
#4:27986 | 36 | 240 | 510 | 386
#4:28034 | 37 | 241 | 473 | 386
#4:28083 | 36 | 242 | 489 | 386
#4:28132 | 36 | 243 | 494 | 386
#4:28176 | 37 | 244 | 440 | 387
#4:28222 | 37 | 245 | 462 | 387
#4:28275 | 37 | 246 | 524 | 387
#4:28323 | 37 | 247 | 477 | 387
#4:28374 | 37 | 248 | 512 | 387
#4:28421 | 37 | 249 | 476 | 387
#4:28471 | 37 | 250 | 492 | 388
#4:28520 | 37 | 251 | 493 | 388
#4:28564 | 37 | 252 | 441 | 388
#4:28611 | 38 | 253 | 469 | 388
#4:28665 | 39 | 254 | 534 | 389
#4:28713 | 39 | 255 | 479 | 389
#4:28764 | 39 | 0 | 517 | 390
#4:28813 | 39 | 1 | 483 | 391
#4:28863 | 40 | 2 | 501 | 392
#4:28913 | 41 | 3 | 501 | 392
#4:28957 | 41 | 4 | 444 | 393
#4:29005 | 41 | 5 | 476 | 393
#4:29059 | 42 | 6 | 543 | 394
#4:29109 | 43 | 7 | 491 | 395
#4:29161 | 43 | 8 | 522 | 396
#4:29210 | 43 | 9 | 490 | 397
#4:29261 | 44 | 10 | 507 | 397
#4:29311 | 44 | 11 | 506 | 398
#4:29356 | 44 | 12 | 447 | 398
#4:29403 | 44 | 13 | 471 | 398
#4:29457 | 43 | 14 | 534 | 397
#4:29505 | 43 | 15 | 481 | 396
#4:29556 | 42 | 16 | 513 | 395
#4:29603 | 41 | 17 | 472 | 393
#4:29652 | 40 | 18 | 488 | 391
#4:29744 | 37 | 20 | 430 | 388
#4:29789 | 36 | 21 | 451 | 386
#4:29840 | 34 | 22 | 508 | 383
#4:29886 | 32 | 23 | 455 | 380
#4:29934 | 31 | 24 | 487 | 378
#4:29980 | 29 | 25 | 451 | 376
#4:30025 | 27 | 26 | 459 | 373
#4:30071 | 25 | 27 | 460 | 370
#4:30113 | 24 | 28 | 411 | 368
#4:30156 | 22 | 29 | 432 | 366
#4:30205 | 20 | 30 | 487 | 364
#4:30249 | 19 | 31 | 442 | 363
#4:30341 | 18 | 33 | 448 | 361
#4:30387 | 18 | 34 | 462 | 361
#4:30434 | 19 | 35 | 468 | 362
#4:30476 | 20 | 36 | 418 | 363
#4:30521 | 21 | 37 | 451 | 365
#4:30573 | 24 | 38 | 520 | 368
#4:30621 | 26 | 39 | 472 | 371
#4:30671 | 28 | 40 | 501 | 374
#4:30717 | 29 | 41 | 467 | 376
#4:30766 | 31 | 42 | 485 | 378
#4:30814 | 32 | 43 | 481 | 379
#4:30857 | 32 | 44 | 427 | 380
#4:30902 | 32 | 45 | 449 | 380
#4:30953 | 32 | 46 | 514 | 379
#4:31000 | 32 | 47 | 471 | 379
#4:31050 | 31 | 48 | 492 | 378
#4:31144 | 31 | 50 | 480 | 378
#4:31192 | 30 | 51 | 481 | 378
#4:31235 | 30 | 52 | 428 | 378
#4:31280 | 30 | 53 | 447 | 378
#4:31331 | 30 | 54 | 508 | 377
#4:31377 | 29 | 55 | 462 | 376
#4:31427 | 30 | 56 | 496 | 376
#4:31473 | 29 | 57 | 459 | 376
#4:31520 | 29 | 58 | 473 | 375
#4:31567 | 28 | 59 | 469 | 374
#4:31609 | 28 | 60 | 422 | 374
#4:31654 | 27 | 61 | 446 | 373
#4:31704 | 27 | 62 | 504 | 373
#4:31750 | 27 | 63 | 456 | 372
#4:31844 | 26 | 65 | 457 | 371
#4:31891 | 25 | 66 | 470 | 371
#4:31937 | 25 | 67 | 464 | 370
#4:31979 | 24 | 68 | 411 | 369
#4:32022 | 23 | 69 | 437 | 368
#4:32073 | 23 | 70 | 505 | 368
#4:32118 | 23 | 71 | 452 | 368
#4:32166 | 23 | 72 | 481 | 367
#4:32212 | 23 | 73 | 462 | 368
#4:32260 | 24 | 74 | 474 | 368
#4:32308 | 25 | 75 | 477 | 370
> !daq stop

#4:32393 | 25 | 77 | 438 | 371
:stopped

> !drv off

:OFF

