> !reset now

'PS Echtzeitsysteme - ucboard

'US device 3 not found!


'PS Echtzeitsysteme - ucboard

'US device 3 not found!


> !daq grp 4 ~all _tics cruise_drvval hall_cnt hall_dt hall_dt8

:ok

> !daq start

:started

> !steer 100

:100
> !drv c 2000

:C 20
#4:4124 | 900 | 2 | 487 | 48
#4:4174 | 0 | 3 | 356 | 84
#4:4219 | 423 | 4 | 309 | 115
#4:4269 | 692 | 6 | 227 | 165
#4:4314 | 825 | 8 | 230 | 210
#4:4373 | 760 | 11 | 184 | 185
#4:4424 | 682 | 14 | 150 | 154
#4:4471 | 561 | 17 | 150 | 136
#4:4515 | 486 | 20 | 143 | 123
#4:4569 | 414 | 24 | 143 | 113
#4:4624 | 383 | 28 | 132 | 108
#4:4661 | 350 | 31 | 121 | 106
#4:4713 | 319 | 35 | 125 | 102
#4:4762 | 299 | 39 | 117 | 100
#4:4812 | 282 | 43 | 121 | 99
#4:4873 | 267 | 48 | 128 | 97
#4:4921 | 258 | 52 | 120 | 96
#4:4969 | 252 | 56 | 127 | 96
#4:5017 | 246 | 60 | 119 | 95
#4:5064 | 240 | 64 | 127 | 95
#4:5124 | 237 | 69 | 121 | 94
#4:5171 | 233 | 73 | 118 | 94
#4:5219 | 231 | 77 | 120 | 94
#4:5265 | 227 | 81 | 117 | 94
#4:5324 | 224 | 86 | 107 | 93
#4:5371 | 217 | 90 | 122 | 93
#4:5417 | 215 | 94 | 106 | 93
#4:5464 | 210 | 98 | 121 | 92
#4:5520 | 204 | 103 | 108 | 92
#4:5567 | 197 | 107 | 113 | 91
#4:5624 | 197 | 112 | 123 | 91
#4:5671 | 203 | 116 | 116 | 92
#4:5717 | 206 | 120 | 123 | 92
#4:5763 | 202 | 124 | 115 | 92
#4:5820 | 198 | 129 | 114 | 91
#4:5867 | 199 | 133 | 117 | 92
#4:5924 | 200 | 138 | 121 | 92
#4:5970 | 203 | 142 | 105 | 92
#4:6017 | 205 | 146 | 121 | 92
#4:6073 | 205 | 151 | 108 | 92
#4:6121 | 202 | 155 | 113 | 92
#4:6166 | 201 | 159 | 109 | 92
#4:6213 | 202 | 163 | 114 | 92
#4:6270 | 199 | 168 | 122 | 92
#4:6316 | 193 | 172 | 115 | 91
#4:6373 | 198 | 177 | 114 | 92
#4:6421 | 202 | 181 | 118 | 92
#4:6466 | 203 | 185 | 114 | 92
#4:6524 | 203 | 190 | 106 | 92
#4:6571 | 201 | 194 | 121 | 92
#4:6616 | 201 | 198 | 106 | 92
#4:6674 | 200 | 203 | 114 | 92
#4:6720 | 201 | 207 | 110 | 92
#4:6767 | 205 | 211 | 113 | 92
#4:6812 | 202 | 215 | 109 | 92
#4:6871 | 200 | 220 | 115 | 92
#4:6917 | 196 | 224 | 122 | 92
#4:6963 | 196 | 228 | 116 | 92
#4:7020 | 195 | 233 | 114 | 92
#4:7067 | 196 | 237 | 118 | 92
#4:7113 | 197 | 241 | 115 | 92
#4:7170 | 197 | 246 | 106 | 92
#4:7217 | 199 | 250 | 122 | 92
#4:7274 | 201 | 255 | 108 | 92
#4:7321 | 199 | 3 | 115 | 92
#4:7367 | 202 | 7 | 109 | 92
#4:7414 | 202 | 11 | 115 | 92
#4:7472 | 203 | 16 | 123 | 92
#4:7519 | 202 | 20 | 117 | 92
#4:7565 | 204 | 24 | 124 | 93
#4:7624 | 204 | 29 | 120 | 93
#4:7670 | 205 | 33 | 115 | 93
#4:7717 | 205 | 37 | 120 | 93
#4:7763 | 203 | 41 | 115 | 92
#4:7821 | 198 | 46 | 106 | 92
#4:7867 | 197 | 50 | 122 | 92
#4:7924 | 193 | 55 | 108 | 92
#4:7971 | 194 | 59 | 114 | 92
#4:8016 | 196 | 63 | 109 | 92
#4:8064 | 199 | 67 | 115 | 92
#4:8121 | 199 | 72 | 122 | 92
#4:8168 | 198 | 76 | 116 | 92
#4:8214 | 200 | 80 | 122 | 92
#4:8273 | 203 | 85 | 119 | 93
#4:8319 | 202 | 89 | 114 | 93
#4:8366 | 198 | 93 | 118 | 92
#4:8423 | 197 | 98 | 121 | 92
#4:8469 | 199 | 102 | 106 | 92
#4:8517 | 202 | 106 | 121 | 93
#4:8574 | 205 | 111 | 110 | 93
#4:8622 | 209 | 115 | 116 | 93
#4:8668 | 210 | 119 | 110 | 93
#4:8715 | 207 | 123 | 114 | 93
#4:8773 | 197 | 128 | 123 | 92
#4:8820 | 199 | 132 | 117 | 92
#4:8866 | 200 | 136 | 123 | 93
#4:8913 | 203 | 140 | 118 | 93
#4:8971 | 209 | 145 | 117 | 93
#4:9019 | 212 | 149 | 120 | 94
#4:9065 | 210 | 153 | 117 | 93
#4:9124 | 213 | 158 | 109 | 94
#4:9173 | 218 | 162 | 125 | 94
#4:9219 | 221 | 166 | 107 | 94
#4:9267 | 212 | 170 | 123 | 94
#4:9324 | 206 | 175 | 110 | 93
#4:9372 | 205 | 179 | 116 | 93
#4:9418 | 202 | 183 | 109 | 93
#4:9465 | 199 | 187 | 115 | 93
#4:9523 | 199 | 192 | 123 | 93
#4:9570 | 198 | 196 | 116 | 93
#4:9616 | 200 | 200 | 123 | 93
#4:9664 | 202 | 204 | 117 | 93
#4:9721 | 202 | 209 | 115 | 93
#4:9769 | 202 | 213 | 118 | 93
#4:9815 | 200 | 217 | 115 | 93
#4:9873 | 197 | 222 | 105 | 93
#4:9920 | 195 | 226 | 121 | 92
#4:9966 | 193 | 230 | 106 | 92
#4:10024 | 190 | 235 | 115 | 92
#4:10069 | 187 | 239 | 108 | 92
#4:10116 | 186 | 243 | 115 | 92
#4:10174 | 193 | 248 | 123 | 92
#4:10221 | 197 | 252 | 116 | 93
#4:10267 | 195 | 0 | 122 | 93
#4:10314 | 193 | 4 | 117 | 92
#4:10371 | 194 | 9 | 115 | 92
#4:10419 | 195 | 13 | 119 | 93
#4:10465 | 197 | 17 | 116 | 93
#4:10523 | 199 | 22 | 108 | 93
#4:10571 | 203 | 26 | 123 | 93
#4:10617 | 203 | 30 | 107 | 93
#4:10664 | 198 | 34 | 122 | 93
#4:10721 | 198 | 39 | 110 | 93
#4:10770 | 199 | 43 | 116 | 93
#4:10815 | 194 | 47 | 108 | 93
#4:10874 | 193 | 52 | 117 | 92
#4:10921 | 198 | 56 | 123 | 93
#4:10968 | 200 | 60 | 118 | 93
#4:11015 | 202 | 64 | 123 | 93
#4:11074 | 203 | 69 | 120 | 93
#4:11120 | 199 | 73 | 115 | 93
#4:11168 | 197 | 77 | 119 | 93
#4:11213 | 198 | 81 | 117 | 93
#4:11272 | 202 | 86 | 108 | 93
#4:11319 | 199 | 90 | 122 | 93
#4:11366 | 194 | 94 | 107 | 93
#4:11424 | 197 | 99 | 115 | 93
#4:11470 | 194 | 103 | 110 | 93
#4:11518 | 196 | 107 | 116 | 93
#4:11563 | 195 | 111 | 110 | 93
#4:11623 | 193 | 116 | 117 | 93
#4:11669 | 195 | 120 | 124 | 93
#4:11716 | 196 | 124 | 117 | 93
#4:11774 | 198 | 129 | 116 | 93
#4:11822 | 198 | 133 | 119 | 93
#4:11868 | 197 | 137 | 116 | 93
#4:11916 | 201 | 141 | 120 | 94
#4:11962 | 202 | 145 | 116 | 94
#4:12021 | 201 | 150 | 107 | 94
#4:12069 | 199 | 154 | 123 | 93
#4:12115 | 202 | 158 | 108 | 94
#4:12163 | 203 | 162 | 123 | 94
#4:12221 | 206 | 167 | 112 | 94
#4:12269 | 206 | 171 | 117 | 94
#4:12316 | 205 | 175 | 112 | 94
#4:12363 | 199 | 179 | 116 | 94
#4:12421 | 194 | 184 | 124 | 93
#4:12469 | 189 | 188 | 117 | 93
#4:12515 | 186 | 192 | 123 | 92
#4:12574 | 189 | 197 | 119 | 93
#4:12620 | 193 | 201 | 116 | 93
#4:12667 | 195 | 205 | 119 | 93
#4:12713 | 193 | 209 | 116 | 93
#4:12772 | 195 | 214 | 107 | 93
#4:12820 | 197 | 218 | 122 | 93
#4:12866 | 198 | 222 | 107 | 94
#4:12913 | 196 | 226 | 123 | 93
#4:12971 | 195 | 231 | 110 | 93
#4:13019 | 197 | 235 | 117 | 93
#4:13065 | 198 | 239 | 111 | 94
#4:13113 | 201 | 243 | 117 | 94
#4:13172 | 203 | 248 | 125 | 94
#4:13220 | 205 | 252 | 119 | 94
#4:13267 | 207 | 0 | 125 | 94
#4:13315 | 201 | 4 | 118 | 94
#4:13373 | 196 | 9 | 117 | 94
#4:13421 | 201 | 13 | 121 | 94
#4:13467 | 201 | 17 | 118 | 94
#4:13516 | 203 | 21 | 120 | 94
#4:13562 | 209 | 25 | 118 | 95
#4:13622 | 210 | 30 | 109 | 95
#4:13670 | 208 | 34 | 125 | 95
#4:13717 | 212 | 38 | 107 | 95
#4:13766 | 219 | 42 | 127 | 96
#4:13814 | 221 | 46 | 108 | 96
#4:13874 | 210 | 51 | 119 | 95
#4:13920 | 203 | 55 | 111 | 94
#4:13968 | 200 | 59 | 117 | 94
#4:14014 | 200 | 63 | 110 | 94
#4:14074 | 198 | 68 | 120 | 94
#4:14121 | 200 | 72 | 124 | 94
#4:14169 | 197 | 76 | 118 | 94
#4:14216 | 201 | 80 | 125 | 94
#4:14264 | 203 | 84 | 120 | 94
#4:14322 | 202 | 89 | 116 | 94
#4:14371 | 201 | 93 | 121 | 94
#4:14417 | 198 | 97 | 117 | 94
#4:14465 | 195 | 101 | 120 | 94
#4:14523 | 192 | 106 | 122 | 93
#4:14570 | 191 | 110 | 107 | 93
#4:14617 | 190 | 114 | 122 | 93
#4:14674 | 187 | 119 | 110 | 93
#4:14722 | 186 | 123 | 117 | 93
#4:14768 | 191 | 127 | 111 | 94
#4:14816 | 193 | 131 | 117 | 94
#4:14862 | 192 | 135 | 110 | 94
#4:14922 | 191 | 140 | 119 | 94
#4:14969 | 192 | 144 | 124 | 94
#4:15016 | 192 | 148 | 118 | 94
#4:15063 | 195 | 152 | 124 | 94
#4:15123 | 197 | 157 | 121 | 94
#4:15170 | 199 | 161 | 117 | 94
#4:15218 | 199 | 165 | 121 | 94
#4:15264 | 198 | 169 | 116 | 94
#4:15324 | 198 | 174 | 109 | 94
#4:15371 | 198 | 178 | 123 | 94
#4:15418 | 192 | 182 | 107 | 94
#4:15465 | 189 | 186 | 123 | 94
#4:15523 | 196 | 191 | 112 | 94
#4:15572 | 198 | 195 | 118 | 94
#4:15618 | 199 | 199 | 111 | 94
#4:15667 | 199 | 203 | 117 | 94
#4:15713 | 198 | 207 | 111 | 94
#4:15774 | 197 | 212 | 120 | 94
#4:15820 | 197 | 216 | 125 | 94
#4:15869 | 205 | 220 | 123 | 95
#4:15915 | 201 | 224 | 124 | 95
#4:15963 | 192 | 228 | 119 | 94
#4:16021 | 193 | 233 | 116 | 94
#4:16070 | 190 | 237 | 122 | 94
#4:16116 | 193 | 241 | 116 | 94
#4:16164 | 190 | 245 | 120 | 94
#4:16223 | 190 | 250 | 122 | 94
#4:16269 | 190 | 254 | 109 | 94
#4:16317 | 191 | 2 | 122 | 94
#4:16364 | 191 | 6 | 109 | 94
#4:16423 | 193 | 11 | 115 | 94
#4:16469 | 191 | 15 | 111 | 94
#4:16518 | 194 | 19 | 117 | 94
#4:16564 | 196 | 23 | 112 | 94
#4:16613 | 196 | 27 | 117 | 94
#4:16671 | 195 | 32 | 125 | 94
#4:16720 | 197 | 36 | 121 | 95
#4:16767 | 200 | 40 | 127 | 95
#4:16815 | 202 | 44 | 121 | 95
#4:16874 | 203 | 49 | 118 | 95
#4:16923 | 203 | 53 | 122 | 95
#4:16970 | 202 | 57 | 118 | 95
#4:17018 | 198 | 61 | 122 | 95
#4:17064 | 193 | 65 | 116 | 94
#4:17123 | 185 | 70 | 107 | 94
#4:17171 | 186 | 74 | 123 | 94
#4:17217 | 188 | 78 | 109 | 94
#4:17265 | 192 | 82 | 123 | 94
#4:17323 | 193 | 87 | 112 | 94
#4:17372 | 192 | 91 | 117 | 94
#4:17418 | 192 | 95 | 112 | 94
#4:17467 | 194 | 99 | 118 | 94
#4:17513 | 194 | 103 | 112 | 94
#4:17574 | 194 | 108 | 119 | 94
#4:17620 | 192 | 112 | 125 | 94
#4:17669 | 194 | 116 | 120 | 94
#4:17715 | 196 | 120 | 126 | 95
#4:17764 | 199 | 124 | 122 | 95
#4:17823 | 201 | 129 | 119 | 95
#4:17872 | 201 | 133 | 122 | 95
#4:17918 | 198 | 137 | 117 | 95
#4:17967 | 194 | 141 | 121 | 95
#4:18013 | 195 | 145 | 118 | 95
#4:18073 | 198 | 150 | 109 | 95
#4:18121 | 200 | 154 | 125 | 95
#4:18169 | 201 | 158 | 110 | 95
#4:18217 | 206 | 162 | 126 | 96
#4:18265 | 205 | 166 | 110 | 96
#4:18314 | 209 | 170 | 126 | 96
#4:18373 | 207 | 175 | 114 | 96
#4:18423 | 213 | 179 | 122 | 96
#4:18470 | 214 | 183 | 113 | 96
#4:18519 | 206 | 187 | 119 | 96
#4:18565 | 202 | 191 | 113 | 95
#4:18614 | 198 | 195 | 119 | 95
#4:18673 | 197 | 200 | 126 | 95
#4:18722 | 196 | 204 | 121 | 95
#4:18769 | 198 | 208 | 126 | 95
#4:18817 | 200 | 212 | 122 | 95
#4:18865 | 200 | 216 | 126 | 95
#4:18913 | 200 | 220 | 122 | 95
#4:18973 | 203 | 225 | 118 | 95
#4:19021 | 202 | 229 | 124 | 95
#4:19068 | 199 | 233 | 117 | 95
#4:19117 | 196 | 237 | 122 | 95
#4:19164 | 196 | 241 | 117 | 95
#4:19223 | 194 | 246 | 109 | 95
#4:19271 | 193 | 250 | 123 | 95
#4:19318 | 188 | 254 | 107 | 94
#4:19366 | 188 | 2 | 123 | 94
#4:19424 | 190 | 7 | 114 | 95
#4:19473 | 194 | 11 | 118 | 95
#4:19519 | 190 | 15 | 112 | 95
#4:19568 | 190 | 19 | 118 | 95
#4:19615 | 191 | 23 | 112 | 95
#4:19663 | 191 | 27 | 118 | 95
#4:19722 | 192 | 32 | 126 | 95
#4:19771 | 195 | 36 | 122 | 95
#4:19818 | 196 | 40 | 126 | 95
#4:19867 | 197 | 44 | 121 | 95
#4:19914 | 196 | 48 | 126 | 95
#4:19974 | 193 | 53 | 123 | 95
#4:20021 | 197 | 57 | 117 | 95
#4:20070 | 194 | 61 | 122 | 95
#4:20116 | 190 | 65 | 116 | 95
#4:20165 | 189 | 69 | 122 | 95
#4:20224 | 193 | 74 | 124 | 95
#4:20271 | 195 | 78 | 109 | 95
#4:20320 | 196 | 82 | 124 | 95
#4:20367 | 194 | 86 | 109 | 95
#4:20415 | 193 | 90 | 124 | 95
#4:20474 | 194 | 95 | 112 | 95
#4:20523 | 200 | 99 | 120 | 96
#4:20570 | 198 | 103 | 111 | 95
#4:20619 | 191 | 107 | 119 | 95
#4:20665 | 192 | 111 | 111 | 95
#4:20714 | 191 | 115 | 118 | 95
#4:20773 | 190 | 120 | 126 | 95
#4:20821 | 187 | 124 | 120 | 95
#4:20868 | 187 | 128 | 125 | 95
#4:20916 | 187 | 132 | 121 | 94
#4:20964 | 188 | 136 | 127 | 95
#4:21024 | 188 | 141 | 123 | 95
#4:21071 | 191 | 145 | 117 | 95
#4:21119 | 190 | 149 | 123 | 95
#4:21166 | 191 | 153 | 117 | 95
#4:21215 | 189 | 157 | 122 | 95
#4:21274 | 190 | 162 | 124 | 95
#4:21321 | 191 | 166 | 109 | 95
#4:21370 | 190 | 170 | 124 | 95
#4:21417 | 191 | 174 | 109 | 95
#4:21465 | 195 | 178 | 125 | 95
#4:21524 | 197 | 183 | 113 | 96
#4:21574 | 199 | 187 | 119 | 96
#4:21621 | 199 | 191 | 113 | 96
#4:21670 | 195 | 195 | 119 | 95
#4:21717 | 196 | 199 | 113 | 95
#4:21765 | 192 | 203 | 118 | 95
#4:21824 | 187 | 208 | 125 | 95
#4:21872 | 185 | 212 | 121 | 95
#4:21920 | 189 | 216 | 127 | 95
#4:21968 | 192 | 220 | 122 | 95
#4:22016 | 192 | 224 | 127 | 95
#4:22064 | 189 | 228 | 121 | 95
#4:22123 | 193 | 233 | 118 | 95
#4:22172 | 192 | 237 | 122 | 95
#4:22219 | 192 | 241 | 118 | 95
#4:22267 | 190 | 245 | 122 | 95
#4:22315 | 189 | 249 | 118 | 95
#4:22374 | 191 | 254 | 110 | 95
#4:22423 | 192 | 2 | 125 | 95
#4:22470 | 195 | 6 | 110 | 96
#4:22519 | 198 | 10 | 126 | 96
#4:22567 | 199 | 14 | 110 | 96
#4:22616 | 197 | 18 | 126 | 96
#4:22674 | 195 | 23 | 112 | 96
#4:22723 | 192 | 27 | 119 | 95
#4:22771 | 196 | 31 | 113 | 96
#4:22820 | 195 | 35 | 120 | 96
#4:22867 | 197 | 39 | 114 | 96
#4:22917 | 204 | 43 | 120 | 96
#4:22964 | 206 | 47 | 114 | 97
#4:23014 | 204 | 51 | 118 | 97
#4:23074 | 207 | 56 | 127 | 97
#4:23124 | 210 | 60 | 124 | 97
#4:23172 | 212 | 64 | 128 | 97
#4:23221 | 202 | 68 | 122 | 96
#4:23269 | 196 | 72 | 127 | 96
#4:23317 | 197 | 76 | 122 | 96
#4:23365 | 198 | 80 | 129 | 96
#4:23414 | 198 | 84 | 121 | 96
#4:23474 | 196 | 89 | 120 | 96
#4:23523 | 197 | 93 | 123 | 96
#4:23570 | 197 | 97 | 120 | 96
#4:23620 | 201 | 101 | 123 | 96
#4:23667 | 201 | 105 | 120 | 96
#4:23716 | 201 | 109 | 124 | 96
#4:23764 | 198 | 113 | 119 | 96
#4:23824 | 197 | 118 | 110 | 96
#4:23872 | 194 | 122 | 124 | 96
#4:23920 | 191 | 126 | 111 | 96
#4:23968 | 188 | 130 | 123 | 95
#4:24015 | 185 | 134 | 110 | 95
#4:24064 | 183 | 138 | 123 | 95
#4:24122 | 184 | 143 | 113 | 95
#4:24171 | 189 | 147 | 118 | 95
#4:24218 | 188 | 151 | 113 | 95
#4:24267 | 186 | 155 | 117 | 95
#4:24314 | 184 | 159 | 113 | 95
#4:24362 | 186 | 163 | 118 | 95
#4:24422 | 186 | 168 | 127 | 95
#4:24470 | 187 | 172 | 121 | 95
#4:24518 | 188 | 176 | 127 | 95
#4:24567 | 191 | 180 | 122 | 96
#4:24614 | 190 | 184 | 127 | 96
#4:24662 | 188 | 188 | 122 | 95
#4:24722 | 190 | 193 | 119 | 96
#4:24771 | 190 | 197 | 124 | 96
#4:24817 | 182 | 201 | 116 | 95
#4:24866 | 179 | 205 | 123 | 95
#4:24913 | 187 | 209 | 118 | 95
#4:24973 | 188 | 214 | 111 | 95
#4:25022 | 190 | 218 | 124 | 96
#4:25070 | 191 | 222 | 111 | 96
#4:25118 | 192 | 226 | 125 | 96
#4:25166 | 189 | 230 | 111 | 96
#4:25214 | 187 | 234 | 124 | 95
#4:25273 | 190 | 239 | 114 | 96
#4:25322 | 190 | 243 | 117 | 96
#4:25369 | 186 | 247 | 113 | 95
#4:25418 | 186 | 251 | 118 | 95
#4:25465 | 183 | 255 | 112 | 95
#4:25514 | 184 | 3 | 118 | 95
#4:25573 | 181 | 8 | 126 | 95
#4:25621 | 181 | 12 | 122 | 95
#4:25669 | 179 | 16 | 126 | 95
#4:25717 | 178 | 20 | 121 | 95
#4:25764 | 181 | 24 | 126 | 95
#4:25813 | 183 | 28 | 122 | 95
#4:25872 | 183 | 33 | 118 | 95
#4:25921 | 181 | 37 | 123 | 95
#4:25968 | 185 | 41 | 118 | 95
#4:26017 | 185 | 45 | 123 | 95
#4:26063 | 184 | 49 | 118 | 95
#4:26123 | 182 | 54 | 111 | 95
#4:26172 | 185 | 58 | 125 | 96
#4:26219 | 187 | 62 | 112 | 96
#4:26268 | 191 | 66 | 126 | 96
#4:26316 | 190 | 70 | 112 | 96
#4:26365 | 189 | 74 | 125 | 96
#4:26424 | 189 | 79 | 113 | 96
#4:26473 | 187 | 83 | 118 | 96
#4:26519 | 183 | 87 | 112 | 95
#4:26568 | 178 | 91 | 118 | 95
#4:26615 | 178 | 95 | 112 | 95
#4:26664 | 181 | 99 | 119 | 95
#4:26724 | 184 | 104 | 127 | 96
#4:26772 | 184 | 108 | 122 | 95
#4:26820 | 183 | 112 | 127 | 95
#4:26868 | 183 | 116 | 122 | 95
#4:26916 | 186 | 120 | 128 | 96
#4:26964 | 184 | 124 | 121 | 96
#4:27024 | 182 | 129 | 118 | 95
#4:27073 | 182 | 133 | 123 | 95
#4:27120 | 184 | 137 | 118 | 96
#4:27169 | 184 | 141 | 123 | 96
#4:27216 | 187 | 145 | 120 | 96
#4:27265 | 189 | 149 | 124 | 96
#4:27313 | 191 | 153 | 119 | 96
#4:27373 | 190 | 158 | 111 | 96
#4:27421 | 183 | 162 | 123 | 96
#4:27469 | 184 | 166 | 111 | 96
#4:27518 | 187 | 170 | 125 | 96
#4:27566 | 187 | 174 | 110 | 96
#4:27615 | 192 | 178 | 126 | 96
#4:27674 | 195 | 183 | 115 | 97
#4:27724 | 196 | 187 | 120 | 97
#4:27772 | 204 | 191 | 117 | 98
#4:27823 | 207 | 195 | 120 | 98
#4:27871 | 208 | 199 | 117 | 98
#4:27921 | 209 | 203 | 120 | 98
#4:27969 | 201 | 207 | 115 | 97
#4:28018 | 195 | 211 | 119 | 97
#4:28066 | 195 | 215 | 114 | 97
#4:28116 | 195 | 219 | 119 | 97
#4:28163 | 194 | 223 | 115 | 97
#4:28213 | 194 | 227 | 120 | 97
#4:28273 | 194 | 232 | 129 | 97
#4:28322 | 196 | 236 | 122 | 97
#4:28371 | 197 | 240 | 130 | 97
#4:28420 | 198 | 244 | 123 | 97
#4:28468 | 195 | 248 | 129 | 97
#4:28517 | 194 | 252 | 123 | 97
#4:28565 | 192 | 0 | 129 | 97
#4:28614 | 190 | 4 | 122 | 96
#4:28674 | 185 | 9 | 119 | 96
#4:28723 | 185 | 13 | 123 | 96
#4:28770 | 182 | 17 | 118 | 96
#4:28819 | 178 | 21 | 123 | 95
#4:28866 | 181 | 25 | 119 | 96
#4:28915 | 185 | 29 | 124 | 96
#4:28963 | 185 | 33 | 118 | 96
#4:29023 | 180 | 38 | 111 | 96
#4:29071 | 181 | 42 | 124 | 96
#4:29119 | 182 | 46 | 111 | 96
#4:29167 | 181 | 50 | 124 | 96
#4:29215 | 182 | 54 | 112 | 96
#4:29264 | 186 | 58 | 125 | 96
#4:29323 | 185 | 63 | 114 | 96
#4:29372 | 184 | 67 | 118 | 96
#4:29419 | 183 | 71 | 114 | 96
#4:29469 | 184 | 75 | 119 | 96
#4:29516 | 183 | 79 | 113 | 96
#4:29565 | 178 | 83 | 119 | 95
#4:29612 | 178 | 87 | 114 | 95
#4:29673 | 179 | 92 | 120 | 96
#4:29721 | 182 | 96 | 128 | 96
#4:29770 | 183 | 100 | 122 | 96
#4:29817 | 182 | 104 | 127 | 96
#4:29866 | 181 | 108 | 121 | 96
#4:29914 | 180 | 112 | 127 | 96
#4:29974 | 177 | 117 | 125 | 96
#4:30022 | 185 | 121 | 119 | 96
#4:30071 | 179 | 125 | 122 | 96
#4:30118 | 177 | 129 | 120 | 95
#4:30167 | 178 | 133 | 122 | 96
#4:30214 | 175 | 137 | 119 | 95
#4:30274 | 178 | 142 | 112 | 96
#4:30323 | 179 | 146 | 124 | 96
#4:30370 | 176 | 150 | 110 | 96
#4:30419 | 176 | 154 | 125 | 95
#4:30466 | 177 | 158 | 110 | 96
#4:30515 | 178 | 162 | 125 | 96
#4:30574 | 180 | 167 | 113 | 96
#4:30623 | 178 | 171 | 119 | 96
#4:30670 | 180 | 175 | 113 | 96
#4:30720 | 180 | 179 | 119 | 96
#4:30767 | 182 | 183 | 113 | 96
#4:30816 | 180 | 187 | 119 | 96
#4:30863 | 179 | 191 | 114 | 96
#4:30924 | 179 | 196 | 121 | 96
#4:30973 | 183 | 200 | 128 | 96
#4:31021 | 184 | 204 | 121 | 96
#4:31070 | 186 | 208 | 129 | 97
#4:31118 | 187 | 212 | 121 | 97
#4:31167 | 187 | 216 | 129 | 97
#4:31215 | 185 | 220 | 121 | 96
#4:31263 | 179 | 224 | 127 | 96
#4:31324 | 174 | 229 | 122 | 95
#4:31371 | 174 | 233 | 120 | 95
#4:31420 | 178 | 237 | 122 | 96
#4:31468 | 181 | 241 | 121 | 96
#4:31517 | 182 | 245 | 123 | 96
#4:31564 | 179 | 249 | 120 | 96
#4:31624 | 180 | 254 | 111 | 96
#4:31674 | 181 | 2 | 126 | 96
#4:31721 | 183 | 6 | 111 | 96
#4:31770 | 178 | 10 | 125 | 96
#4:31818 | 177 | 14 | 111 | 96
#4:31866 | 177 | 18 | 125 | 96
#4:31914 | 179 | 22 | 112 | 96
#4:31963 | 181 | 26 | 125 | 96
#4:32023 | 183 | 31 | 115 | 96
#4:32072 | 186 | 35 | 119 | 97
#4:32120 | 186 | 39 | 115 | 97
#4:32169 | 183 | 43 | 117 | 96
#4:32216 | 180 | 47 | 115 | 96
#4:32266 | 182 | 51 | 119 | 96
#4:32313 | 182 | 55 | 115 | 96
#4:32363 | 183 | 59 | 119 | 97
> !daq stop

> !drv off

:stopp

