<mxfile host="65bd71144e">
    <diagram id="yFOC_mqCKfEsLWE3Cxdz" name="Page-1">
        <mxGraphModel dx="777" dy="615" grid="1" gridSize="10" guides="1" tooltips="1" connect="1" arrows="1" fold="1" page="1" pageScale="1" pageWidth="850" pageHeight="1100" math="1" shadow="0">
            <root>
                <mxCell id="0"/>
                <mxCell id="1" parent="0"/>
                <mxCell id="2" value="Speed controller" style="rounded=0;whiteSpace=wrap;html=1;fontStyle=0;fontFamily=Charter;fontSize=17;" parent="1" vertex="1">
                    <mxGeometry x="160" y="150" width="130" height="60" as="geometry"/>
                </mxCell>
                <mxCell id="8" style="edgeStyle=none;html=1;fontSize=17;fontFamily=Charter;" parent="1" source="3" edge="1">
                    <mxGeometry relative="1" as="geometry">
                        <mxPoint x="640" y="180" as="targetPoint"/>
                    </mxGeometry>
                </mxCell>
                <mxCell id="9" style="edgeStyle=none;html=1;fontSize=17;fontFamily=Charter;" parent="1" source="3" target="4" edge="1">
                    <mxGeometry relative="1" as="geometry">
                        <Array as="points">
                            <mxPoint x="570" y="180"/>
                            <mxPoint x="570" y="320"/>
                        </Array>
                    </mxGeometry>
                </mxCell>
                <mxCell id="3" value="Motor" style="rounded=0;whiteSpace=wrap;html=1;fontStyle=0;fontFamily=Charter;fontSize=17;" parent="1" vertex="1">
                    <mxGeometry x="390" y="150" width="130" height="60" as="geometry"/>
                </mxCell>
                <mxCell id="10" style="edgeStyle=none;html=1;entryX=0;entryY=0.25;entryDx=0;entryDy=0;fontSize=17;fontFamily=Charter;" parent="1" target="2" edge="1">
                    <mxGeometry relative="1" as="geometry">
                        <mxPoint x="50" y="165" as="sourcePoint"/>
                    </mxGeometry>
                </mxCell>
                <mxCell id="11" style="edgeStyle=none;html=1;entryX=0.007;entryY=0.657;entryDx=0;entryDy=0;entryPerimeter=0;fontSize=17;fontFamily=Charter;" parent="1" source="4" target="2" edge="1">
                    <mxGeometry relative="1" as="geometry">
                        <Array as="points">
                            <mxPoint x="120" y="320"/>
                            <mxPoint x="120" y="190"/>
                        </Array>
                    </mxGeometry>
                </mxCell>
                <mxCell id="4" value="Speed sensor" style="rounded=0;whiteSpace=wrap;html=1;fontStyle=0;fontFamily=Charter;fontSize=17;" parent="1" vertex="1">
                    <mxGeometry x="270" y="290" width="130" height="60" as="geometry"/>
                </mxCell>
                <mxCell id="7" style="edgeStyle=none;html=1;exitX=1;exitY=0.5;exitDx=0;exitDy=0;fontSize=17;fontFamily=Charter;" parent="1" source="2" target="3" edge="1">
                    <mxGeometry relative="1" as="geometry">
                        <mxPoint x="490" y="180" as="sourcePoint"/>
                    </mxGeometry>
                </mxCell>
                <mxCell id="14" value="$$v_\mathrm{r}$$" style="text;html=1;strokeColor=none;fillColor=none;align=center;verticalAlign=middle;whiteSpace=wrap;rounded=0;fontSize=17;fontFamily=Charter;" parent="1" vertex="1">
                    <mxGeometry x="80" y="126" width="60" height="40" as="geometry"/>
                </mxCell>
                <mxCell id="15" value="$$v_\mathrm{m}$$" style="text;html=1;strokeColor=none;fillColor=none;align=center;verticalAlign=middle;whiteSpace=wrap;rounded=0;fontSize=17;fontFamily=Charter;" parent="1" vertex="1">
                    <mxGeometry x="200" y="290" width="55" height="30" as="geometry"/>
                </mxCell>
                <mxCell id="16" value="`v`" style="text;html=1;strokeColor=none;fillColor=none;align=center;verticalAlign=middle;whiteSpace=wrap;rounded=0;fontSize=17;fontFamily=Charter;" parent="1" vertex="1">
                    <mxGeometry x="540" y="140" width="50" height="40" as="geometry"/>
                </mxCell>
                <mxCell id="18" value="`u`" style="text;html=1;strokeColor=none;fillColor=none;align=center;verticalAlign=middle;whiteSpace=wrap;rounded=0;fontSize=17;fontFamily=Charter;" parent="1" vertex="1">
                    <mxGeometry x="312.5" y="150" width="45" height="30" as="geometry"/>
                </mxCell>
            </root>
        </mxGraphModel>
    </diagram>
</mxfile>