<mxfile host="65bd71144e">
    <diagram name="Page-1" id="AzFlXoTW8xQk_fCCxUL1">
        <mxGraphModel dx="1772" dy="611" grid="1" gridSize="10" guides="1" tooltips="1" connect="1" arrows="1" fold="1" page="0" pageScale="1" pageWidth="850" pageHeight="1100" math="0" shadow="0">
            <root>
                <mxCell id="0"/>
                <mxCell id="1" parent="0"/>
                <mxCell id="2tmP24F8AJMFXt8I1Kd8-32" style="edgeStyle=none;curved=1;rounded=0;orthogonalLoop=1;jettySize=auto;html=1;exitX=1;exitY=0.5;exitDx=0;exitDy=0;entryX=0;entryY=0.5;entryDx=0;entryDy=0;fontSize=12;startSize=8;endSize=8;fontFamily=Charter;" parent="1" source="x8LxVokh3mZX6rE9dhp8-1" target="2tmP24F8AJMFXt8I1Kd8-31" edge="1">
                    <mxGeometry relative="1" as="geometry"/>
                </mxCell>
                <mxCell id="K0pl7FTMpedJmJUyFgb3-4" style="edgeStyle=none;curved=1;rounded=0;orthogonalLoop=1;jettySize=auto;html=1;exitX=1;exitY=0.5;exitDx=0;exitDy=0;entryX=0;entryY=0.5;entryDx=0;entryDy=0;fontSize=12;startSize=8;endSize=8;fontFamily=Charter;" parent="1" source="x8LxVokh3mZX6rE9dhp8-1" target="2tmP24F8AJMFXt8I1Kd8-23" edge="1">
                    <mxGeometry relative="1" as="geometry"/>
                </mxCell>
                <mxCell id="x8LxVokh3mZX6rE9dhp8-1" value="FreeRTOS timer task" style="rounded=0;whiteSpace=wrap;html=1;fontSize=16;fontFamily=Charter;" parent="1" vertex="1">
                    <mxGeometry x="-440" y="680" width="200" height="40" as="geometry"/>
                </mxCell>
                <mxCell id="2tmP24F8AJMFXt8I1Kd8-1" value="Motor task" style="rounded=0;whiteSpace=wrap;html=1;fontSize=16;fontFamily=Charter;" parent="1" vertex="1">
                    <mxGeometry x="-440" y="440" width="200" height="40" as="geometry"/>
                </mxCell>
                <mxCell id="2tmP24F8AJMFXt8I1Kd8-2" value="FreeRTOS idle task" style="rounded=0;whiteSpace=wrap;html=1;fontSize=16;fontFamily=Charter;" parent="1" vertex="1">
                    <mxGeometry x="-440" y="980" width="200" height="40" as="geometry"/>
                </mxCell>
                <mxCell id="2tmP24F8AJMFXt8I1Kd8-14" style="edgeStyle=none;curved=1;rounded=0;orthogonalLoop=1;jettySize=auto;html=1;exitX=1;exitY=0.5;exitDx=0;exitDy=0;entryX=0;entryY=0.5;entryDx=0;entryDy=0;fontSize=12;startSize=8;endSize=8;fontFamily=Charter;" parent="1" source="x8LxVokh3mZX6rE9dhp8-1" target="2tmP24F8AJMFXt8I1Kd8-24" edge="1">
                    <mxGeometry relative="1" as="geometry">
                        <mxPoint x="-240" y="875" as="sourcePoint"/>
                    </mxGeometry>
                </mxCell>
                <mxCell id="2tmP24F8AJMFXt8I1Kd8-15" style="edgeStyle=none;curved=1;rounded=0;orthogonalLoop=1;jettySize=auto;html=1;exitX=1;exitY=0.5;exitDx=0;exitDy=0;entryX=0;entryY=0.5;entryDx=0;entryDy=0;fontSize=12;startSize=8;endSize=8;fontFamily=Charter;" parent="1" source="x8LxVokh3mZX6rE9dhp8-1" target="2tmP24F8AJMFXt8I1Kd8-25" edge="1">
                    <mxGeometry relative="1" as="geometry">
                        <mxPoint x="-240" y="875" as="sourcePoint"/>
                    </mxGeometry>
                </mxCell>
                <mxCell id="2tmP24F8AJMFXt8I1Kd8-16" style="edgeStyle=none;curved=1;rounded=0;orthogonalLoop=1;jettySize=auto;html=1;exitX=1;exitY=0.5;exitDx=0;exitDy=0;entryX=0;entryY=0.5;entryDx=0;entryDy=0;fontSize=12;startSize=8;endSize=8;fontFamily=Charter;" parent="1" source="x8LxVokh3mZX6rE9dhp8-1" target="2tmP24F8AJMFXt8I1Kd8-26" edge="1">
                    <mxGeometry relative="1" as="geometry">
                        <mxPoint x="-240" y="875" as="sourcePoint"/>
                    </mxGeometry>
                </mxCell>
                <mxCell id="2tmP24F8AJMFXt8I1Kd8-17" style="edgeStyle=none;curved=1;rounded=0;orthogonalLoop=1;jettySize=auto;html=1;exitX=1;exitY=0.5;exitDx=0;exitDy=0;entryX=0;entryY=0.5;entryDx=0;entryDy=0;fontSize=12;startSize=8;endSize=8;fontFamily=Charter;" parent="1" source="x8LxVokh3mZX6rE9dhp8-1" target="2tmP24F8AJMFXt8I1Kd8-27" edge="1">
                    <mxGeometry relative="1" as="geometry">
                        <mxPoint x="-240" y="875" as="sourcePoint"/>
                    </mxGeometry>
                </mxCell>
                <mxCell id="2tmP24F8AJMFXt8I1Kd8-18" style="edgeStyle=none;curved=1;rounded=0;orthogonalLoop=1;jettySize=auto;html=1;exitX=1;exitY=0.5;exitDx=0;exitDy=0;entryX=0;entryY=0.5;entryDx=0;entryDy=0;fontSize=12;startSize=8;endSize=8;fontFamily=Charter;" parent="1" source="x8LxVokh3mZX6rE9dhp8-1" target="2tmP24F8AJMFXt8I1Kd8-28" edge="1">
                    <mxGeometry relative="1" as="geometry">
                        <mxPoint x="-240" y="875" as="sourcePoint"/>
                    </mxGeometry>
                </mxCell>
                <mxCell id="2tmP24F8AJMFXt8I1Kd8-19" style="edgeStyle=none;curved=1;rounded=0;orthogonalLoop=1;jettySize=auto;html=1;exitX=1;exitY=0.5;exitDx=0;exitDy=0;entryX=0;entryY=0.5;entryDx=0;entryDy=0;fontSize=12;startSize=8;endSize=8;fontFamily=Charter;" parent="1" source="x8LxVokh3mZX6rE9dhp8-1" target="2tmP24F8AJMFXt8I1Kd8-22" edge="1">
                    <mxGeometry relative="1" as="geometry">
                        <mxPoint x="10.000000000000455" y="545" as="sourcePoint"/>
                    </mxGeometry>
                </mxCell>
                <mxCell id="2tmP24F8AJMFXt8I1Kd8-22" value="Voltage measurement systick (1 ms)" style="rounded=0;whiteSpace=wrap;html=1;fontSize=16;fontFamily=Charter;" parent="1" vertex="1">
                    <mxGeometry x="-140" y="560" width="320" height="40" as="geometry"/>
                </mxCell>
                <mxCell id="2tmP24F8AJMFXt8I1Kd8-23" value="Steering systick (1 ms)" style="rounded=0;whiteSpace=wrap;html=1;fontSize=16;fontFamily=Charter;" parent="1" vertex="1">
                    <mxGeometry x="-140" y="500" width="220" height="40" as="geometry"/>
                </mxCell>
                <mxCell id="2tmP24F8AJMFXt8I1Kd8-24" value="Hall sensor systick (1 ms)" style="rounded=0;whiteSpace=wrap;html=1;fontSize=16;fontFamily=Charter;" parent="1" vertex="1">
                    <mxGeometry x="-140" y="620" width="240" height="40" as="geometry"/>
                </mxCell>
                <mxCell id="2tmP24F8AJMFXt8I1Kd8-25" value="IMU systick (1 ms)" style="rounded=0;whiteSpace=wrap;html=1;fontSize=16;fontFamily=Charter;" parent="1" vertex="1">
                    <mxGeometry x="-140" y="680" width="190" height="40" as="geometry"/>
                </mxCell>
                <mxCell id="2tmP24F8AJMFXt8I1Kd8-26" value="Ultrasonic sensors systick (1 ms)" style="rounded=0;whiteSpace=wrap;html=1;fontSize=16;fontFamily=Charter;" parent="1" vertex="1">
                    <mxGeometry x="-140" y="740" width="290" height="40" as="geometry"/>
                </mxCell>
                <mxCell id="2tmP24F8AJMFXt8I1Kd8-27" value="DAQ systick (1 ms)" style="rounded=0;whiteSpace=wrap;html=1;fontSize=16;fontFamily=Charter;" parent="1" vertex="1">
                    <mxGeometry x="-140" y="800" width="200" height="40" as="geometry"/>
                </mxCell>
                <mxCell id="2tmP24F8AJMFXt8I1Kd8-28" value="Car UI systick (10 ms)" style="rounded=0;whiteSpace=wrap;html=1;fontSize=16;fontFamily=Charter;" parent="1" vertex="1">
                    <mxGeometry x="-140" y="860" width="220" height="40" as="geometry"/>
                </mxCell>
                <mxCell id="2tmP24F8AJMFXt8I1Kd8-29" value="Communication RX" style="rounded=0;whiteSpace=wrap;html=1;fontSize=16;fontFamily=Charter;" parent="1" vertex="1">
                    <mxGeometry x="-440" y="320" width="200" height="40" as="geometry"/>
                </mxCell>
                <mxCell id="2tmP24F8AJMFXt8I1Kd8-30" value="Communication TX" style="rounded=0;whiteSpace=wrap;html=1;fontSize=16;fontFamily=Charter;" parent="1" vertex="1">
                    <mxGeometry x="-440" y="380" width="200" height="40" as="geometry"/>
                </mxCell>
                <mxCell id="2tmP24F8AJMFXt8I1Kd8-31" value="LED_SYS toggle (500 ms)" style="rounded=0;whiteSpace=wrap;html=1;fontSize=16;fontFamily=Charter;" parent="1" vertex="1">
                    <mxGeometry x="-140" y="920" width="250" height="40" as="geometry"/>
                </mxCell>
                <mxCell id="K0pl7FTMpedJmJUyFgb3-1" value="Task" style="text;html=1;strokeColor=none;fillColor=none;align=center;verticalAlign=middle;whiteSpace=wrap;rounded=0;fontSize=16;fontFamily=Charter;" parent="1" vertex="1">
                    <mxGeometry x="-355" y="280" width="60" height="30" as="geometry"/>
                </mxCell>
                <mxCell id="K0pl7FTMpedJmJUyFgb3-2" value="Callback function (period)" style="text;html=1;strokeColor=none;fillColor=none;align=center;verticalAlign=middle;whiteSpace=wrap;rounded=0;fontSize=16;fontFamily=Charter;" parent="1" vertex="1">
                    <mxGeometry x="-150" y="280" width="200" height="30" as="geometry"/>
                </mxCell>
            </root>
        </mxGraphModel>
    </diagram>
</mxfile>