> !globalvar g_carbasicfcts_cruiseTS 50
:50
> !globalvar g_carbasicfcts_cruiseKP 1000
:1000
> !globalvar g_carbasicfcts_cruiseKI 20
:20
> !daq grp 4 ~all _tics cruise_drvval hall_cnt hall_dt hall_dt8
:ok

> !daq start
:started

> !drv c 1500
:C 1500
#4:2570567 | 1000 | 253 | 39538 | 4471
#4:2570617 | 1000 | 254 | 513 | 4483
#4:2570667 | 1000 | 255 | 356 | 4476
#4:2570705 | 1000 | 0 | 307 | 4459
#4:2570758 | 1000 | 2 | 262 | 4390
#4:2570804 | 1000 | 4 | 219 | 4170
#4:2570863 | 1000 | 7 | 185 | 189
#4:2570917 | 962 | 10 | 184 | 158
#4:2570951 | 806 | 12 | 170 | 147
#4:2571015 | 664 | 16 | 150 | 133
#4:2571063 | 599 | 19 | 161 | 128
#4:2571111 | 574 | 22 | 159 | 126
#4:2571157 | 582 | 25 | 157 | 127
#4:2571208 | 608 | 28 | 165 | 129
#4:2571257 | 637 | 31 | 161 | 131
#4:2571308 | 664 | 34 | 178 | 133
#4:2571360 | 685 | 37 | 171 | 135
#4:2571410 | 696 | 40 | 166 | 136
#4:2571463 | 698 | 43 | 175 | 136
#4:2571514 | 699 | 46 | 172 | 137
#4:2571563 | 693 | 49 | 164 | 136
#4:2571615 | 683 | 52 | 169 | 135
#4:2571666 | 675 | 55 | 163 | 134
#4:2571716 | 674 | 58 | 176 | 134
#4:2571767 | 676 | 61 | 171 | 134
#4:2571817 | 681 | 64 | 162 | 135
#4:2571852 | 686 | 66 | 177 | 135
#4:2571903 | 687 | 69 | 172 | 135
#4:2571953 | 682 | 72 | 160 | 135
#4:2572004 | 676 | 75 | 172 | 134
#4:2572055 | 671 | 78 | 170 | 134
#4:2572104 | 672 | 81 | 163 | 134
#4:2572156 | 679 | 84 | 172 | 135
#4:2572206 | 680 | 87 | 162 | 135
#4:2572257 | 682 | 90 | 177 | 135
#4:2572309 | 684 | 93 | 171 | 135
#4:2572359 | 687 | 96 | 162 | 135
#4:2572410 | 687 | 99 | 173 | 135
#4:2572462 | 687 | 102 | 169 | 135
#4:2572511 | 685 | 105 | 164 | 135
#4:2572563 | 682 | 108 | 171 | 135
#4:2572613 | 681 | 111 | 163 | 135
#4:2572664 | 684 | 114 | 177 | 135
#4:2572716 | 686 | 117 | 172 | 135
#4:2572766 | 687 | 120 | 163 | 135
#4:2572817 | 686 | 123 | 174 | 136
#4:2572852 | 687 | 125 | 172 | 136
#4:2572902 | 687 | 128 | 163 | 135
#4:2572954 | 689 | 131 | 173 | 136
#4:2573005 | 690 | 134 | 170 | 136
#4:2573054 | 684 | 137 | 162 | 135
#4:2573106 | 674 | 140 | 169 | 134
#4:2573156 | 669 | 143 | 163 | 134
#4:2573206 | 669 | 146 | 176 | 134
#4:2573258 | 677 | 149 | 172 | 135
#4:2573308 | 682 | 152 | 164 | 135
#4:2573359 | 686 | 155 | 174 | 135
#4:2573411 | 690 | 158 | 172 | 136
#4:2573461 | 691 | 161 | 165 | 136
#4:2573513 | 692 | 164 | 173 | 136
#4:2573563 | 687 | 167 | 161 | 136
#4:2573614 | 682 | 170 | 175 | 135
#4:2573666 | 679 | 173 | 172 | 135
#4:2573715 | 681 | 176 | 163 | 135
#4:2573767 | 683 | 179 | 174 | 135
#4:2573802 | 687 | 181 | 174 | 135
#4:2573852 | 691 | 184 | 166 | 136
#4:2573903 | 693 | 187 | 175 | 136
#4:2573955 | 692 | 190 | 171 | 136
#4:2574004 | 687 | 193 | 164 | 135
#4:2574056 | 681 | 196 | 172 | 135
#4:2574107 | 681 | 199 | 161 | 135
#4:2574157 | 676 | 202 | 175 | 135
#4:2574209 | 676 | 205 | 171 | 135
#4:2574258 | 676 | 208 | 160 | 134
#4:2574310 | 681 | 211 | 174 | 135
#4:2574362 | 688 | 214 | 173 | 136
#4:2574411 | 695 | 217 | 165 | 136
#4:2574464 | 698 | 220 | 176 | 136
#4:2574515 | 699 | 223 | 164 | 137
#4:2574565 | 693 | 226 | 175 | 136
#4:2574617 | 688 | 229 | 172 | 135
#4:2574666 | 675 | 232 | 160 | 134
#4:2574717 | 664 | 235 | 172 | 133
#4:2574751 | 660 | 237 | 172 | 133
#4:2574816 | 664 | 241 | 160 | 133
#4:2574852 | 675 | 243 | 176 | 134
#4:2574903 | 682 | 246 | 171 | 135
#4:2574953 | 692 | 249 | 163 | 136
#4:2575005 | 692 | 252 | 174 | 136
#4:2575056 | 689 | 255 | 163 | 136
#4:2575106 | 683 | 2 | 173 | 135
#4:2575158 | 676 | 5 | 173 | 135
#4:2575207 | 675 | 8 | 160 | 134
#4:2575258 | 676 | 11 | 176 | 135
#4:2575310 | 681 | 14 | 170 | 135
#4:2575360 | 689 | 17 | 165 | 136
#4:2575413 | 700 | 20 | 177 | 137
#4:2575465 | 706 | 23 | 166 | 137
#4:2575515 | 709 | 26 | 175 | 137
#4:2575551 | 705 | 28 | 175 | 137
#4:2575617 | 697 | 32 | 161 | 136
#4:2575651 | 687 | 34 | 173 | 136
#4:2575703 | 678 | 37 | 172 | 135
#4:2575752 | 673 | 40 | 159 | 134
#4:2575803 | 672 | 43 | 173 | 134
#4:2575855 | 677 | 46 | 170 | 135
#4:2575904 | 681 | 49 | 162 | 135
#4:2575957 | 685 | 52 | 174 | 135
#4:2576008 | 686 | 55 | 162 | 135
#4:2576058 | 687 | 58 | 174 | 136
#4:2576111 | 690 | 61 | 178 | 136
#4:2576160 | 689 | 64 | 160 | 136
#4:2576211 | 684 | 67 | 172 | 135
#4:2576263 | 675 | 70 | 169 | 134
#4:2576311 | 669 | 73 | 160 | 134
#4:2576362 | 667 | 76 | 172 | 134
#4:2576413 | 667 | 79 | 162 | 134
#4:2576463 | 673 | 82 | 173 | 134
#4:2576515 | 675 | 85 | 175 | 134
#4:2576564 | 677 | 88 | 161 | 135
#4:2576615 | 679 | 91 | 172 | 135
#4:2576667 | 682 | 94 | 171 | 135
#4:2576716 | 685 | 97 | 163 | 135
#4:2576751 | 686 | 99 | 173 | 136
#4:2576804 | 687 | 102 | 171 | 136
#4:2576853 | 691 | 105 | 164 | 136
#4:2576905 | 691 | 108 | 174 | 136
#4:2576956 | 687 | 111 | 163 | 136
#4:2577006 | 681 | 114 | 175 | 135
#4:2577058 | 677 | 117 | 174 | 135
#4:2577108 | 684 | 120 | 164 | 135
#4:2577159 | 687 | 123 | 173 | 136
#4:2577212 | 697 | 126 | 171 | 136
#4:2577262 | 699 | 129 | 164 | 137
#4:2577314 | 699 | 132 | 176 | 137
#4:2577366 | 697 | 135 | 164 | 137
#4:2577416 | 689 | 138 | 174 | 136
#4:2577450 | 687 | 140 | 176 | 136
#4:2577502 | 684 | 143 | 163 | 135
#4:2577551 | 681 | 146 | 173 | 135
#4:2577603 | 681 | 149 | 175 | 135
#4:2577653 | 679 | 152 | 161 | 135
#4:2577704 | 679 | 155 | 171 | 135
#4:2577756 | 679 | 158 | 171 | 135
#4:2577805 | 680 | 161 | 161 | 135
#4:2577857 | 681 | 164 | 177 | 135
#4:2577908 | 685 | 167 | 163 | 135
#4:2577958 | 688 | 170 | 175 | 136
#4:2578011 | 695 | 173 | 178 | 136
#4:2578061 | 696 | 176 | 162 | 136
#4:2578112 | 691 | 179 | 171 | 136
#4:2578165 | 685 | 182 | 172 | 135
#4:2578213 | 677 | 185 | 159 | 135
#4:2578265 | 673 | 188 | 174 | 134
#4:2578316 | 672 | 191 | 162 | 134
#4:2578365 | 674 | 194 | 172 | 134
#4:2578417 | 678 | 197 | 176 | 135
#4:2578467 | 681 | 200 | 161 | 135
#4:2578501 | 686 | 202 | 174 | 136
#4:2578554 | 690 | 205 | 177 | 136
#4:2578604 | 692 | 208 | 162 | 136
#4:2578655 | 689 | 211 | 173 | 136
#4:2578707 | 681 | 214 | 171 | 135
#4:2578755 | 673 | 217 | 161 | 134
#4:2578806 | 663 | 220 | 173 | 133
#4:2578857 | 666 | 223 | 162 | 134
#4:2578907 | 671 | 226 | 172 | 134
#4:2578959 | 679 | 229 | 175 | 135
#4:2579009 | 680 | 232 | 159 | 135
#4:2579059 | 679 | 235 | 170 | 135
#4:2579112 | 683 | 238 | 174 | 135
#4:2579161 | 686 | 241 | 162 | 136
#4:2579213 | 692 | 244 | 175 | 136
#4:2579265 | 692 | 247 | 163 | 136
#4:2579315 | 690 | 250 | 173 | 136
#4:2579367 | 688 | 253 | 175 | 136
#4:2579417 | 681 | 0 | 160 | 135
#4:2579467 | 673 | 3 | 171 | 134
#4:2579502 | 671 | 5 | 176 | 134
#4:2579552 | 676 | 8 | 161 | 135
#4:2579602 | 683 | 11 | 172 | 135
#4:2579655 | 689 | 14 | 176 | 136
#4:2579704 | 693 | 17 | 162 | 136
#4:2579756 | 691 | 20 | 175 | 136
#4:2579808 | 687 | 23 | 164 | 136
#4:2579857 | 680 | 26 | 172 | 135
#4:2579909 | 673 | 29 | 174 | 134
#4:2579959 | 670 | 32 | 163 | 134
#4:2580009 | 675 | 35 | 172 | 135
#4:2580062 | 680 | 38 | 174 | 135
#4:2580110 | 681 | 41 | 160 | 135
#4:2580162 | 677 | 44 | 169 | 135
#4:2580214 | 682 | 47 | 164 | 135
#4:2580263 | 679 | 50 | 172 | 135
#4:2580315 | 679 | 53 | 178 | 135
#4:2580365 | 679 | 56 | 163 | 135
#4:2580416 | 684 | 59 | 168 | 135
> !daq stop
#4:2580451 | 685 | 61 | 179 | 135
:stopped

> !drv f -100
:F -100
