> !globalvar g_carbasicfcts_cruiseTS 50
:50
> !globalvar g_carbasicfcts_cruiseKP 50
:50
> !globalvar g_carbasicfcts_cruiseKI 10
:10
> !daq grp 4 ~all _tics cruise_drvval hall_cnt hall_dt hall_dt8
:ok

> !daq start
:started

> !drv c 1000
:C 1000
#4:1090905 | 515 | 96 | 44247 | 4886
#4:1091005 | 533 | 97 | 718 | 4909
#4:1091055 | 519 | 98 | 520 | 4910
#4:1091105 | 512 | 99 | 425 | 4903
#4:1091152 | 504 | 100 | 386 | 4890
#4:1091188 | 501 | 101 | 357 | 4863
#4:1091253 | 496 | 103 | 316 | 4731
#4:1091284 | 507 | 104 | 306 | 337
#4:1091344 | 500 | 106 | 308 | 273
#4:1091402 | 497 | 108 | 286 | 250
#4:1091431 | 495 | 109 | 282 | 242
#4:1091486 | 494 | 111 | 272 | 232
#4:1091539 | 492 | 113 | 262 | 225
#4:1091593 | 491 | 115 | 270 | 219
#4:1091647 | 490 | 117 | 266 | 216
#4:1091699 | 490 | 119 | 258 | 213
#4:1091750 | 489 | 121 | 252 | 211
#4:1091802 | 489 | 123 | 259 | 209
#4:1091854 | 488 | 125 | 258 | 207
#4:1091905 | 488 | 127 | 254 | 206
#4:1091955 | 488 | 129 | 245 | 204
#4:1091981 | 488 | 130 | 261 | 204
#4:1092032 | 488 | 132 | 254 | 203
#4:1092083 | 488 | 134 | 253 | 203
#4:1092132 | 488 | 136 | 245 | 202
#4:1092182 | 488 | 138 | 256 | 201
#4:1092233 | 488 | 140 | 251 | 200
#4:1092283 | 487 | 142 | 249 | 199
#4:1092355 | 487 | 145 | 239 | 198
#4:1092405 | 487 | 147 | 249 | 197
#4:1092455 | 487 | 149 | 247 | 196
#4:1092503 | 487 | 151 | 240 | 196
#4:1092551 | 486 | 153 | 236 | 196
#4:1092601 | 486 | 155 | 245 | 195
#4:1092650 | 486 | 157 | 244 | 194
#4:1092698 | 486 | 159 | 238 | 194
#4:1092745 | 486 | 161 | 233 | 193
#4:1092794 | 486 | 163 | 242 | 193
#4:1092843 | 486 | 165 | 244 | 193
#4:1092891 | 486 | 167 | 237 | 193
#4:1092938 | 486 | 169 | 235 | 193
#4:1092987 | 486 | 171 | 244 | 193
#4:1093037 | 485 | 173 | 247 | 193
#4:1093085 | 485 | 175 | 237 | 193
#4:1093133 | 485 | 177 | 236 | 194
#4:1093183 | 485 | 179 | 248 | 195
#4:1093232 | 485 | 181 | 250 | 195
#4:1093304 | 485 | 184 | 238 | 195
#4:1093353 | 485 | 186 | 251 | 195
#4:1093403 | 485 | 188 | 246 | 195
#4:1093452 | 485 | 190 | 246 | 195
#4:1093500 | 485 | 192 | 239 | 195
#4:1093549 | 485 | 194 | 254 | 195
#4:1093599 | 485 | 196 | 246 | 195
#4:1093648 | 485 | 198 | 245 | 195
#4:1093696 | 485 | 200 | 237 | 195
#4:1093745 | 485 | 202 | 252 | 195
#4:1093794 | 485 | 204 | 246 | 195
#4:1093843 | 485 | 206 | 245 | 195
#4:1093891 | 485 | 208 | 237 | 194
#4:1093940 | 485 | 210 | 252 | 194
#4:1093988 | 485 | 212 | 244 | 194
#4:1094038 | 485 | 214 | 246 | 194
#4:1094085 | 485 | 216 | 235 | 194
#4:1094134 | 485 | 218 | 251 | 194
#4:1094183 | 485 | 220 | 246 | 194
#4:1094233 | 485 | 222 | 246 | 194
#4:1094304 | 485 | 225 | 237 | 195
#4:1094354 | 485 | 227 | 244 | 195
#4:1094403 | 485 | 229 | 248 | 195
#4:1094451 | 485 | 231 | 235 | 194
#4:1094498 | 485 | 233 | 236 | 194
#4:1094548 | 485 | 235 | 242 | 193
#4:1094597 | 485 | 237 | 243 | 193
#4:1094645 | 485 | 239 | 235 | 193
#4:1094692 | 485 | 241 | 237 | 193
#4:1094742 | 484 | 243 | 245 | 193
#4:1094791 | 484 | 245 | 245 | 194
#4:1094839 | 484 | 247 | 238 | 194
#4:1094887 | 484 | 249 | 237 | 194
#4:1094936 | 484 | 251 | 245 | 194
#4:1094986 | 484 | 253 | 249 | 195
#4:1095034 | 484 | 255 | 237 | 194
#4:1095081 | 484 | 1 | 235 | 194
#4:1095155 | 484 | 4 | 244 | 194
#4:1095204 | 484 | 6 | 244 | 193
#4:1095251 | 484 | 8 | 236 | 193
#4:1095300 | 484 | 10 | 250 | 193
#4:1095349 | 484 | 12 | 243 | 193
#4:1095397 | 484 | 14 | 242 | 193
#4:1095444 | 484 | 16 | 234 | 192
#4:1095493 | 484 | 18 | 248 | 192
#4:1095541 | 484 | 20 | 242 | 192
#4:1095590 | 484 | 22 | 241 | 192
#4:1095637 | 483 | 24 | 231 | 192
#4:1095685 | 483 | 26 | 248 | 192
#4:1095733 | 483 | 28 | 240 | 192
#4:1095783 | 483 | 30 | 244 | 192
#4:1095853 | 483 | 33 | 236 | 192
#4:1095902 | 484 | 35 | 245 | 192
#4:1095951 | 483 | 37 | 244 | 192
#4:1095998 | 483 | 39 | 233 | 192
#4:1096045 | 484 | 41 | 236 | 192
#4:1096095 | 484 | 43 | 249 | 193
#4:1096144 | 484 | 45 | 245 | 193
#4:1096192 | 484 | 47 | 232 | 193
#4:1096239 | 484 | 49 | 241 | 193
#4:1096289 | 484 | 51 | 248 | 193
#4:1096338 | 483 | 53 | 245 | 194
#4:1096386 | 483 | 55 | 234 | 194
#4:1096434 | 483 | 57 | 239 | 194
#4:1096484 | 483 | 59 | 249 | 194
#4:1096533 | 483 | 61 | 247 | 194
#4:1096605 | 483 | 64 | 237 | 194
#4:1096654 | 483 | 66 | 250 | 194
#4:1096703 | 483 | 68 | 245 | 195
#4:1096753 | 483 | 70 | 248 | 195
#4:1096801 | 483 | 72 | 239 | 195
#4:1096850 | 484 | 74 | 253 | 196
#4:1096900 | 484 | 76 | 247 | 196
#4:1096950 | 484 | 78 | 245 | 196
#4:1096998 | 484 | 80 | 237 | 196
#4:1097047 | 484 | 82 | 253 | 196
#4:1097097 | 484 | 84 | 245 | 196
#4:1097146 | 483 | 86 | 244 | 196
#4:1097193 | 483 | 88 | 237 | 195
#4:1097243 | 483 | 90 | 253 | 195
#4:1097292 | 483 | 92 | 244 | 195
#4:1097342 | 483 | 94 | 245 | 195
#4:1097389 | 483 | 96 | 235 | 195
#4:1097438 | 483 | 98 | 250 | 195
#4:1097487 | 483 | 100 | 242 | 194
#4:1097536 | 483 | 102 | 243 | 194
#4:1097583 | 483 | 104 | 233 | 193
#4:1097632 | 483 | 106 | 252 | 193
#4:1097705 | 483 | 109 | 245 | 193
#4:1097753 | 483 | 111 | 232 | 193
#4:1097801 | 483 | 113 | 239 | 194
#4:1097851 | 483 | 115 | 250 | 194
#4:1097900 | 483 | 117 | 245 | 194
#4:1097948 | 483 | 119 | 237 | 194
#4:1097996 | 483 | 121 | 238 | 194
#4:1098046 | 483 | 123 | 250 | 194
#4:1098095 | 483 | 125 | 247 | 194
#4:1098143 | 483 | 127 | 232 | 194
#4:1098190 | 483 | 129 | 236 | 194
#4:1098240 | 483 | 131 | 248 | 194
#4:1098289 | 483 | 133 | 246 | 193
#4:1098336 | 483 | 135 | 230 | 193
#4:1098383 | 483 | 137 | 233 | 192
#4:1098432 | 482 | 139 | 247 | 192
#4:1098504 | 482 | 142 | 237 | 191
#4:1098550 | 482 | 144 | 228 | 190
#4:1098598 | 482 | 146 | 246 | 190
#4:1098646 | 482 | 148 | 238 | 189
#4:1098694 | 482 | 150 | 236 | 189
#4:1098739 | 482 | 152 | 228 | 189
#4:1098787 | 481 | 154 | 244 | 188
#4:1098835 | 482 | 156 | 238 | 189
#4:1098905 | 481 | 159 | 229 | 189
#4:1098951 | 481 | 161 | 229 | 188
#4:1099000 | 481 | 163 | 241 | 188
#4:1099047 | 481 | 165 | 240 | 188
#4:1099093 | 481 | 167 | 227 | 188
#4:1099139 | 481 | 169 | 229 | 188
#4:1099188 | 481 | 171 | 242 | 188
#4:1099236 | 481 | 173 | 239 | 188
#4:1099305 | 481 | 176 | 227 | 188
#4:1099353 | 482 | 178 | 244 | 189
#4:1099401 | 482 | 180 | 239 | 189
#4:1099449 | 482 | 182 | 238 | 189
#4:1099495 | 482 | 184 | 229 | 190
#4:1099543 | 482 | 186 | 247 | 190
#4:1099592 | 482 | 188 | 243 | 191
#4:1099641 | 482 | 190 | 244 | 191
#4:1099687 | 481 | 192 | 225 | 191
#4:1099736 | 481 | 194 | 253 | 192
#4:1099785 | 482 | 196 | 243 | 192
#4:1099834 | 482 | 198 | 242 | 193
#4:1099905 | 482 | 201 | 237 | 193
#4:1099955 | 482 | 203 | 249 | 193
#4:1100004 | 482 | 205 | 246 | 193
#4:1100052 | 482 | 207 | 233 | 193
#4:1100098 | 482 | 209 | 235 | 193
#4:1100148 | 482 | 211 | 247 | 193
#4:1100197 | 482 | 213 | 245 | 193
#4:1100245 | 482 | 215 | 234 | 193
#4:1100292 | 482 | 217 | 237 | 193
#4:1100342 | 482 | 219 | 248 | 193
#4:1100391 | 482 | 221 | 246 | 193
#4:1100439 | 482 | 223 | 233 | 194
#4:1100486 | 482 | 225 | 237 | 194
#4:1100536 | 482 | 227 | 248 | 194
#4:1100586 | 482 | 229 | 246 | 194
#4:1100634 | 482 | 231 | 234 | 194
#4:1100681 | 482 | 233 | 238 | 194
#4:1100731 | 482 | 235 | 251 | 194
> !daq stop
#4:1100805 | 482 | 238 | 244 | 195
:stopped

> !drv f -100
:F -100
