> !globalvar g_carbasicfcts_cruiseTS 50
:50
> !globalvar g_carbasicfcts_cruiseKP 1000
:1000
> !globalvar g_carbasicfcts_cruiseKI 5
:5
> !daq grp 4 ~all _tics cruise_drvval hall_cnt hall_dt hall_dt8
:ok

> !daq start
:started

> !drv c 500
:C 500
#4:2453067 | 303 | 10 | 39477 | 4353
#4:2453167 | 719 | 11 | 889 | 4404
#4:2453217 | 478 | 12 | 523 | 4416
#4:2453267 | 278 | 13 | 417 | 4413
#4:2453308 | 76 | 14 | 370 | 4399
#4:2453344 | 67 | 15 | 365 | 4376
#4:2453381 | 83 | 16 | 373 | 4342
#4:2453464 | 223 | 18 | 444 | 376
#4:2453509 | 152 | 19 | 453 | 332
#4:2453557 | 144 | 20 | 479 | 328
#4:2453609 | 161 | 21 | 514 | 337
#4:2453662 | 190 | 22 | 538 | 354
#4:2453717 | 190 | 23 | 574 | 375
#4:2453767 | 222 | 24 | 606 | 399
#4:2453817 | 254 | 25 | 623 | 423
#4:2453867 | 283 | 26 | 659 | 445
#4:2453967 | 307 | 27 | 616 | 461
#4:2454017 | 323 | 28 | 579 | 471
#4:2454067 | 332 | 29 | 551 | 475
#4:2454117 | 336 | 30 | 503 | 471
#4:2454167 | 332 | 31 | 477 | 461
#4:2454217 | 323 | 32 | 454 | 446
#4:2454267 | 308 | 33 | 435 | 427
#4:2454316 | 264 | 34 | 450 | 406
#4:2454360 | 241 | 35 | 441 | 389
#4:2454404 | 222 | 36 | 443 | 375
#4:2454451 | 210 | 37 | 467 | 367
#4:2454498 | 205 | 38 | 474 | 364
#4:2454547 | 207 | 39 | 487 | 365
#4:2454598 | 214 | 40 | 503 | 370
#4:2454649 | 226 | 41 | 515 | 378
#4:2454706 | 243 | 42 | 570 | 390
#4:2454764 | 260 | 43 | 578 | 404
#4:2454817 | 260 | 44 | 583 | 418
#4:2454867 | 277 | 45 | 589 | 430
#4:2454917 | 291 | 46 | 566 | 439
#4:2454967 | 301 | 47 | 540 | 444
#4:2455017 | 307 | 48 | 519 | 446
#4:2455067 | 308 | 49 | 497 | 444
#4:2455117 | 306 | 50 | 514 | 439
#4:2455167 | 300 | 51 | 495 | 430
#4:2455217 | 291 | 52 | 486 | 420
#4:2455267 | 280 | 53 | 487 | 410
#4:2455317 | 268 | 54 | 479 | 402
#4:2455367 | 258 | 55 | 477 | 395
#4:2455417 | 249 | 56 | 476 | 391
#4:2455467 | 244 | 57 | 481 | 389
#4:2455517 | 242 | 58 | 518 | 390
#4:2455567 | 242 | 59 | 526 | 393
#4:2455617 | 246 | 60 | 536 | 398
#4:2455667 | 253 | 61 | 559 | 405
#4:2455717 | 262 | 62 | 556 | 413
#4:2455767 | 271 | 63 | 546 | 420
#4:2455817 | 279 | 64 | 535 | 426
#4:2455867 | 286 | 65 | 520 | 429
#4:2455967 | 291 | 66 | 547 | 432
#4:2456017 | 294 | 67 | 526 | 432
#4:2456067 | 294 | 68 | 506 | 429
#4:2456117 | 291 | 69 | 510 | 425
#4:2456167 | 285 | 70 | 491 | 418
#4:2456217 | 278 | 71 | 481 | 412
#4:2456267 | 270 | 72 | 478 | 406
#4:2456316 | 257 | 73 | 475 | 401
#4:2456366 | 252 | 74 | 504 | 397
#4:2456417 | 252 | 75 | 507 | 395
#4:2456467 | 249 | 76 | 517 | 396
#4:2456517 | 251 | 77 | 538 | 399
#4:2456567 | 254 | 78 | 545 | 404
#4:2456617 | 261 | 79 | 548 | 411
#4:2456667 | 269 | 80 | 544 | 418
#4:2456717 | 277 | 81 | 530 | 423
#4:2456767 | 284 | 82 | 553 | 428
#4:2456817 | 289 | 83 | 540 | 431
#4:2456867 | 293 | 84 | 523 | 432
#4:2456917 | 293 | 85 | 520 | 430
#4:2456967 | 291 | 86 | 498 | 426
#4:2457017 | 286 | 87 | 484 | 419
#4:2457067 | 279 | 88 | 478 | 413
#4:2457117 | 271 | 89 | 473 | 407
#4:2457167 | 264 | 90 | 507 | 402
#4:2457217 | 258 | 91 | 500 | 398
#4:2457267 | 253 | 92 | 506 | 396
#4:2457317 | 251 | 93 | 524 | 397
#4:2457367 | 252 | 94 | 532 | 400
#4:2457417 | 256 | 95 | 541 | 406
#4:2457467 | 263 | 96 | 536 | 412
#4:2457517 | 270 | 97 | 522 | 417
#4:2457617 | 276 | 98 | 552 | 421
#4:2457667 | 281 | 99 | 538 | 425
#4:2457717 | 286 | 100 | 539 | 428
#4:2457767 | 289 | 101 | 550 | 431
#4:2457817 | 292 | 102 | 534 | 431
#4:2457867 | 292 | 103 | 513 | 428
#4:2457917 | 289 | 104 | 495 | 424
#4:2457967 | 285 | 105 | 478 | 420
#4:2458017 | 280 | 106 | 500 | 414
#4:2458067 | 273 | 107 | 499 | 411
#4:2458117 | 269 | 108 | 502 | 407
#4:2458167 | 264 | 109 | 509 | 403
#4:2458217 | 259 | 110 | 505 | 400
#4:2458267 | 256 | 111 | 501 | 399
#4:2458317 | 254 | 112 | 496 | 399
#4:2458367 | 254 | 113 | 497 | 401
#4:2458417 | 257 | 114 | 533 | 404
#4:2458467 | 261 | 115 | 527 | 407
#4:2458517 | 264 | 116 | 527 | 409
#4:2458567 | 267 | 117 | 530 | 412
#4:2458617 | 270 | 118 | 523 | 413
#4:2458667 | 272 | 119 | 505 | 414
#4:2458717 | 272 | 120 | 497 | 414
#4:2458767 | 272 | 121 | 490 | 413
#4:2458817 | 272 | 122 | 513 | 411
#4:2458867 | 269 | 123 | 501 | 408
#4:2458917 | 266 | 124 | 498 | 406
#4:2458967 | 263 | 125 | 503 | 403
#4:2459017 | 259 | 126 | 490 | 400
#4:2459067 | 255 | 127 | 483 | 397
#4:2459117 | 252 | 128 | 481 | 396
#4:2459167 | 250 | 129 | 487 | 396
#4:2459217 | 250 | 130 | 521 | 396
#4:2459267 | 251 | 131 | 522 | 398
#4:2459317 | 254 | 132 | 524 | 401
#4:2459367 | 257 | 133 | 536 | 404
#4:2459417 | 261 | 134 | 519 | 407
#4:2459467 | 265 | 135 | 524 | 411
#4:2459517 | 270 | 136 | 506 | 414
#4:2459567 | 273 | 137 | 504 | 416
#4:2459617 | 275 | 138 | 527 | 416
#4:2459667 | 275 | 139 | 514 | 415
#4:2459717 | 274 | 140 | 509 | 414
#4:2459817 | 273 | 141 | 513 | 412
#4:2459867 | 270 | 142 | 502 | 410
#4:2459917 | 268 | 143 | 499 | 407
#4:2459967 | 265 | 144 | 491 | 406
#4:2460016 | 262 | 145 | 494 | 405
#4:2460067 | 262 | 146 | 521 | 404
#4:2460117 | 261 | 147 | 511 | 404
#4:2460167 | 261 | 148 | 515 | 404
#4:2460217 | 261 | 149 | 511 | 404
#4:2460267 | 261 | 150 | 505 | 405
#4:2460317 | 261 | 151 | 503 | 405
#4:2460367 | 262 | 152 | 491 | 405
#4:2460417 | 262 | 153 | 496 | 405
#4:2460467 | 262 | 154 | 531 | 406
#4:2460517 | 263 | 155 | 511 | 406
#4:2460567 | 263 | 156 | 514 | 406
#4:2460617 | 263 | 157 | 521 | 407
#4:2460667 | 265 | 158 | 508 | 407
#4:2460717 | 265 | 159 | 500 | 407
#4:2460767 | 264 | 160 | 494 | 407
#4:2460817 | 265 | 161 | 497 | 407
#4:2460867 | 265 | 162 | 528 | 407
#4:2460917 | 265 | 163 | 515 | 407
#4:2460967 | 265 | 164 | 515 | 408
#4:2461017 | 265 | 165 | 523 | 408
#4:2461067 | 265 | 166 | 516 | 409
#4:2461117 | 266 | 167 | 504 | 409
#4:2461167 | 267 | 168 | 505 | 410
#4:2461217 | 268 | 169 | 510 | 411
#4:2461267 | 270 | 170 | 540 | 413
#4:2461317 | 271 | 171 | 531 | 414
#4:2461367 | 273 | 172 | 526 | 415
#4:2461417 | 275 | 173 | 534 | 417
#4:2461467 | 276 | 174 | 528 | 418
#4:2461517 | 277 | 175 | 520 | 419
#4:2461567 | 279 | 176 | 505 | 419
#4:2461617 | 279 | 177 | 507 | 419
#4:2461667 | 279 | 178 | 547 | 420
#4:2461767 | 280 | 179 | 536 | 420
#4:2461817 | 280 | 180 | 534 | 421
#4:2461867 | 281 | 181 | 542 | 422
#4:2461917 | 282 | 182 | 531 | 422
#4:2461967 | 282 | 183 | 521 | 422
#4:2462017 | 282 | 184 | 509 | 423
#4:2462067 | 283 | 185 | 508 | 423
#4:2462117 | 283 | 186 | 533 | 421
#4:2462167 | 281 | 187 | 516 | 419
#4:2462217 | 279 | 188 | 516 | 418
#4:2462267 | 277 | 189 | 521 | 415
#4:2462317 | 275 | 190 | 514 | 414
#4:2462367 | 272 | 191 | 502 | 412
#4:2462417 | 270 | 192 | 499 | 411
#4:2462467 | 269 | 193 | 495 | 409
#4:2462517 | 267 | 194 | 524 | 409
#4:2462567 | 266 | 195 | 511 | 408
#4:2462617 | 266 | 196 | 508 | 407
#4:2462667 | 265 | 197 | 517 | 407
#4:2462717 | 264 | 198 | 508 | 406
#4:2462767 | 264 | 199 | 484 | 405
#4:2462817 | 261 | 200 | 489 | 404
#4:2462867 | 260 | 201 | 495 | 403
> !daq stop
:stopped

> !drv f -100
:F -100
