> !globalvar g_carbasicfcts_cruiseTS 50
:50
> !globalvar g_carbasicfcts_cruiseKP 200
:200
> !globalvar g_carbasicfcts_cruiseKI 20
:20
> !daq grp 4 ~all _tics cruise_drvval hall_cnt hall_dt hall_dt8
:ok

> !daq start
:started

> !drv c 500
:C 500
#4:1826007 | 282 | 172 | 38281 | 4285
#4:1826107 | 356 | 173 | 960 | 4339
#4:1826157 | 313 | 174 | 658 | 4360
#4:1826207 | 288 | 175 | 550 | 4368
#4:1826257 | 273 | 176 | 501 | 4366
#4:1826307 | 265 | 177 | 496 | 4354
#4:1826357 | 264 | 178 | 524 | 4325
#4:1826407 | 268 | 179 | 520 | 4249
#4:1826457 | 268 | 180 | 517 | 473
#4:1826507 | 279 | 181 | 519 | 428
#4:1826557 | 270 | 182 | 505 | 413
#4:1826607 | 267 | 183 | 482 | 406
#4:1826657 | 266 | 184 | 466 | 403
#4:1826707 | 265 | 185 | 468 | 400
#4:1826757 | 265 | 186 | 498 | 397
#4:1826807 | 264 | 187 | 502 | 396
#4:1826857 | 263 | 188 | 501 | 394
#4:1826907 | 263 | 189 | 516 | 394
#4:1826957 | 263 | 190 | 504 | 394
#4:1827007 | 263 | 191 | 478 | 393
#4:1827057 | 263 | 192 | 466 | 393
#4:1827107 | 263 | 193 | 469 | 393
#4:1827157 | 263 | 194 | 503 | 394
#4:1827207 | 263 | 195 | 495 | 393
#4:1827257 | 263 | 196 | 499 | 393
#4:1827307 | 263 | 197 | 510 | 392
#4:1827357 | 263 | 198 | 498 | 392
#4:1827407 | 262 | 199 | 475 | 392
#4:1827457 | 262 | 200 | 467 | 392
#4:1827507 | 262 | 201 | 473 | 392
#4:1827557 | 262 | 202 | 504 | 392
#4:1827607 | 262 | 203 | 502 | 393
#4:1827657 | 263 | 204 | 505 | 393
#4:1827707 | 263 | 205 | 512 | 394
#4:1827757 | 263 | 206 | 504 | 394
#4:1827807 | 263 | 207 | 481 | 395
#4:1827857 | 263 | 208 | 483 | 396
#4:1827907 | 264 | 209 | 482 | 397
#4:1827957 | 264 | 210 | 518 | 399
#4:1828007 | 264 | 211 | 508 | 399
#4:1828057 | 264 | 212 | 511 | 400
#4:1828107 | 265 | 213 | 523 | 401
#4:1828157 | 265 | 214 | 508 | 401
#4:1828207 | 265 | 215 | 483 | 402
#4:1828257 | 265 | 216 | 472 | 400
#4:1828307 | 264 | 217 | 478 | 400
#4:1828357 | 264 | 218 | 517 | 400
#4:1828407 | 264 | 219 | 498 | 399
#4:1828457 | 263 | 220 | 518 | 400
#4:1828507 | 263 | 221 | 527 | 400
#4:1828557 | 264 | 222 | 513 | 401
#4:1828607 | 264 | 223 | 491 | 401
#4:1828657 | 264 | 224 | 478 | 402
#4:1828707 | 264 | 225 | 474 | 402
#4:1828757 | 264 | 226 | 509 | 401
#4:1828807 | 264 | 227 | 500 | 401
#4:1828857 | 264 | 228 | 506 | 400
#4:1828907 | 263 | 229 | 520 | 399
#4:1828957 | 263 | 230 | 502 | 398
#4:1829007 | 263 | 231 | 483 | 397
#4:1829057 | 263 | 232 | 464 | 396
#4:1829107 | 262 | 233 | 467 | 395
#4:1829157 | 262 | 234 | 500 | 394
#4:1829207 | 262 | 235 | 492 | 393
#4:1829257 | 262 | 236 | 500 | 393
#4:1829307 | 262 | 237 | 517 | 392
#4:1829357 | 262 | 238 | 495 | 392
#4:1829407 | 261 | 239 | 483 | 392
#4:1829457 | 261 | 240 | 466 | 392
#4:1829507 | 261 | 241 | 469 | 392
#4:1829557 | 261 | 242 | 503 | 392
#4:1829607 | 262 | 243 | 499 | 393
#4:1829657 | 262 | 244 | 500 | 393
#4:1829707 | 262 | 245 | 521 | 394
#4:1829757 | 262 | 246 | 501 | 394
#4:1829807 | 262 | 247 | 485 | 394
#4:1829857 | 262 | 248 | 468 | 395
#4:1829907 | 262 | 249 | 473 | 395
#4:1829957 | 262 | 250 | 504 | 395
#4:1830007 | 262 | 251 | 494 | 395
#4:1830057 | 262 | 252 | 510 | 396
#4:1830107 | 262 | 253 | 521 | 396
#4:1830157 | 262 | 254 | 503 | 396
#4:1830207 | 262 | 255 | 483 | 396
#4:1830257 | 262 | 0 | 464 | 395
#4:1830307 | 262 | 1 | 467 | 394
#4:1830357 | 262 | 2 | 493 | 393
#4:1830407 | 262 | 3 | 487 | 393
#4:1830457 | 262 | 4 | 496 | 391
#4:1830507 | 261 | 5 | 510 | 390
#4:1830557 | 261 | 6 | 494 | 389
#4:1830606 | 260 | 7 | 474 | 388
#4:1830651 | 260 | 8 | 456 | 388
#4:1830697 | 260 | 9 | 454 | 386
#4:1830745 | 260 | 10 | 484 | 385
#4:1830792 | 259 | 11 | 469 | 384
#4:1830841 | 259 | 12 | 484 | 382
#4:1830890 | 258 | 13 | 495 | 381
#4:1830938 | 258 | 14 | 480 | 379
#4:1830985 | 258 | 15 | 461 | 378
#4:1831030 | 257 | 16 | 449 | 378
#4:1831074 | 257 | 17 | 447 | 377
#4:1831122 | 257 | 18 | 481 | 376
#4:1831170 | 257 | 19 | 471 | 377
#4:1831218 | 257 | 20 | 483 | 377
#4:1831268 | 257 | 21 | 506 | 378
#4:1831318 | 258 | 22 | 494 | 379
#4:1831366 | 258 | 23 | 475 | 380
#4:1831457 | 259 | 25 | 460 | 383
#4:1831506 | 259 | 26 | 486 | 383
#4:1831554 | 259 | 27 | 477 | 384
#4:1831602 | 259 | 28 | 480 | 384
#4:1831652 | 259 | 29 | 500 | 383
#4:1831700 | 259 | 30 | 483 | 382
#4:1831747 | 259 | 31 | 468 | 381
#4:1831792 | 258 | 32 | 449 | 380
#4:1831837 | 258 | 33 | 449 | 379
#4:1831886 | 258 | 34 | 484 | 379
#4:1831933 | 258 | 35 | 473 | 378
#4:1831981 | 258 | 36 | 482 | 379
#4:1832031 | 258 | 37 | 498 | 378
#4:1832080 | 258 | 38 | 484 | 379
#4:1832126 | 258 | 39 | 469 | 379
#4:1832171 | 258 | 40 | 449 | 379
#4:1832217 | 258 | 41 | 456 | 379
#4:1832266 | 258 | 42 | 490 | 380
#4:1832315 | 258 | 43 | 484 | 381
#4:1832363 | 259 | 44 | 488 | 382
#4:1832414 | 259 | 45 | 507 | 383
#4:1832463 | 259 | 46 | 492 | 383
#4:1832557 | 259 | 48 | 456 | 385
#4:1832603 | 260 | 49 | 463 | 386
#4:1832653 | 260 | 50 | 493 | 386
#4:1832702 | 260 | 51 | 494 | 387
#4:1832752 | 260 | 52 | 499 | 388
#4:1832803 | 260 | 53 | 515 | 389
#4:1832854 | 260 | 54 | 503 | 390
#4:1832902 | 260 | 55 | 484 | 391
#4:1832949 | 260 | 56 | 465 | 391
#4:1832996 | 261 | 57 | 473 | 392
#4:1833047 | 261 | 58 | 509 | 394
#4:1833098 | 261 | 59 | 509 | 395
#4:1833149 | 262 | 60 | 514 | 397
#4:1833202 | 262 | 61 | 528 | 398
#4:1833254 | 262 | 62 | 515 | 399
#4:1833303 | 263 | 63 | 493 | 400
#4:1833350 | 263 | 64 | 467 | 401
#4:1833397 | 263 | 65 | 475 | 401
#4:1833448 | 263 | 66 | 505 | 400
#4:1833499 | 263 | 67 | 505 | 400
#4:1833549 | 262 | 68 | 508 | 400
#4:1833602 | 262 | 69 | 527 | 399
#4:1833654 | 262 | 70 | 517 | 400
#4:1833703 | 262 | 71 | 490 | 399
#4:1833750 | 262 | 72 | 473 | 400
#4:1833798 | 262 | 73 | 473 | 400
#4:1833849 | 263 | 74 | 508 | 400
#4:1833898 | 262 | 75 | 499 | 399
#4:1833948 | 262 | 76 | 491 | 398
#4:1833999 | 262 | 77 | 516 | 397
#4:1834050 | 261 | 78 | 502 | 395
#4:1834099 | 261 | 79 | 489 | 395
#4:1834145 | 261 | 80 | 464 | 394
#4:1834192 | 261 | 81 | 467 | 394
#4:1834242 | 261 | 82 | 499 | 393
#4:1834292 | 261 | 83 | 501 | 393
#4:1834342 | 261 | 84 | 499 | 394
#4:1834393 | 261 | 85 | 517 | 394
#4:1834444 | 261 | 86 | 506 | 394
#4:1834493 | 261 | 87 | 491 | 394
#4:1834540 | 261 | 88 | 469 | 395
#4:1834588 | 261 | 89 | 473 | 396
#4:1834638 | 262 | 90 | 506 | 396
#4:1834689 | 262 | 91 | 504 | 396
#4:1834739 | 262 | 92 | 503 | 397
#4:1834792 | 262 | 93 | 524 | 397
#4:1834843 | 262 | 94 | 512 | 398
#4:1834893 | 262 | 95 | 496 | 399
#4:1834940 | 262 | 96 | 469 | 399
#4:1834988 | 262 | 97 | 480 | 399
#4:1835039 | 262 | 98 | 509 | 400
#4:1835090 | 263 | 99 | 513 | 400
#4:1835141 | 263 | 100 | 515 | 402
#4:1835194 | 263 | 101 | 528 | 402
#4:1835246 | 263 | 102 | 518 | 403
#4:1835297 | 263 | 103 | 505 | 404
#4:1835344 | 264 | 104 | 475 | 404
#4:1835393 | 264 | 105 | 483 | 404
#4:1835444 | 264 | 106 | 514 | 405
#4:1835495 | 264 | 107 | 514 | 405
#4:1835547 | 264 | 108 | 514 | 405
#4:1835600 | 264 | 109 | 532 | 406
#4:1835653 | 264 | 110 | 524 | 406
#4:1835703 | 264 | 111 | 507 | 406
#4:1835752 | 264 | 112 | 482 | 407
> !daq stop
#4:1835800 | 264 | 113 | 488 | 407
:stopped

> !drv f -100
:F -100
