> !globalvar g_carbasicfcts_cruiseTS 50
:50
> !globalvar g_carbasicfcts_cruiseKP 200
:200
> !globalvar g_carbasicfcts_cruiseKI 100
:100
> !daq grp 4 ~all _tics cruise_drvval hall_cnt hall_dt hall_dt8
:ok

> !daq start
:started

> !drv c 1500
:C 1500
#4:1943548 | 894 | 206 | 42920 | 4672
#4:1943598 | 990 | 207 | 706 | 4707
#4:1943648 | 931 | 208 | 379 | 4707
#4:1943698 | 873 | 209 | 342 | 4699
#4:1943745 | 845 | 210 | 305 | 4681
#4:1943796 | 806 | 212 | 245 | 4610
#4:1943843 | 867 | 214 | 228 | 271
#4:1943884 | 820 | 216 | 201 | 204
#4:1943942 | 782 | 219 | 191 | 170
#4:1943998 | 766 | 222 | 184 | 155
#4:1944032 | 747 | 224 | 169 | 148
#4:1944084 | 735 | 227 | 171 | 141
#4:1944136 | 727 | 230 | 174 | 137
#4:1944184 | 722 | 233 | 159 | 135
#4:1944235 | 719 | 236 | 166 | 133
#4:1944285 | 715 | 239 | 160 | 132
#4:1944333 | 713 | 242 | 167 | 131
#4:1944383 | 711 | 245 | 168 | 130
#4:1944447 | 711 | 249 | 156 | 130
#4:1944497 | 711 | 252 | 166 | 131
#4:1944547 | 710 | 255 | 160 | 131
#4:1944595 | 710 | 2 | 166 | 131
#4:1944645 | 709 | 5 | 169 | 130
#4:1944693 | 710 | 8 | 158 | 131
#4:1944743 | 709 | 11 | 165 | 131
#4:1944793 | 710 | 14 | 169 | 131
#4:1944841 | 710 | 17 | 156 | 131
#4:1944891 | 709 | 20 | 165 | 131
#4:1944941 | 709 | 23 | 161 | 131
#4:1944989 | 709 | 26 | 167 | 131
#4:1945039 | 708 | 29 | 169 | 131
#4:1945089 | 709 | 32 | 160 | 131
#4:1945138 | 709 | 35 | 165 | 132
#4:1945189 | 710 | 38 | 172 | 132
#4:1945237 | 709 | 41 | 158 | 132
#4:1945287 | 709 | 44 | 165 | 132
#4:1945337 | 709 | 47 | 163 | 132
#4:1945386 | 707 | 50 | 168 | 132
#4:1945436 | 708 | 53 | 170 | 132
#4:1945485 | 708 | 56 | 160 | 132
#4:1945534 | 707 | 59 | 164 | 131
#4:1945585 | 705 | 62 | 170 | 131
#4:1945633 | 705 | 65 | 157 | 131
#4:1945682 | 705 | 68 | 164 | 131
#4:1945748 | 704 | 72 | 161 | 131
#4:1945798 | 705 | 75 | 164 | 131
#4:1945848 | 705 | 78 | 169 | 131
#4:1945896 | 703 | 81 | 156 | 131
#4:1945945 | 701 | 84 | 162 | 130
#4:1945994 | 700 | 87 | 160 | 130
#4:1946043 | 699 | 90 | 165 | 130
#4:1946092 | 699 | 93 | 164 | 130
#4:1946140 | 698 | 96 | 159 | 129
#4:1946189 | 697 | 99 | 162 | 129
#4:1946238 | 696 | 102 | 166 | 129
#4:1946285 | 695 | 105 | 155 | 129
#4:1946334 | 694 | 108 | 162 | 129
#4:1946383 | 693 | 111 | 158 | 128
#4:1946447 | 693 | 115 | 161 | 128
#4:1946496 | 692 | 118 | 166 | 129
#4:1946543 | 693 | 121 | 156 | 129
#4:1946592 | 693 | 124 | 161 | 129
#4:1946642 | 693 | 127 | 160 | 129
#4:1946690 | 693 | 130 | 165 | 129
#4:1946739 | 692 | 133 | 167 | 130
#4:1946788 | 693 | 136 | 160 | 130
#4:1946837 | 694 | 139 | 163 | 130
#4:1946887 | 694 | 142 | 169 | 131
#4:1946935 | 695 | 145 | 158 | 131
#4:1946985 | 694 | 148 | 163 | 131
#4:1947034 | 694 | 151 | 161 | 131
#4:1947083 | 693 | 154 | 167 | 131
#4:1947133 | 693 | 157 | 167 | 131
#4:1947197 | 692 | 161 | 157 | 130
#4:1947247 | 692 | 164 | 165 | 130
#4:1947297 | 692 | 167 | 161 | 131
#4:1947345 | 693 | 170 | 167 | 131
#4:1947395 | 692 | 173 | 169 | 131
#4:1947444 | 692 | 176 | 160 | 131
#4:1947493 | 692 | 179 | 164 | 131
#4:1947543 | 692 | 182 | 170 | 131
#4:1947592 | 691 | 185 | 160 | 131
#4:1947642 | 692 | 188 | 164 | 131
#4:1947692 | 692 | 191 | 162 | 131
#4:1947741 | 691 | 194 | 167 | 131
#4:1947791 | 691 | 197 | 168 | 131
#4:1947840 | 691 | 200 | 162 | 132
#4:1947889 | 690 | 203 | 165 | 132
#4:1947940 | 690 | 206 | 169 | 132
#4:1947988 | 690 | 209 | 158 | 132
#4:1948038 | 690 | 212 | 166 | 132
#4:1948088 | 689 | 215 | 162 | 132
#4:1948137 | 689 | 218 | 167 | 131
#4:1948186 | 688 | 221 | 168 | 131
#4:1948235 | 687 | 224 | 161 | 131
#4:1948284 | 686 | 227 | 163 | 131
#4:1948335 | 687 | 230 | 170 | 131
#4:1948383 | 688 | 233 | 160 | 132
#4:1948434 | 690 | 236 | 167 | 133
#4:1948485 | 691 | 239 | 164 | 133
#4:1948535 | 692 | 242 | 169 | 134
#4:1948585 | 691 | 245 | 169 | 133
#4:1948635 | 689 | 248 | 162 | 133
#4:1948684 | 688 | 251 | 165 | 132
#4:1948735 | 688 | 254 | 170 | 132
#4:1948783 | 688 | 1 | 160 | 132
#4:1948834 | 689 | 4 | 168 | 133
#4:1948884 | 688 | 7 | 166 | 133
#4:1948933 | 688 | 10 | 169 | 133
#4:1948983 | 687 | 13 | 168 | 132
#4:1949033 | 686 | 16 | 162 | 132
#4:1949082 | 685 | 19 | 166 | 132
#4:1949133 | 686 | 22 | 171 | 132
#4:1949183 | 688 | 25 | 162 | 133
#4:1949233 | 689 | 28 | 167 | 134
#4:1949284 | 690 | 31 | 165 | 134
#4:1949334 | 690 | 34 | 171 | 134
#4:1949385 | 690 | 37 | 170 | 134
#4:1949434 | 687 | 40 | 163 | 133
#4:1949484 | 687 | 43 | 166 | 133
#4:1949535 | 686 | 46 | 172 | 133
#4:1949584 | 687 | 49 | 162 | 133
#4:1949635 | 688 | 52 | 168 | 134
#4:1949686 | 687 | 55 | 164 | 134
#4:1949735 | 686 | 58 | 169 | 133
#4:1949785 | 685 | 61 | 167 | 133
#4:1949835 | 684 | 64 | 162 | 132
#4:1949885 | 683 | 67 | 166 | 132
#4:1949935 | 683 | 70 | 169 | 132
#4:1949984 | 684 | 73 | 162 | 133
#4:1950035 | 685 | 76 | 165 | 133
#4:1950085 | 685 | 79 | 164 | 133
#4:1950135 | 686 | 82 | 170 | 134
#4:1950187 | 687 | 85 | 171 | 134
#4:1950237 | 687 | 88 | 166 | 135
#4:1950287 | 687 | 91 | 168 | 135
#4:1950339 | 688 | 94 | 174 | 135
#4:1950389 | 688 | 97 | 166 | 135
#4:1950440 | 688 | 100 | 169 | 135
#4:1950491 | 687 | 103 | 165 | 135
#4:1950541 | 686 | 106 | 171 | 134
#4:1950592 | 685 | 109 | 171 | 134
#4:1950642 | 686 | 112 | 166 | 134
#4:1950693 | 688 | 115 | 171 | 135
#4:1950745 | 688 | 118 | 172 | 136
#4:1950795 | 688 | 121 | 166 | 136
#4:1950847 | 688 | 124 | 169 | 136
#4:1950897 | 687 | 127 | 163 | 135
#4:1950948 | 686 | 130 | 172 | 135
#4:1950998 | 685 | 133 | 171 | 134
#4:1951032 | 685 | 135 | 164 | 134
#4:1951082 | 685 | 138 | 172 | 134
#4:1951133 | 686 | 141 | 173 | 135
#4:1951184 | 687 | 144 | 168 | 135
#4:1951235 | 688 | 147 | 169 | 135
#4:1951287 | 688 | 150 | 173 | 136
#4:1951337 | 688 | 153 | 164 | 136
#4:1951388 | 687 | 156 | 169 | 135
#4:1951439 | 686 | 159 | 166 | 135
#4:1951490 | 686 | 162 | 173 | 135
#4:1951540 | 685 | 165 | 169 | 134
#4:1951591 | 685 | 168 | 167 | 134
#4:1951642 | 685 | 171 | 169 | 135
#4:1951693 | 686 | 174 | 171 | 135
#4:1951743 | 687 | 177 | 165 | 135
#4:1951794 | 687 | 180 | 171 | 135
#4:1951845 | 686 | 183 | 165 | 135
#4:1951896 | 685 | 186 | 173 | 135
#4:1951947 | 686 | 189 | 172 | 135
#4:1951998 | 686 | 192 | 169 | 136
#4:1952032 | 687 | 194 | 174 | 136
#4:1952084 | 686 | 197 | 171 | 136
#4:1952134 | 686 | 200 | 168 | 136
#4:1952185 | 686 | 203 | 171 | 135
#4:1952237 | 686 | 206 | 173 | 136
#4:1952287 | 686 | 209 | 167 | 136
#4:1952339 | 686 | 212 | 168 | 136
#4:1952390 | 686 | 215 | 166 | 136
#4:1952441 | 686 | 218 | 174 | 135
#4:1952492 | 686 | 221 | 172 | 136
#4:1952542 | 685 | 224 | 166 | 135
#4:1952594 | 686 | 227 | 172 | 136
#4:1952645 | 686 | 230 | 171 | 136
#4:1952695 | 687 | 233 | 167 | 136
#4:1952747 | 687 | 236 | 172 | 136
#4:1952798 | 686 | 239 | 166 | 136
#4:1952832 | 686 | 241 | 166 | 136
#4:1952884 | 686 | 244 | 172 | 136
#4:1952935 | 687 | 247 | 166 | 136
#4:1952986 | 688 | 250 | 177 | 137
#4:1953038 | 687 | 253 | 173 | 136
#4:1953088 | 687 | 0 | 165 | 136
#4:1953140 | 686 | 3 | 170 | 136
#4:1953192 | 686 | 6 | 172 | 136
#4:1953241 | 686 | 9 | 167 | 136
#4:1953293 | 686 | 12 | 170 | 136
#4:1953345 | 686 | 15 | 165 | 136
#4:1953395 | 686 | 18 | 174 | 136
#4:1953447 | 686 | 21 | 172 | 135
> !daq stop
#4:1953497 | 686 | 24 | 166 | 136
:stopped

> !drv f -100
:F -100
