> !globalvar g_carbasicfcts_cruiseTS 50
:50
> !globalvar g_carbasicfcts_cruiseKP 200
:200
> !globalvar g_carbasicfcts_cruiseKI 5
:5
> !daq grp 4 ~all _tics cruise_drvval hall_cnt hall_dt hall_dt8
:ok

> !daq start
:started

> !drv c 1000
:C 1000
#4:1751972 | 602 | 215 | 44482 | 4890
#4:1752022 | 676 | 216 | 717 | 4914
#4:1752072 | 614 | 217 | 451 | 4912
#4:1752122 | 572 | 218 | 392 | 4902
#4:1752172 | 556 | 219 | 346 | 4885
#4:1752208 | 526 | 220 | 320 | 4856
#4:1752269 | 515 | 222 | 299 | 4731
#4:1752297 | 555 | 223 | 282 | 311
#4:1752351 | 521 | 225 | 266 | 248
#4:1752404 | 506 | 227 | 262 | 227
#4:1752456 | 498 | 229 | 258 | 217
#4:1752507 | 491 | 231 | 251 | 210
#4:1752556 | 487 | 233 | 242 | 205
#4:1752606 | 485 | 235 | 251 | 202
#4:1752657 | 483 | 237 | 252 | 200
#4:1752707 | 482 | 239 | 249 | 200
#4:1752755 | 482 | 241 | 241 | 199
#4:1752806 | 481 | 243 | 247 | 199
#4:1752855 | 481 | 245 | 249 | 198
#4:1752905 | 480 | 247 | 247 | 198
#4:1752953 | 480 | 249 | 241 | 197
#4:1753003 | 480 | 251 | 249 | 198
#4:1753054 | 481 | 253 | 252 | 198
#4:1753103 | 481 | 255 | 247 | 198
#4:1753152 | 481 | 1 | 242 | 198
#4:1753202 | 481 | 3 | 250 | 198
#4:1753252 | 480 | 5 | 247 | 198
#4:1753302 | 480 | 7 | 246 | 198
#4:1753350 | 480 | 9 | 241 | 197
#4:1753400 | 480 | 11 | 248 | 197
#4:1753449 | 480 | 13 | 251 | 197
#4:1753499 | 480 | 15 | 245 | 197
#4:1753572 | 480 | 18 | 249 | 197
#4:1753621 | 479 | 20 | 245 | 197
#4:1753671 | 479 | 22 | 249 | 196
#4:1753719 | 479 | 24 | 237 | 196
#4:1753768 | 478 | 26 | 248 | 195
#4:1753817 | 478 | 28 | 244 | 195
#4:1753867 | 478 | 30 | 251 | 195
#4:1753915 | 478 | 32 | 237 | 195
#4:1753964 | 477 | 34 | 249 | 196
#4:1754013 | 477 | 36 | 246 | 196
#4:1754063 | 478 | 38 | 250 | 196
#4:1754112 | 478 | 40 | 237 | 196
#4:1754160 | 477 | 42 | 249 | 196
#4:1754209 | 477 | 44 | 244 | 195
#4:1754259 | 476 | 46 | 249 | 195
#4:1754307 | 476 | 48 | 233 | 194
#4:1754355 | 475 | 50 | 245 | 194
#4:1754403 | 474 | 52 | 238 | 193
#4:1754452 | 474 | 54 | 245 | 192
#4:1754522 | 473 | 57 | 232 | 191
#4:1754571 | 473 | 59 | 241 | 191
#4:1754619 | 472 | 61 | 242 | 191
#4:1754667 | 472 | 63 | 236 | 190
#4:1754712 | 471 | 65 | 230 | 190
#4:1754760 | 470 | 67 | 237 | 189
#4:1754808 | 470 | 69 | 244 | 189
#4:1754856 | 470 | 71 | 236 | 189
#4:1754903 | 471 | 73 | 234 | 190
#4:1754952 | 472 | 75 | 241 | 191
#4:1755001 | 473 | 77 | 248 | 192
#4:1755072 | 473 | 80 | 237 | 192
#4:1755121 | 474 | 82 | 247 | 193
#4:1755170 | 475 | 84 | 243 | 194
#4:1755219 | 475 | 86 | 241 | 193
#4:1755267 | 475 | 88 | 237 | 194
#4:1755315 | 475 | 90 | 249 | 194
#4:1755364 | 475 | 92 | 243 | 194
#4:1755413 | 475 | 94 | 240 | 193
#4:1755461 | 475 | 96 | 237 | 194
#4:1755509 | 475 | 98 | 250 | 194
#4:1755558 | 475 | 100 | 244 | 194
#4:1755607 | 476 | 102 | 244 | 194
#4:1755656 | 476 | 104 | 240 | 195
#4:1755705 | 476 | 106 | 251 | 195
#4:1755754 | 477 | 108 | 247 | 195
#4:1755804 | 477 | 110 | 247 | 196
#4:1755852 | 478 | 112 | 241 | 196
#4:1755901 | 478 | 114 | 252 | 196
#4:1755951 | 478 | 116 | 245 | 196
#4:1756000 | 478 | 118 | 246 | 196
#4:1756072 | 477 | 121 | 236 | 195
#4:1756122 | 477 | 123 | 246 | 195
#4:1756171 | 476 | 125 | 246 | 195
#4:1756219 | 476 | 127 | 240 | 195
#4:1756267 | 476 | 129 | 236 | 194
#4:1756317 | 476 | 131 | 246 | 195
#4:1756366 | 476 | 133 | 248 | 195
#4:1756415 | 477 | 135 | 241 | 195
#4:1756463 | 477 | 137 | 237 | 195
#4:1756513 | 477 | 139 | 248 | 196
#4:1756562 | 477 | 141 | 247 | 196
#4:1756611 | 477 | 143 | 241 | 196
#4:1756659 | 477 | 145 | 238 | 196
#4:1756709 | 478 | 147 | 248 | 196
#4:1756759 | 478 | 149 | 250 | 196
#4:1756808 | 478 | 151 | 241 | 196
#4:1756856 | 478 | 153 | 240 | 196
#4:1756906 | 478 | 155 | 246 | 196
#4:1756956 | 478 | 157 | 251 | 197
#4:1757005 | 478 | 159 | 242 | 197
#4:1757053 | 478 | 161 | 240 | 197
#4:1757104 | 479 | 163 | 249 | 197
#4:1757154 | 479 | 165 | 253 | 197
#4:1757203 | 479 | 167 | 240 | 197
#4:1757251 | 479 | 169 | 240 | 197
#4:1757301 | 479 | 171 | 250 | 197
#4:1757351 | 479 | 173 | 250 | 197
#4:1757400 | 478 | 175 | 240 | 196
#4:1757448 | 478 | 177 | 240 | 196
#4:1757522 | 478 | 180 | 246 | 196
#4:1757572 | 477 | 182 | 244 | 196
#4:1757620 | 477 | 184 | 238 | 196
#4:1757669 | 477 | 186 | 253 | 195
#4:1757718 | 477 | 188 | 246 | 195
#4:1757768 | 477 | 190 | 248 | 196
#4:1757816 | 478 | 192 | 240 | 196
#4:1757866 | 478 | 194 | 255 | 196
#4:1757915 | 478 | 196 | 247 | 196
#4:1757965 | 479 | 198 | 251 | 197
#4:1758013 | 479 | 200 | 241 | 197
#4:1758063 | 479 | 202 | 257 | 197
#4:1758113 | 479 | 204 | 248 | 197
#4:1758163 | 479 | 206 | 247 | 197
#4:1758211 | 479 | 208 | 240 | 197
#4:1758261 | 479 | 210 | 257 | 197
#4:1758311 | 479 | 212 | 247 | 197
#4:1758361 | 479 | 214 | 247 | 197
#4:1758409 | 479 | 216 | 241 | 197
#4:1758459 | 479 | 218 | 257 | 197
#4:1758509 | 479 | 220 | 249 | 197
#4:1758559 | 480 | 222 | 249 | 198
#4:1758608 | 480 | 224 | 244 | 198
#4:1758658 | 480 | 226 | 259 | 199
#4:1758708 | 481 | 228 | 250 | 199
#4:1758759 | 481 | 230 | 251 | 199
#4:1758807 | 481 | 232 | 243 | 199
#4:1758858 | 481 | 234 | 259 | 199
#4:1758908 | 481 | 236 | 250 | 200
#4:1758959 | 481 | 238 | 252 | 200
#4:1759007 | 481 | 240 | 241 | 199
#4:1759057 | 481 | 242 | 258 | 199
#4:1759108 | 481 | 244 | 251 | 199
#4:1759159 | 481 | 246 | 251 | 199
#4:1759207 | 481 | 248 | 241 | 200
#4:1759258 | 482 | 250 | 260 | 200
#4:1759308 | 482 | 252 | 250 | 200
#4:1759359 | 482 | 254 | 250 | 200
#4:1759407 | 481 | 0 | 239 | 199
#4:1759457 | 480 | 2 | 257 | 199
#4:1759507 | 480 | 4 | 245 | 198
#4:1759557 | 479 | 6 | 248 | 197
#4:1759604 | 478 | 8 | 234 | 196
#4:1759653 | 478 | 10 | 252 | 196
#4:1759703 | 477 | 12 | 244 | 195
#4:1759752 | 476 | 14 | 244 | 194
#4:1759822 | 476 | 17 | 238 | 194
#4:1759872 | 475 | 19 | 246 | 194
#4:1759921 | 475 | 21 | 243 | 193
#4:1759969 | 474 | 23 | 233 | 193
#4:1760016 | 474 | 25 | 236 | 193
#4:1760065 | 474 | 27 | 245 | 193
#4:1760114 | 474 | 29 | 245 | 193
#4:1760162 | 474 | 31 | 233 | 192
#4:1760209 | 474 | 33 | 239 | 193
#4:1760259 | 475 | 35 | 249 | 193
#4:1760309 | 475 | 37 | 246 | 194
#4:1760357 | 476 | 39 | 236 | 195
#4:1760405 | 477 | 41 | 241 | 195
#4:1760456 | 478 | 43 | 251 | 196
#4:1760505 | 478 | 45 | 248 | 196
#4:1760554 | 478 | 47 | 238 | 196
#4:1760602 | 478 | 49 | 242 | 197
#4:1760653 | 478 | 51 | 251 | 196
#4:1760702 | 478 | 53 | 248 | 197
#4:1760751 | 479 | 55 | 239 | 197
#4:1760799 | 479 | 57 | 241 | 197
#4:1760850 | 479 | 59 | 253 | 197
#4:1760900 | 479 | 61 | 250 | 197
#4:1760949 | 479 | 63 | 240 | 197
#4:1760997 | 479 | 65 | 242 | 197
#4:1761072 | 478 | 68 | 246 | 197
#4:1761122 | 478 | 70 | 246 | 197
#4:1761170 | 478 | 72 | 236 | 196
#4:1761219 | 478 | 74 | 254 | 196
#4:1761269 | 478 | 76 | 244 | 196
#4:1761318 | 478 | 78 | 246 | 196
#4:1761366 | 477 | 80 | 236 | 195
#4:1761415 | 477 | 82 | 256 | 195
#4:1761465 | 477 | 84 | 246 | 196
#4:1761515 | 477 | 86 | 246 | 196
#4:1761562 | 478 | 88 | 238 | 196
#4:1761612 | 478 | 90 | 255 | 196
#4:1761661 | 478 | 92 | 244 | 196
#4:1761711 | 477 | 94 | 245 | 196
#4:1761758 | 477 | 96 | 237 | 195
#4:1761807 | 477 | 98 | 252 | 195
> !daq stop
#4:1761857 | 476 | 100 | 245 | 195
:stopped

> !drv f -100
:F -100
