> !globalvar g_carbasicfcts_cruiseTS 50
:50
> !globalvar g_carbasicfcts_cruiseKP 100
:100
> !globalvar g_carbasicfcts_cruiseKI 10
:10
> !daq grp 4 ~all _tics cruise_drvval hall_cnt hall_dt hall_dt8
:ok

> !daq start
:started

> !drv c 1500
:C 1500
#4:1458277 | 794 | 163 | 38847 | 4381
#4:1458327 | 829 | 164 | 593 | 4400
#4:1458377 | 791 | 165 | 401 | 4395
#4:1458417 | 761 | 166 | 347 | 4380
#4:1458472 | 738 | 168 | 263 | 4316
#4:1458522 | 733 | 170 | 252 | 4124
#4:1458568 | 745 | 172 | 225 | 226
#4:1458611 | 731 | 174 | 213 | 194
#4:1458671 | 718 | 177 | 195 | 173
#4:1458711 | 712 | 179 | 196 | 164
#4:1458767 | 704 | 182 | 184 | 155
#4:1458820 | 699 | 185 | 174 | 149
#4:1458875 | 695 | 188 | 177 | 145
#4:1458911 | 693 | 190 | 176 | 143
#4:1458962 | 691 | 193 | 171 | 141
#4:1459015 | 690 | 196 | 174 | 140
#4:1459066 | 688 | 199 | 166 | 138
#4:1459117 | 687 | 202 | 177 | 137
#4:1459169 | 686 | 205 | 172 | 136
#4:1459219 | 686 | 208 | 165 | 136
#4:1459271 | 686 | 211 | 174 | 135
#4:1459323 | 686 | 214 | 171 | 136
#4:1459372 | 686 | 217 | 167 | 136
#4:1459425 | 686 | 220 | 171 | 136
#4:1459476 | 686 | 223 | 163 | 136
#4:1459526 | 686 | 226 | 177 | 136
#4:1459561 | 686 | 228 | 170 | 136
#4:1459612 | 686 | 231 | 163 | 136
#4:1459663 | 686 | 234 | 176 | 136
#4:1459714 | 686 | 237 | 173 | 136
#4:1459764 | 686 | 240 | 164 | 136
#4:1459816 | 686 | 243 | 174 | 135
#4:1459867 | 686 | 246 | 169 | 135
#4:1459916 | 686 | 249 | 164 | 135
#4:1459968 | 686 | 252 | 171 | 135
#4:1460019 | 686 | 255 | 164 | 135
#4:1460070 | 686 | 2 | 176 | 135
#4:1460121 | 686 | 5 | 171 | 135
#4:1460171 | 686 | 8 | 164 | 135
#4:1460222 | 685 | 11 | 171 | 135
#4:1460273 | 685 | 14 | 168 | 134
#4:1460322 | 685 | 17 | 162 | 134
#4:1460374 | 685 | 20 | 170 | 134
#4:1460424 | 685 | 23 | 161 | 134
#4:1460474 | 684 | 26 | 174 | 134
#4:1460525 | 685 | 29 | 171 | 134
#4:1460574 | 685 | 32 | 161 | 134
#4:1460625 | 685 | 35 | 171 | 134
#4:1460676 | 684 | 38 | 168 | 134
#4:1460725 | 685 | 41 | 163 | 134
#4:1460777 | 684 | 44 | 171 | 134
#4:1460827 | 685 | 47 | 160 | 134
#4:1460877 | 685 | 50 | 176 | 134
#4:1460912 | 685 | 52 | 172 | 134
#4:1460962 | 686 | 55 | 163 | 135
#4:1461013 | 686 | 58 | 176 | 135
#4:1461065 | 686 | 61 | 173 | 135
#4:1461114 | 686 | 64 | 163 | 135
#4:1461166 | 686 | 67 | 174 | 136
#4:1461218 | 686 | 70 | 170 | 136
#4:1461268 | 686 | 73 | 166 | 136
#4:1461320 | 686 | 76 | 172 | 136
#4:1461371 | 686 | 79 | 162 | 136
#4:1461421 | 686 | 82 | 176 | 135
#4:1461473 | 686 | 85 | 171 | 135
#4:1461523 | 686 | 88 | 164 | 135
#4:1461574 | 686 | 91 | 172 | 135
#4:1461626 | 686 | 94 | 172 | 135
#4:1461676 | 686 | 97 | 166 | 136
#4:1461711 | 686 | 99 | 174 | 136
#4:1461762 | 686 | 102 | 171 | 136
#4:1461812 | 686 | 105 | 165 | 136
#4:1461864 | 686 | 108 | 172 | 136
#4:1461915 | 686 | 111 | 164 | 136
#4:1461965 | 686 | 114 | 176 | 135
#4:1462017 | 686 | 117 | 171 | 135
#4:1462066 | 685 | 120 | 161 | 135
#4:1462117 | 685 | 123 | 173 | 135
#4:1462169 | 686 | 126 | 169 | 135
#4:1462218 | 686 | 129 | 164 | 135
#4:1462271 | 686 | 132 | 173 | 135
#4:1462321 | 686 | 135 | 163 | 136
#4:1462372 | 686 | 138 | 178 | 136
#4:1462425 | 687 | 141 | 175 | 136
#4:1462475 | 687 | 144 | 165 | 137
#4:1462527 | 687 | 147 | 176 | 137
#4:1462563 | 687 | 149 | 176 | 137
#4:1462613 | 687 | 152 | 164 | 137
#4:1462665 | 687 | 155 | 177 | 137
#4:1462717 | 687 | 158 | 172 | 137
#4:1462766 | 687 | 161 | 165 | 137
#4:1462819 | 686 | 164 | 175 | 136
#4:1462870 | 686 | 167 | 164 | 136
#4:1462921 | 687 | 170 | 178 | 137
#4:1462974 | 687 | 173 | 175 | 137
#4:1463024 | 687 | 176 | 161 | 137
#4:1463076 | 687 | 179 | 175 | 137
#4:1463111 | 687 | 181 | 175 | 137
#4:1463162 | 687 | 184 | 164 | 137
#4:1463213 | 686 | 187 | 173 | 136
#4:1463265 | 686 | 190 | 174 | 136
#4:1463315 | 686 | 193 | 165 | 136
#4:1463368 | 687 | 196 | 174 | 137
#4:1463419 | 687 | 199 | 166 | 137
#4:1463470 | 687 | 202 | 178 | 137
#4:1463523 | 687 | 205 | 176 | 137
#4:1463573 | 687 | 208 | 163 | 137
#4:1463625 | 687 | 211 | 177 | 137
#4:1463677 | 687 | 214 | 172 | 137
#4:1463727 | 687 | 217 | 165 | 137
#4:1463763 | 687 | 219 | 177 | 137
#4:1463815 | 687 | 222 | 171 | 137
#4:1463864 | 687 | 225 | 165 | 137
#4:1463917 | 687 | 228 | 176 | 137
#4:1463969 | 687 | 231 | 166 | 137
#4:1464020 | 688 | 234 | 179 | 137
#4:1464073 | 688 | 237 | 176 | 137
#4:1464123 | 687 | 240 | 162 | 137
#4:1464175 | 687 | 243 | 175 | 137
#4:1464227 | 686 | 246 | 171 | 136
#4:1464276 | 686 | 249 | 164 | 136
#4:1464311 | 686 | 251 | 175 | 136
#4:1464363 | 686 | 254 | 171 | 136
#4:1464412 | 686 | 1 | 162 | 135
#4:1464463 | 685 | 4 | 172 | 135
#4:1464514 | 685 | 7 | 161 | 134
#4:1464563 | 685 | 10 | 171 | 134
#4:1464615 | 685 | 13 | 174 | 134
#4:1464665 | 685 | 16 | 160 | 134
#4:1464715 | 685 | 19 | 172 | 134
#4:1464767 | 685 | 22 | 171 | 134
#4:1464816 | 686 | 25 | 162 | 135
#4:1464869 | 686 | 28 | 175 | 135
#4:1464920 | 686 | 31 | 165 | 136
#4:1464970 | 686 | 34 | 176 | 136
#4:1465023 | 686 | 37 | 176 | 136
#4:1465073 | 686 | 40 | 162 | 136
#4:1465125 | 686 | 43 | 174 | 136
#4:1465177 | 686 | 46 | 173 | 136
#4:1465227 | 687 | 49 | 167 | 137
#4:1465262 | 688 | 51 | 176 | 137
#4:1465316 | 688 | 54 | 174 | 138
#4:1465365 | 688 | 57 | 165 | 138
#4:1465418 | 687 | 60 | 175 | 137
#4:1465469 | 686 | 63 | 163 | 136
#4:1465519 | 686 | 66 | 175 | 135
#4:1465571 | 686 | 69 | 174 | 135
#4:1465620 | 685 | 72 | 161 | 135
#4:1465671 | 685 | 75 | 172 | 135
#4:1465723 | 686 | 78 | 171 | 135
#4:1465772 | 686 | 81 | 163 | 135
#4:1465824 | 686 | 84 | 176 | 135
#4:1465876 | 686 | 87 | 163 | 136
#4:1465925 | 686 | 90 | 172 | 135
#4:1465960 | 686 | 92 | 176 | 135
#4:1466027 | 686 | 96 | 162 | 135
#4:1466061 | 686 | 98 | 175 | 135
#4:1466114 | 686 | 101 | 176 | 136
#4:1466164 | 686 | 104 | 163 | 136
#4:1466216 | 687 | 107 | 174 | 137
#4:1466269 | 687 | 110 | 174 | 137
#4:1466318 | 687 | 113 | 164 | 137
#4:1466371 | 687 | 116 | 176 | 137
#4:1466422 | 687 | 119 | 165 | 137
#4:1466473 | 687 | 122 | 175 | 137
#4:1466525 | 686 | 125 | 176 | 136
#4:1466575 | 686 | 128 | 162 | 136
#4:1466626 | 686 | 131 | 172 | 136
#4:1466662 | 686 | 133 | 175 | 136
#4:1466727 | 686 | 137 | 161 | 135
#4:1466762 | 686 | 139 | 171 | 135
#4:1466814 | 686 | 142 | 170 | 135
#4:1466863 | 686 | 145 | 163 | 135
#4:1466915 | 686 | 148 | 175 | 135
#4:1466966 | 686 | 151 | 160 | 135
#4:1467016 | 686 | 154 | 172 | 135
#4:1467068 | 686 | 157 | 175 | 135
#4:1467117 | 685 | 160 | 162 | 135
#4:1467168 | 685 | 163 | 169 | 135
#4:1467220 | 686 | 166 | 172 | 135
#4:1467269 | 686 | 169 | 164 | 135
#4:1467321 | 686 | 172 | 174 | 135
#4:1467372 | 686 | 175 | 162 | 135
#4:1467422 | 686 | 178 | 172 | 135
#4:1467475 | 686 | 181 | 178 | 136
#4:1467525 | 686 | 184 | 162 | 136
#4:1467576 | 686 | 187 | 174 | 136
#4:1467612 | 686 | 189 | 177 | 136
#4:1467662 | 686 | 192 | 162 | 136
#4:1467713 | 686 | 195 | 173 | 136
#4:1467766 | 686 | 198 | 174 | 136
#4:1467814 | 686 | 201 | 163 | 136
#4:1467866 | 686 | 204 | 173 | 135
#4:1467918 | 686 | 207 | 163 | 135
#4:1467967 | 686 | 210 | 173 | 135
#4:1468020 | 686 | 213 | 175 | 135
#4:1468070 | 686 | 216 | 162 | 135
#4:1468121 | 686 | 219 | 172 | 136
> !daq stop
#4:1468173 | 686 | 222 | 174 | 136
:stopped

> !drv f -100
:F -100
