> !globalvar g_carbasicfcts_cruiseTS 50
:50
> !globalvar g_carbasicfcts_cruiseKP 500
:500
> !globalvar g_carbasicfcts_cruiseKI 0
:0
> !daq grp 4 ~all _tics cruise_drvval hall_cnt hall_dt hall_dt8
:ok

> !daq start
:started

> !drv c 1000
:C 1000
#4:2063978 | 768 | 251 | 44960 | 4915
#4:2064028 | 964 | 252 | 531 | 4917
#4:2064078 | 745 | 253 | 503 | 4915
#4:2064128 | 732 | 254 | 402 | 4905
#4:2064178 | 668 | 255 | 339 | 4887
#4:2064213 | 563 | 0 | 302 | 4861
#4:2064268 | 521 | 2 | 275 | 4759
#4:2064321 | 597 | 4 | 260 | 263
#4:2064372 | 529 | 6 | 253 | 223
#4:2064420 | 493 | 8 | 239 | 207
#4:2064469 | 475 | 10 | 246 | 200
#4:2064517 | 464 | 12 | 241 | 195
#4:2064566 | 457 | 14 | 241 | 193
#4:2064613 | 457 | 16 | 241 | 193
#4:2064663 | 459 | 18 | 251 | 193
#4:2064712 | 463 | 20 | 249 | 195
#4:2064763 | 469 | 22 | 252 | 197
#4:2064813 | 473 | 24 | 248 | 199
#4:2064863 | 477 | 26 | 261 | 200
#4:2064915 | 480 | 28 | 254 | 202
#4:2064966 | 482 | 30 | 256 | 202
#4:2065016 | 482 | 32 | 249 | 202
#4:2065066 | 481 | 34 | 259 | 202
#4:2065117 | 481 | 36 | 254 | 202
#4:2065168 | 480 | 38 | 253 | 201
#4:2065217 | 479 | 40 | 248 | 201
#4:2065268 | 479 | 42 | 259 | 201
#4:2065318 | 478 | 44 | 251 | 201
#4:2065369 | 478 | 46 | 251 | 201
#4:2065418 | 477 | 48 | 246 | 200
#4:2065468 | 477 | 50 | 258 | 200
#4:2065519 | 477 | 52 | 251 | 200
#4:2065569 | 474 | 54 | 247 | 199
#4:2065618 | 474 | 56 | 243 | 199
#4:2065668 | 473 | 58 | 256 | 199
#4:2065717 | 472 | 60 | 249 | 198
#4:2065768 | 473 | 62 | 250 | 199
#4:2065817 | 472 | 64 | 241 | 198
#4:2065867 | 473 | 66 | 258 | 199
#4:2065917 | 474 | 68 | 252 | 199
#4:2065968 | 476 | 70 | 253 | 200
#4:2066017 | 477 | 72 | 246 | 200
#4:2066068 | 477 | 74 | 258 | 200
#4:2066118 | 476 | 76 | 251 | 200
#4:2066169 | 476 | 78 | 253 | 200
#4:2066217 | 474 | 80 | 243 | 199
#4:2066267 | 474 | 82 | 257 | 199
#4:2066317 | 473 | 84 | 249 | 199
#4:2066367 | 471 | 86 | 251 | 198
#4:2066416 | 471 | 88 | 244 | 198
#4:2066466 | 473 | 90 | 260 | 199
#4:2066517 | 475 | 92 | 251 | 199
#4:2066568 | 477 | 94 | 252 | 200
#4:2066618 | 480 | 96 | 247 | 201
#4:2066669 | 481 | 98 | 263 | 202
#4:2066719 | 481 | 100 | 251 | 202
#4:2066770 | 481 | 102 | 253 | 202
#4:2066820 | 480 | 104 | 247 | 202
#4:2066870 | 479 | 106 | 260 | 201
#4:2066922 | 481 | 108 | 254 | 202
#4:2066972 | 480 | 110 | 251 | 202
#4:2067021 | 479 | 112 | 242 | 201
#4:2067072 | 479 | 114 | 260 | 201
#4:2067122 | 477 | 116 | 249 | 200
#4:2067173 | 477 | 118 | 252 | 200
#4:2067222 | 476 | 120 | 243 | 200
#4:2067272 | 476 | 122 | 261 | 200
#4:2067323 | 476 | 124 | 250 | 200
#4:2067374 | 477 | 126 | 255 | 200
#4:2067422 | 476 | 128 | 241 | 200
#4:2067473 | 477 | 130 | 261 | 200
#4:2067524 | 478 | 132 | 251 | 201
#4:2067574 | 476 | 134 | 250 | 200
#4:2067622 | 476 | 136 | 240 | 200
#4:2067673 | 473 | 138 | 256 | 199
#4:2067723 | 472 | 140 | 247 | 198
#4:2067772 | 470 | 142 | 246 | 197
#4:2067820 | 469 | 144 | 239 | 197
#4:2067870 | 467 | 146 | 255 | 197
#4:2067920 | 467 | 148 | 248 | 196
#4:2067969 | 468 | 150 | 248 | 197
#4:2068018 | 469 | 152 | 243 | 197
#4:2068068 | 471 | 154 | 258 | 198
#4:2068119 | 473 | 156 | 252 | 199
#4:2068170 | 476 | 158 | 253 | 200
#4:2068218 | 477 | 160 | 243 | 200
#4:2068269 | 476 | 162 | 257 | 200
#4:2068319 | 475 | 164 | 250 | 200
#4:2068369 | 473 | 166 | 250 | 199
#4:2068417 | 473 | 168 | 241 | 199
#4:2068467 | 472 | 170 | 255 | 198
#4:2068518 | 472 | 172 | 249 | 198
#4:2068568 | 472 | 174 | 252 | 198
#4:2068617 | 473 | 176 | 242 | 199
#4:2068667 | 473 | 178 | 256 | 199
#4:2068717 | 472 | 180 | 249 | 198
#4:2068767 | 471 | 182 | 250 | 198
#4:2068815 | 471 | 184 | 241 | 198
#4:2068865 | 471 | 186 | 255 | 198
#4:2068915 | 472 | 188 | 250 | 198
#4:2068966 | 474 | 190 | 253 | 199
#4:2069015 | 475 | 192 | 243 | 199
#4:2069065 | 476 | 194 | 259 | 200
#4:2069116 | 477 | 196 | 253 | 200
#4:2069167 | 477 | 198 | 252 | 200
#4:2069215 | 476 | 200 | 246 | 200
#4:2069266 | 476 | 202 | 259 | 200
#4:2069317 | 476 | 204 | 251 | 200
#4:2069367 | 475 | 206 | 251 | 200
#4:2069415 | 474 | 208 | 239 | 199
#4:2069465 | 474 | 210 | 259 | 199
#4:2069516 | 473 | 212 | 249 | 199
#4:2069565 | 471 | 214 | 247 | 198
#4:2069613 | 471 | 216 | 239 | 198
#4:2069663 | 470 | 218 | 256 | 197
#4:2069713 | 470 | 220 | 248 | 198
#4:2069764 | 472 | 222 | 251 | 198
#4:2069813 | 473 | 224 | 243 | 199
#4:2069863 | 474 | 226 | 258 | 199
#4:2069914 | 475 | 228 | 250 | 200
#4:2069964 | 475 | 230 | 251 | 199
#4:2070012 | 473 | 232 | 240 | 199
#4:2070062 | 472 | 234 | 255 | 198
#4:2070112 | 471 | 236 | 248 | 198
#4:2070162 | 470 | 238 | 247 | 197
#4:2070210 | 470 | 240 | 239 | 197
#4:2070260 | 471 | 242 | 258 | 198
#4:2070311 | 473 | 244 | 253 | 199
#4:2070362 | 476 | 246 | 256 | 200
#4:2070411 | 479 | 248 | 245 | 201
#4:2070462 | 480 | 250 | 260 | 201
#4:2070513 | 479 | 252 | 252 | 201
#4:2070563 | 478 | 254 | 252 | 201
#4:2070612 | 476 | 0 | 241 | 200
#4:2070662 | 474 | 2 | 255 | 199
#4:2070712 | 473 | 4 | 249 | 199
#4:2070762 | 472 | 6 | 248 | 198
#4:2070810 | 470 | 8 | 238 | 198
#4:2070859 | 469 | 10 | 253 | 197
#4:2070910 | 468 | 12 | 250 | 197
#4:2070960 | 469 | 14 | 249 | 197
#4:2071009 | 471 | 16 | 244 | 198
#4:2071059 | 475 | 18 | 260 | 199
#4:2071110 | 477 | 20 | 254 | 200
#4:2071162 | 479 | 22 | 254 | 201
#4:2071210 | 478 | 24 | 238 | 201
#4:2071260 | 478 | 26 | 259 | 201
#4:2071311 | 477 | 28 | 251 | 200
#4:2071361 | 474 | 30 | 250 | 199
#4:2071409 | 474 | 32 | 236 | 199
#4:2071459 | 472 | 34 | 257 | 198
#4:2071510 | 471 | 36 | 250 | 198
#4:2071560 | 470 | 38 | 248 | 198
#4:2071607 | 470 | 40 | 237 | 198
#4:2071658 | 472 | 42 | 262 | 198
#4:2071709 | 473 | 44 | 255 | 199
#4:2071760 | 475 | 46 | 249 | 200
#4:2071808 | 476 | 48 | 237 | 200
#4:2071858 | 476 | 50 | 260 | 200
#4:2071909 | 476 | 52 | 255 | 200
#4:2071960 | 475 | 54 | 249 | 199
#4:2072008 | 475 | 56 | 238 | 199
#4:2072058 | 474 | 58 | 259 | 199
#4:2072109 | 473 | 60 | 252 | 199
#4:2072159 | 473 | 62 | 248 | 199
#4:2072206 | 472 | 64 | 236 | 198
#4:2072256 | 472 | 66 | 258 | 198
#4:2072307 | 471 | 68 | 251 | 198
#4:2072357 | 472 | 70 | 250 | 198
#4:2072405 | 472 | 72 | 237 | 198
#4:2072456 | 474 | 74 | 262 | 199
#4:2072507 | 476 | 76 | 255 | 200
#4:2072558 | 477 | 78 | 252 | 200
#4:2072607 | 479 | 80 | 240 | 201
#4:2072657 | 478 | 82 | 260 | 201
#4:2072709 | 479 | 84 | 258 | 201
#4:2072759 | 477 | 86 | 249 | 200
#4:2072807 | 477 | 88 | 238 | 200
#4:2072858 | 476 | 90 | 258 | 200
#4:2072909 | 474 | 92 | 253 | 199
#4:2072959 | 475 | 94 | 250 | 199
#4:2073007 | 473 | 96 | 236 | 199
#4:2073057 | 473 | 98 | 257 | 199
#4:2073107 | 472 | 100 | 251 | 198
#4:2073157 | 470 | 102 | 247 | 198
#4:2073205 | 470 | 104 | 235 | 198
#4:2073254 | 469 | 106 | 256 | 197
#4:2073305 | 470 | 108 | 253 | 198
#4:2073356 | 471 | 110 | 251 | 198
#4:2073428 | 473 | 113 | 244 | 199
#4:2073455 | 476 | 114 | 260 | 200
#4:2073507 | 478 | 116 | 258 | 201
#4:2073558 | 480 | 118 | 252 | 201
#4:2073606 | 479 | 120 | 240 | 201
#4:2073657 | 480 | 122 | 261 | 201
#4:2073708 | 478 | 124 | 254 | 201
#4:2073758 | 477 | 126 | 250 | 200
#4:2073806 | 475 | 128 | 238 | 200
#4:2073856 | 473 | 130 | 255 | 199
#4:2073906 | 471 | 132 | 252 | 198
> !daq stop
#4:2073956 | 469 | 134 | 244 | 197
:stopped

> !drv f -100
:F -100
