> !globalvar g_carbasicfcts_cruiseTS 50
:50
> !globalvar g_carbasicfcts_cruiseKP 500
:500
> !globalvar g_carbasicfcts_cruiseKI 50
:50
> !daq grp 4 ~all _tics cruise_drvval hall_cnt hall_dt hall_dt8
:ok

> !daq start
:started

> !drv c 1500
:C 1500
#4:2261942 | 1000 | 68 | 40476 | 4550
#4:2261992 | 1000 | 69 | 453 | 4556
#4:2262028 | 1000 | 70 | 326 | 4544
#4:2262088 | 996 | 72 | 282 | 4503
#4:2262137 | 924 | 74 | 243 | 4403
#4:2262181 | 1000 | 76 | 212 | 231
#4:2262240 | 883 | 79 | 181 | 180
#4:2262292 | 820 | 82 | 178 | 155
#4:2262327 | 749 | 84 | 169 | 145
#4:2262392 | 702 | 88 | 160 | 134
#4:2262440 | 671 | 91 | 161 | 130
#4:2262490 | 664 | 94 | 164 | 129
#4:2262538 | 665 | 97 | 159 | 130
#4:2262587 | 670 | 100 | 164 | 130
#4:2262638 | 678 | 103 | 164 | 132
#4:2262688 | 684 | 106 | 172 | 133
#4:2262739 | 690 | 109 | 171 | 134
#4:2262789 | 695 | 112 | 168 | 135
#4:2262840 | 696 | 115 | 170 | 135
#4:2262891 | 696 | 118 | 170 | 135
#4:2262941 | 693 | 121 | 163 | 134
#4:2262991 | 691 | 124 | 167 | 134
#4:2263042 | 689 | 127 | 162 | 133
#4:2263091 | 684 | 130 | 169 | 133
#4:2263141 | 682 | 133 | 169 | 133
#4:2263191 | 683 | 136 | 165 | 133
#4:2263242 | 685 | 139 | 169 | 133
#4:2263276 | 689 | 141 | 172 | 134
#4:2263342 | 693 | 145 | 164 | 135
#4:2263377 | 695 | 147 | 171 | 135
#4:2263428 | 696 | 150 | 172 | 135
#4:2263478 | 694 | 153 | 163 | 135
#4:2263529 | 692 | 156 | 167 | 134
#4:2263579 | 689 | 159 | 163 | 134
#4:2263629 | 687 | 162 | 170 | 133
#4:2263679 | 684 | 165 | 168 | 133
#4:2263729 | 682 | 168 | 164 | 133
#4:2263779 | 684 | 171 | 169 | 133
#4:2263830 | 688 | 174 | 171 | 134
#4:2263880 | 692 | 177 | 166 | 134
#4:2263931 | 695 | 180 | 170 | 135
#4:2263982 | 694 | 183 | 162 | 135
#4:2264032 | 693 | 186 | 173 | 135
#4:2264083 | 688 | 189 | 168 | 134
#4:2264132 | 686 | 192 | 162 | 133
#4:2264183 | 683 | 195 | 167 | 133
#4:2264233 | 685 | 198 | 169 | 133
#4:2264283 | 688 | 201 | 164 | 134
#4:2264335 | 692 | 204 | 171 | 134
#4:2264386 | 695 | 207 | 165 | 135
#4:2264436 | 694 | 210 | 174 | 135
#4:2264487 | 690 | 213 | 170 | 134
#4:2264536 | 686 | 216 | 162 | 134
#4:2264586 | 683 | 219 | 165 | 133
#4:2264636 | 679 | 222 | 167 | 132
#4:2264685 | 678 | 225 | 162 | 132
#4:2264736 | 678 | 228 | 167 | 132
#4:2264786 | 680 | 231 | 161 | 133
#4:2264836 | 682 | 234 | 174 | 133
#4:2264886 | 682 | 237 | 169 | 133
#4:2264935 | 683 | 240 | 162 | 133
#4:2264986 | 685 | 243 | 169 | 134
#4:2265037 | 687 | 246 | 170 | 134
#4:2265087 | 689 | 249 | 165 | 134
#4:2265139 | 693 | 252 | 172 | 135
#4:2265190 | 695 | 255 | 165 | 135
#4:2265240 | 693 | 2 | 175 | 135
#4:2265291 | 690 | 5 | 169 | 134
#4:2265340 | 686 | 8 | 162 | 134
#4:2265391 | 683 | 11 | 168 | 133
#4:2265441 | 682 | 14 | 168 | 133
#4:2265490 | 683 | 17 | 165 | 133
#4:2265542 | 686 | 20 | 172 | 134
#4:2265577 | 693 | 22 | 172 | 135
#4:2265626 | 696 | 25 | 166 | 136
#4:2265678 | 694 | 28 | 170 | 135
#4:2265729 | 692 | 31 | 164 | 135
#4:2265779 | 690 | 34 | 174 | 135
#4:2265830 | 689 | 37 | 172 | 135
#4:2265880 | 687 | 40 | 163 | 134
#4:2265930 | 684 | 43 | 167 | 134
#4:2265981 | 682 | 46 | 169 | 133
#4:2266030 | 681 | 49 | 164 | 133
#4:2266081 | 684 | 52 | 168 | 134
#4:2266131 | 684 | 55 | 162 | 134
#4:2266181 | 685 | 58 | 173 | 134
#4:2266232 | 687 | 61 | 170 | 134
#4:2266282 | 688 | 64 | 163 | 134
#4:2266333 | 691 | 67 | 172 | 135
#4:2266385 | 691 | 70 | 171 | 135
#4:2266434 | 687 | 73 | 164 | 134
#4:2266485 | 685 | 76 | 167 | 134
#4:2266535 | 685 | 79 | 163 | 134
#4:2266586 | 686 | 82 | 175 | 134
#4:2266637 | 690 | 85 | 171 | 135
#4:2266687 | 690 | 88 | 163 | 135
#4:2266738 | 687 | 91 | 171 | 134
#4:2266788 | 682 | 94 | 168 | 133
#4:2266837 | 679 | 97 | 162 | 133
#4:2266888 | 679 | 100 | 168 | 133
#4:2266938 | 682 | 103 | 161 | 133
#4:2266988 | 685 | 106 | 174 | 134
#4:2267040 | 689 | 109 | 172 | 135
#4:2267090 | 692 | 112 | 163 | 135
#4:2267141 | 692 | 115 | 173 | 135
#4:2267192 | 691 | 118 | 169 | 135
#4:2267241 | 686 | 121 | 164 | 134
#4:2267276 | 684 | 123 | 171 | 134
#4:2267342 | 681 | 127 | 162 | 133
#4:2267392 | 680 | 130 | 173 | 133
#4:2267426 | 680 | 132 | 168 | 133
#4:2267477 | 682 | 135 | 162 | 133
#4:2267527 | 683 | 138 | 172 | 134
#4:2267578 | 686 | 141 | 172 | 134
#4:2267628 | 689 | 144 | 164 | 135
#4:2267680 | 692 | 147 | 174 | 135
#4:2267731 | 691 | 150 | 169 | 135
#4:2267780 | 688 | 153 | 164 | 135
#4:2267831 | 684 | 156 | 168 | 134
#4:2267881 | 681 | 159 | 161 | 133
#4:2267931 | 680 | 162 | 173 | 133
#4:2267983 | 682 | 165 | 170 | 134
#4:2268033 | 687 | 168 | 164 | 135
#4:2268084 | 690 | 171 | 172 | 135
#4:2268136 | 691 | 174 | 170 | 135
#4:2268185 | 687 | 177 | 163 | 135
#4:2268236 | 685 | 180 | 169 | 134
#4:2268286 | 681 | 183 | 162 | 134
#4:2268336 | 682 | 186 | 175 | 134
#4:2268388 | 684 | 189 | 170 | 134
#4:2268437 | 687 | 192 | 163 | 135
#4:2268489 | 688 | 195 | 173 | 135
#4:2268540 | 690 | 198 | 170 | 135
#4:2268589 | 689 | 201 | 164 | 135
#4:2268641 | 687 | 204 | 170 | 135
#4:2268691 | 685 | 207 | 161 | 134
#4:2268741 | 683 | 210 | 175 | 134
#4:2268776 | 682 | 212 | 171 | 134
#4:2268842 | 683 | 216 | 162 | 134
#4:2268876 | 685 | 218 | 176 | 135
#4:2268928 | 687 | 221 | 171 | 135
#4:2268978 | 687 | 224 | 162 | 135
#4:2269029 | 686 | 227 | 171 | 135
#4:2269080 | 683 | 230 | 169 | 134
#4:2269128 | 680 | 233 | 161 | 134
#4:2269180 | 677 | 236 | 168 | 133
#4:2269229 | 675 | 239 | 160 | 133
#4:2269279 | 676 | 242 | 174 | 133
#4:2269330 | 675 | 245 | 168 | 133
#4:2269379 | 677 | 248 | 161 | 133
#4:2269430 | 677 | 251 | 170 | 133
#4:2269480 | 678 | 254 | 168 | 133
#4:2269529 | 677 | 1 | 161 | 133
#4:2269581 | 678 | 4 | 169 | 133
#4:2269631 | 680 | 7 | 162 | 134
#4:2269681 | 681 | 10 | 174 | 134
#4:2269733 | 684 | 13 | 173 | 134
#4:2269782 | 684 | 16 | 162 | 134
#4:2269833 | 685 | 19 | 174 | 135
#4:2269885 | 687 | 22 | 170 | 135
#4:2269934 | 689 | 25 | 165 | 135
#4:2269987 | 690 | 28 | 172 | 136
#4:2270037 | 689 | 31 | 161 | 135
#4:2270087 | 686 | 34 | 173 | 135
#4:2270139 | 682 | 37 | 170 | 134
#4:2270188 | 680 | 40 | 161 | 134
#4:2270238 | 677 | 43 | 171 | 133
#4:2270290 | 678 | 46 | 169 | 134
#4:2270338 | 679 | 49 | 162 | 134
#4:2270390 | 682 | 52 | 173 | 134
#4:2270441 | 686 | 55 | 164 | 135
#4:2270492 | 688 | 58 | 177 | 136
#4:2270526 | 689 | 60 | 173 | 136
#4:2270577 | 688 | 63 | 162 | 135
#4:2270627 | 685 | 66 | 174 | 135
#4:2270679 | 682 | 69 | 172 | 134
#4:2270728 | 682 | 72 | 163 | 134
#4:2270779 | 683 | 75 | 173 | 134
#4:2270831 | 685 | 78 | 172 | 135
#4:2270880 | 688 | 81 | 164 | 135
#4:2270933 | 691 | 84 | 175 | 136
#4:2270984 | 690 | 87 | 163 | 136
#4:2271034 | 688 | 90 | 173 | 135
#4:2271085 | 684 | 93 | 171 | 135
#4:2271134 | 679 | 96 | 161 | 134
#4:2271185 | 678 | 99 | 173 | 134
#4:2271237 | 680 | 102 | 170 | 134
#4:2271285 | 680 | 105 | 160 | 134
#4:2271337 | 683 | 108 | 173 | 135
#4:2271389 | 686 | 111 | 164 | 135
#4:2271439 | 688 | 114 | 175 | 136
#4:2271491 | 688 | 117 | 174 | 136
#4:2271541 | 688 | 120 | 161 | 135
#4:2271592 | 686 | 123 | 173 | 135
#4:2271626 | 682 | 125 | 172 | 134
#4:2271691 | 677 | 129 | 160 | 134
#4:2271726 | 677 | 131 | 173 | 134
#4:2271777 | 678 | 134 | 169 | 134
> !daq stop
#4:2271826 | 682 | 137 | 163 | 134
:stopped

> !drv f -100
:F -100
