> !globalvar g_carbasicfcts_cruiseTS 50
:50
> !globalvar g_carbasicfcts_cruiseKP 100
:100
> !globalvar g_carbasicfcts_cruiseKI 200
:200
> !daq grp 4 ~all _tics cruise_drvval hall_cnt hall_dt hall_dt8
:ok

> !daq start
:started

> !drv c 500
:C 500
#4:1605238 | 268 | 143 | 37412 | 4142
#4:1605338 | 319 | 144 | 1187 | 4223
#4:1605388 | 305 | 145 | 767 | 4259
#4:1605488 | 296 | 146 | 666 | 4279
#4:1605538 | 292 | 147 | 590 | 4287
#4:1605588 | 288 | 148 | 543 | 4283
#4:1605638 | 285 | 149 | 523 | 4264
#4:1605688 | 283 | 150 | 509 | 4220
#4:1605738 | 282 | 151 | 480 | 526
#4:1605788 | 294 | 152 | 493 | 457
#4:1605838 | 288 | 153 | 488 | 429
#4:1605888 | 286 | 154 | 512 | 414
#4:1605938 | 284 | 155 | 498 | 405
#4:1605988 | 283 | 156 | 488 | 399
#4:1606038 | 282 | 157 | 495 | 396
#4:1606088 | 282 | 158 | 491 | 394
#4:1606138 | 282 | 159 | 468 | 393
#4:1606188 | 282 | 160 | 481 | 392
#4:1606238 | 280 | 161 | 481 | 391
#4:1606288 | 280 | 162 | 514 | 391
#4:1606338 | 280 | 163 | 505 | 392
#4:1606388 | 280 | 164 | 494 | 393
#4:1606438 | 280 | 165 | 500 | 393
#4:1606488 | 280 | 166 | 495 | 394
#4:1606538 | 280 | 167 | 477 | 395
#4:1606588 | 280 | 168 | 482 | 395
#4:1606638 | 280 | 169 | 488 | 395
#4:1606688 | 279 | 170 | 517 | 396
#4:1606738 | 279 | 171 | 511 | 396
#4:1606788 | 279 | 172 | 500 | 397
#4:1606838 | 279 | 173 | 502 | 397
#4:1606888 | 279 | 174 | 498 | 397
#4:1606938 | 278 | 175 | 480 | 398
#4:1606988 | 278 | 176 | 484 | 398
#4:1607038 | 278 | 177 | 485 | 398
#4:1607088 | 278 | 178 | 517 | 398
#4:1607138 | 278 | 179 | 507 | 397
#4:1607188 | 277 | 180 | 497 | 397
#4:1607238 | 277 | 181 | 503 | 397
#4:1607288 | 277 | 182 | 495 | 397
#4:1607338 | 277 | 183 | 480 | 397
#4:1607388 | 277 | 184 | 483 | 397
#4:1607438 | 276 | 185 | 485 | 397
#4:1607488 | 276 | 186 | 516 | 397
#4:1607538 | 276 | 187 | 506 | 397
#4:1607588 | 276 | 188 | 490 | 396
#4:1607638 | 276 | 189 | 499 | 396
#4:1607688 | 275 | 190 | 494 | 395
#4:1607738 | 275 | 191 | 473 | 395
#4:1607788 | 275 | 192 | 480 | 394
#4:1607838 | 275 | 193 | 480 | 394
#4:1607888 | 275 | 194 | 512 | 393
#4:1607938 | 274 | 195 | 505 | 393
#4:1607988 | 274 | 196 | 490 | 393
#4:1608038 | 274 | 197 | 496 | 393
#4:1608088 | 274 | 198 | 488 | 392
#4:1608138 | 274 | 199 | 476 | 393
#4:1608186 | 273 | 200 | 479 | 393
#4:1608235 | 273 | 201 | 485 | 393
#4:1608286 | 273 | 202 | 514 | 393
#4:1608337 | 273 | 203 | 507 | 393
#4:1608387 | 273 | 204 | 499 | 394
#4:1608437 | 272 | 205 | 502 | 395
#4:1608487 | 272 | 206 | 497 | 396
#4:1608535 | 272 | 207 | 482 | 396
#4:1608583 | 272 | 208 | 478 | 396
#4:1608631 | 272 | 209 | 485 | 396
#4:1608683 | 271 | 210 | 517 | 397
#4:1608734 | 271 | 211 | 510 | 397
#4:1608784 | 271 | 212 | 498 | 397
#4:1608835 | 271 | 213 | 511 | 398
#4:1608885 | 271 | 214 | 498 | 398
#4:1608934 | 270 | 215 | 486 | 398
#4:1608982 | 270 | 216 | 479 | 398
#4:1609030 | 270 | 217 | 486 | 398
#4:1609082 | 270 | 218 | 515 | 398
#4:1609132 | 270 | 219 | 504 | 398
#4:1609182 | 269 | 220 | 499 | 398
#4:1609233 | 269 | 221 | 506 | 397
#4:1609283 | 269 | 222 | 498 | 397
#4:1609331 | 269 | 223 | 486 | 397
#4:1609378 | 269 | 224 | 468 | 396
#4:1609427 | 268 | 225 | 487 | 396
#4:1609479 | 268 | 226 | 521 | 397
#4:1609531 | 268 | 227 | 515 | 398
#4:1609581 | 268 | 228 | 502 | 398
#4:1609632 | 268 | 229 | 511 | 399
#4:1609683 | 267 | 230 | 507 | 399
#4:1609731 | 267 | 231 | 488 | 400
#4:1609779 | 267 | 232 | 470 | 400
#4:1609828 | 268 | 233 | 499 | 401
#4:1609882 | 268 | 234 | 532 | 402
#4:1609934 | 267 | 235 | 521 | 403
#4:1609985 | 267 | 236 | 514 | 404
#4:1610037 | 267 | 237 | 517 | 405
#4:1610088 | 267 | 238 | 511 | 405
#4:1610138 | 267 | 239 | 497 | 406
#4:1610186 | 266 | 240 | 476 | 407
#4:1610236 | 266 | 241 | 500 | 407
#4:1610288 | 266 | 242 | 536 | 407
#4:1610338 | 266 | 243 | 517 | 407
#4:1610388 | 266 | 244 | 517 | 407
#4:1610438 | 266 | 245 | 517 | 407
#4:1610488 | 265 | 246 | 506 | 406
#4:1610538 | 265 | 247 | 489 | 406
#4:1610588 | 265 | 248 | 479 | 406
#4:1610638 | 265 | 249 | 499 | 406
#4:1610688 | 265 | 250 | 532 | 406
#4:1610738 | 265 | 251 | 517 | 405
#4:1610788 | 265 | 252 | 514 | 405
#4:1610838 | 265 | 253 | 517 | 405
#4:1610888 | 265 | 254 | 506 | 405
#4:1610938 | 265 | 255 | 495 | 406
#4:1610988 | 265 | 0 | 478 | 406
#4:1611038 | 265 | 1 | 500 | 406
#4:1611088 | 265 | 2 | 533 | 406
#4:1611138 | 265 | 3 | 523 | 407
#4:1611188 | 265 | 4 | 512 | 406
#4:1611238 | 265 | 5 | 515 | 406
#4:1611288 | 265 | 6 | 509 | 406
#4:1611338 | 265 | 7 | 490 | 406
#4:1611388 | 265 | 8 | 474 | 405
#4:1611438 | 265 | 9 | 496 | 405
#4:1611488 | 265 | 10 | 527 | 404
#4:1611538 | 265 | 11 | 514 | 404
#4:1611588 | 265 | 12 | 504 | 403
#4:1611638 | 265 | 13 | 507 | 402
#4:1611688 | 265 | 14 | 495 | 401
#4:1611738 | 265 | 15 | 477 | 399
#4:1611788 | 264 | 16 | 462 | 398
#4:1611838 | 264 | 17 | 484 | 397
#4:1611888 | 264 | 18 | 513 | 395
#4:1611938 | 264 | 19 | 499 | 394
#4:1611988 | 264 | 20 | 492 | 393
#4:1612038 | 264 | 21 | 491 | 391
#4:1612088 | 263 | 22 | 482 | 390
#4:1612138 | 263 | 23 | 465 | 389
#4:1612188 | 263 | 24 | 453 | 388
#4:1612238 | 263 | 25 | 473 | 387
#4:1612288 | 262 | 26 | 504 | 386
#4:1612338 | 262 | 27 | 489 | 385
#4:1612387 | 261 | 28 | 488 | 384
#4:1612436 | 261 | 29 | 490 | 384
#4:1612484 | 261 | 30 | 480 | 384
#4:1612530 | 260 | 31 | 461 | 384
#4:1612575 | 260 | 32 | 451 | 383
#4:1612622 | 260 | 33 | 471 | 383
#4:1612672 | 260 | 34 | 499 | 383
#4:1612721 | 260 | 35 | 490 | 383
#4:1612770 | 259 | 36 | 487 | 383
#4:1612819 | 259 | 37 | 488 | 383
#4:1612867 | 259 | 38 | 483 | 383
#4:1612914 | 259 | 39 | 467 | 384
#4:1612960 | 259 | 40 | 460 | 385
#4:1613008 | 259 | 41 | 475 | 385
#4:1613059 | 259 | 42 | 509 | 386
#4:1613109 | 259 | 43 | 504 | 387
#4:1613159 | 259 | 44 | 496 | 388
#4:1613209 | 259 | 45 | 506 | 390
#4:1613259 | 258 | 46 | 496 | 391
#4:1613307 | 259 | 47 | 480 | 393
#4:1613355 | 259 | 48 | 477 | 394
#4:1613404 | 259 | 49 | 487 | 395
#4:1613456 | 259 | 50 | 521 | 397
#4:1613507 | 259 | 51 | 515 | 398
#4:1613558 | 259 | 52 | 509 | 399
#4:1613609 | 259 | 53 | 509 | 399
#4:1613659 | 259 | 54 | 500 | 400
#4:1613708 | 260 | 55 | 485 | 400
#4:1613754 | 259 | 56 | 466 | 399
#4:1613803 | 259 | 57 | 489 | 399
#4:1613856 | 259 | 58 | 521 | 399
#4:1613907 | 259 | 59 | 517 | 400
#4:1613958 | 259 | 60 | 508 | 399
#4:1614009 | 259 | 61 | 510 | 399
#4:1614059 | 259 | 62 | 497 | 399
#4:1614108 | 259 | 63 | 486 | 399
#4:1614154 | 259 | 64 | 468 | 399
#4:1614204 | 259 | 65 | 492 | 400
#4:1614256 | 259 | 66 | 519 | 400
#4:1614307 | 259 | 67 | 512 | 399
#4:1614358 | 259 | 68 | 511 | 399
#4:1614409 | 259 | 69 | 510 | 399
#4:1614459 | 259 | 70 | 498 | 400
#4:1614507 | 259 | 71 | 483 | 399
#4:1614554 | 259 | 72 | 467 | 399
#4:1614602 | 259 | 73 | 482 | 398
#4:1614654 | 259 | 74 | 521 | 398
#4:1614706 | 259 | 75 | 513 | 398
#4:1614756 | 259 | 76 | 504 | 398
#4:1614807 | 259 | 77 | 506 | 397
#4:1614857 | 259 | 78 | 498 | 397
#4:1614905 | 259 | 79 | 480 | 397
#4:1614951 | 259 | 80 | 467 | 397
#4:1614999 | 259 | 81 | 478 | 397
> !daq stop
#4:1615051 | 259 | 82 | 512 | 396
:stopped

> !drv f -100
:F -100
