> !globalvar g_carbasicfcts_cruiseTS 50
:50
> !globalvar g_carbasicfcts_cruiseKP 0
:0
> !globalvar g_carbasicfcts_cruiseKI 20
:20
> !daq grp 4 ~all _tics cruise_drvval hall_cnt hall_dt hall_dt8
:ok

> !daq start
:started

> !drv c 1500
:C 1500
#4:797196 | 684 | 238 | 39981 | 4384
#4:797296 | 686 | 239 | 805 | 4429
#4:797346 | 688 | 240 | 456 | 4437
#4:797396 | 689 | 241 | 358 | 4432
#4:797431 | 689 | 242 | 337 | 4415
#4:797490 | 690 | 244 | 285 | 4348
#4:797542 | 691 | 246 | 252 | 306
#4:797588 | 691 | 248 | 223 | 226
#4:797632 | 692 | 250 | 225 | 200
#4:797696 | 692 | 253 | 210 | 179
#4:797736 | 692 | 255 | 193 | 170
#4:797793 | 693 | 2 | 199 | 161
#4:797832 | 693 | 4 | 192 | 156
#4:797887 | 693 | 7 | 175 | 150
#4:797939 | 693 | 10 | 183 | 146
#4:797993 | 693 | 13 | 178 | 142
#4:798043 | 693 | 16 | 164 | 139
#4:798095 | 693 | 19 | 175 | 137
#4:798130 | 693 | 21 | 173 | 136
#4:798195 | 693 | 25 | 163 | 135
#4:798230 | 693 | 27 | 171 | 134
#4:798296 | 693 | 31 | 159 | 133
#4:798345 | 693 | 34 | 171 | 132
#4:798396 | 693 | 37 | 169 | 132
#4:798444 | 693 | 40 | 156 | 131
#4:798493 | 693 | 43 | 168 | 130
#4:798543 | 693 | 46 | 163 | 130
#4:798590 | 693 | 49 | 157 | 130
#4:798641 | 693 | 52 | 167 | 130
#4:798690 | 693 | 55 | 157 | 130
#4:798738 | 692 | 58 | 168 | 130
#4:798788 | 692 | 61 | 167 | 130
#4:798836 | 692 | 64 | 156 | 130
#4:798886 | 692 | 67 | 169 | 131
#4:798936 | 692 | 70 | 165 | 131
#4:798983 | 692 | 73 | 157 | 131
#4:799034 | 692 | 76 | 167 | 131
#4:799083 | 692 | 79 | 158 | 131
#4:799131 | 692 | 82 | 168 | 130
#4:799182 | 692 | 85 | 169 | 130
#4:799245 | 692 | 89 | 155 | 130
#4:799295 | 692 | 92 | 168 | 130
#4:799344 | 692 | 95 | 158 | 130
#4:799392 | 692 | 98 | 169 | 130
#4:799443 | 692 | 101 | 170 | 130
#4:799491 | 691 | 104 | 156 | 131
#4:799540 | 691 | 107 | 167 | 131
#4:799591 | 691 | 110 | 164 | 131
#4:799637 | 691 | 113 | 156 | 130
#4:799687 | 691 | 116 | 166 | 130
#4:799736 | 691 | 119 | 157 | 129
#4:799784 | 691 | 122 | 169 | 130
#4:799835 | 691 | 125 | 170 | 130
#4:799883 | 691 | 128 | 155 | 131
#4:799932 | 691 | 131 | 166 | 130
#4:799982 | 691 | 134 | 164 | 130
#4:800046 | 691 | 138 | 167 | 130
#4:800096 | 691 | 141 | 167 | 130
#4:800143 | 691 | 144 | 155 | 129
#4:800192 | 690 | 147 | 165 | 129
#4:800242 | 690 | 150 | 165 | 129
#4:800289 | 690 | 153 | 157 | 129
#4:800339 | 690 | 156 | 169 | 130
#4:800389 | 690 | 159 | 157 | 130
#4:800437 | 690 | 162 | 167 | 131
#4:800487 | 690 | 165 | 170 | 131
#4:800536 | 690 | 168 | 157 | 131
#4:800586 | 690 | 171 | 169 | 132
#4:800637 | 690 | 174 | 170 | 132
#4:800685 | 690 | 177 | 158 | 133
#4:800736 | 690 | 180 | 172 | 133
#4:800787 | 690 | 183 | 161 | 133
#4:800835 | 690 | 186 | 170 | 133
#4:800887 | 690 | 189 | 172 | 133
#4:800936 | 690 | 192 | 158 | 133
#4:800986 | 690 | 195 | 168 | 133
#4:801037 | 690 | 198 | 169 | 132
#4:801085 | 689 | 201 | 159 | 133
#4:801136 | 689 | 204 | 172 | 133
#4:801186 | 689 | 207 | 161 | 133
#4:801236 | 689 | 210 | 173 | 133
#4:801287 | 689 | 213 | 173 | 134
#4:801337 | 689 | 216 | 160 | 134
#4:801387 | 689 | 219 | 169 | 134
#4:801439 | 689 | 222 | 169 | 133
#4:801487 | 689 | 225 | 161 | 133
#4:801538 | 689 | 228 | 172 | 133
#4:801588 | 689 | 231 | 160 | 133
#4:801638 | 689 | 234 | 171 | 133
#4:801689 | 689 | 237 | 173 | 133
#4:801738 | 689 | 240 | 159 | 133
#4:801788 | 689 | 243 | 167 | 133
#4:801839 | 689 | 246 | 172 | 133
#4:801887 | 689 | 249 | 158 | 133
#4:801938 | 689 | 252 | 171 | 133
#4:801989 | 689 | 255 | 160 | 133
#4:802038 | 689 | 2 | 172 | 133
#4:802090 | 689 | 5 | 173 | 133
#4:802139 | 689 | 8 | 159 | 134
#4:802189 | 689 | 11 | 169 | 134
#4:802241 | 689 | 14 | 172 | 133
#4:802289 | 689 | 17 | 162 | 134
#4:802341 | 689 | 20 | 172 | 134
#4:802392 | 689 | 23 | 163 | 135
#4:802442 | 689 | 26 | 173 | 135
#4:802494 | 689 | 29 | 174 | 135
#4:802543 | 689 | 32 | 160 | 134
#4:802593 | 688 | 35 | 170 | 134
#4:802645 | 688 | 38 | 171 | 133
#4:802693 | 688 | 41 | 160 | 133
#4:802744 | 688 | 44 | 170 | 133
#4:802795 | 688 | 47 | 161 | 133
#4:802844 | 688 | 50 | 171 | 134
#4:802896 | 688 | 53 | 174 | 134
#4:802945 | 688 | 56 | 161 | 134
#4:802995 | 688 | 59 | 169 | 134
#4:803030 | 688 | 61 | 172 | 133
#4:803095 | 688 | 65 | 158 | 133
#4:803146 | 688 | 68 | 168 | 133
#4:803196 | 688 | 71 | 163 | 133
#4:803246 | 688 | 74 | 170 | 133
#4:803279 | 688 | 76 | 169 | 133
#4:803346 | 688 | 80 | 160 | 133
#4:803396 | 688 | 83 | 166 | 133
#4:803431 | 688 | 85 | 176 | 133
#4:803481 | 688 | 88 | 162 | 134
#4:803531 | 688 | 91 | 167 | 134
#4:803583 | 688 | 94 | 171 | 134
#4:803631 | 688 | 97 | 158 | 134
#4:803682 | 688 | 100 | 170 | 133
#4:803733 | 688 | 103 | 162 | 133
#4:803782 | 688 | 106 | 170 | 133
#4:803833 | 688 | 109 | 175 | 133
#4:803882 | 688 | 112 | 159 | 133
#4:803932 | 688 | 115 | 167 | 133
#4:803983 | 687 | 118 | 170 | 133
#4:804031 | 687 | 121 | 158 | 133
#4:804082 | 687 | 124 | 169 | 133
#4:804133 | 687 | 127 | 161 | 133
#4:804182 | 687 | 130 | 170 | 133
#4:804233 | 687 | 133 | 174 | 133
#4:804282 | 687 | 136 | 160 | 133
#4:804332 | 687 | 139 | 168 | 133
#4:804383 | 687 | 142 | 170 | 133
#4:804432 | 687 | 145 | 159 | 133
#4:804482 | 687 | 148 | 169 | 133
#4:804533 | 687 | 151 | 162 | 133
#4:804582 | 687 | 154 | 170 | 133
#4:804633 | 687 | 157 | 173 | 133
#4:804683 | 687 | 160 | 161 | 133
#4:804733 | 687 | 163 | 167 | 133
#4:804785 | 687 | 166 | 173 | 134
#4:804833 | 687 | 169 | 161 | 134
#4:804884 | 687 | 172 | 170 | 134
#4:804935 | 687 | 175 | 165 | 134
#4:804985 | 687 | 178 | 171 | 134
#4:805036 | 687 | 181 | 174 | 134
#4:805086 | 687 | 184 | 161 | 134
#4:805136 | 687 | 187 | 168 | 134
#4:805187 | 687 | 190 | 172 | 134
#4:805236 | 687 | 193 | 159 | 134
#4:805287 | 687 | 196 | 170 | 134
#4:805338 | 687 | 199 | 165 | 134
#4:805388 | 687 | 202 | 171 | 134
#4:805439 | 687 | 205 | 175 | 134
#4:805490 | 687 | 208 | 163 | 135
#4:805540 | 686 | 211 | 168 | 135
#4:805592 | 686 | 214 | 172 | 135
#4:805641 | 686 | 217 | 162 | 135
#4:805692 | 686 | 220 | 172 | 135
#4:805743 | 686 | 223 | 164 | 134
#4:805793 | 686 | 226 | 170 | 134
#4:805844 | 686 | 229 | 173 | 134
#4:805894 | 686 | 232 | 162 | 134
#4:805944 | 686 | 235 | 169 | 134
#4:805996 | 686 | 238 | 173 | 134
#4:806045 | 686 | 241 | 160 | 134
#4:806096 | 686 | 244 | 167 | 134
#4:806131 | 686 | 246 | 174 | 135
#4:806180 | 686 | 249 | 160 | 135
#4:806231 | 686 | 252 | 166 | 135
#4:806282 | 686 | 255 | 164 | 134
#4:806332 | 686 | 2 | 172 | 135
#4:806384 | 686 | 5 | 175 | 135
#4:806434 | 686 | 8 | 165 | 135
#4:806485 | 686 | 11 | 170 | 135
#4:806537 | 686 | 14 | 176 | 136
#4:806587 | 686 | 17 | 162 | 136
#4:806638 | 686 | 20 | 171 | 136
#4:806690 | 686 | 23 | 165 | 136
#4:806740 | 686 | 26 | 172 | 135
#4:806792 | 686 | 29 | 174 | 135
#4:806842 | 686 | 32 | 163 | 135
#4:806893 | 686 | 35 | 170 | 135
#4:806944 | 686 | 38 | 174 | 135
#4:806993 | 686 | 41 | 161 | 135
#4:807044 | 686 | 44 | 169 | 134
#4:807095 | 686 | 47 | 165 | 134
#4:807145 | 686 | 50 | 171 | 134
> !daq stop
:stopped

> !drv f -100
:F -100
