> !globalvar g_carbasicfcts_cruiseTS 50
:50
> !globalvar g_carbasicfcts_cruiseKP 200
:200
> !globalvar g_carbasicfcts_cruiseKI 500
:500
> !daq grp 4 ~all _tics cruise_drvval hall_cnt hall_dt hall_dt8
:ok

> !daq start
:started

> !drv c 1500
:C 1500
#4:2034628 | 935 | 190 | 41327 | 4518
#4:2034678 | 1000 | 191 | 465 | 4528
#4:2034728 | 981 | 192 | 490 | 4540
#4:2034778 | 1000 | 193 | 363 | 4535
#4:2034816 | 979 | 194 | 329 | 4520
#4:2034869 | 948 | 196 | 258 | 4446
#4:2034915 | 1000 | 198 | 223 | 264
#4:2034973 | 960 | 201 | 184 | 190
#4:2035028 | 936 | 204 | 181 | 158
#4:2035063 | 907 | 206 | 170 | 147
#4:2035126 | 878 | 210 | 163 | 133
#4:2035173 | 859 | 213 | 157 | 126
#4:2035217 | 842 | 216 | 141 | 122
#4:2035276 | 828 | 220 | 151 | 119
#4:2035320 | 818 | 223 | 141 | 117
#4:2035378 | 809 | 227 | 146 | 116
#4:2035422 | 801 | 230 | 146 | 116
#4:2035464 | 792 | 233 | 136 | 115
#4:2035523 | 784 | 237 | 150 | 115
#4:2035566 | 778 | 240 | 138 | 115
#4:2035625 | 773 | 244 | 150 | 116
#4:2035669 | 768 | 247 | 141 | 116
#4:2035727 | 764 | 251 | 148 | 117
#4:2035773 | 758 | 254 | 149 | 117
#4:2035815 | 753 | 1 | 141 | 117
#4:2035875 | 746 | 5 | 153 | 117
#4:2035919 | 741 | 8 | 141 | 117
#4:2035978 | 737 | 12 | 152 | 118
#4:2036023 | 733 | 15 | 144 | 119
#4:2036068 | 729 | 18 | 152 | 119
#4:2036114 | 724 | 21 | 157 | 119
#4:2036173 | 721 | 25 | 144 | 120
#4:2036220 | 720 | 28 | 155 | 121
#4:2036267 | 717 | 31 | 148 | 122
#4:2036328 | 716 | 35 | 156 | 123
#4:2036376 | 715 | 38 | 160 | 124
#4:2036422 | 713 | 41 | 151 | 125
#4:2036470 | 712 | 44 | 162 | 126
#4:2036518 | 711 | 47 | 152 | 126
#4:2036565 | 711 | 50 | 164 | 127
#4:2036615 | 711 | 53 | 168 | 128
#4:2036678 | 710 | 57 | 154 | 129
#4:2036728 | 709 | 60 | 166 | 129
#4:2036777 | 708 | 63 | 156 | 129
#4:2036825 | 706 | 66 | 166 | 129
#4:2036875 | 704 | 69 | 169 | 130
#4:2036923 | 703 | 72 | 156 | 130
#4:2036971 | 701 | 75 | 163 | 130
#4:2037022 | 699 | 78 | 167 | 130
#4:2037069 | 698 | 81 | 155 | 130
#4:2037118 | 695 | 84 | 163 | 130
#4:2037168 | 695 | 87 | 159 | 130
#4:2037216 | 693 | 90 | 166 | 130
#4:2037266 | 691 | 93 | 172 | 130
#4:2037315 | 689 | 96 | 157 | 130
#4:2037363 | 687 | 99 | 163 | 130
#4:2037414 | 687 | 102 | 169 | 131
#4:2037478 | 686 | 106 | 168 | 131
#4:2037512 | 685 | 108 | 169 | 131
#4:2037578 | 684 | 112 | 160 | 132
#4:2037628 | 684 | 115 | 167 | 132
#4:2037662 | 685 | 117 | 175 | 133
#4:2037728 | 685 | 121 | 160 | 133
#4:2037762 | 685 | 123 | 169 | 134
#4:2037814 | 685 | 126 | 172 | 134
#4:2037863 | 686 | 129 | 161 | 135
#4:2037914 | 686 | 132 | 171 | 135
#4:2037966 | 686 | 135 | 165 | 135
#4:2038016 | 687 | 138 | 174 | 136
#4:2038068 | 686 | 141 | 177 | 136
#4:2038118 | 686 | 144 | 161 | 135
#4:2038169 | 684 | 147 | 168 | 135
#4:2038221 | 684 | 150 | 171 | 135
#4:2038270 | 683 | 153 | 161 | 135
#4:2038321 | 683 | 156 | 171 | 135
#4:2038373 | 682 | 159 | 166 | 135
#4:2038423 | 683 | 162 | 173 | 135
#4:2038475 | 682 | 165 | 178 | 135
#4:2038526 | 683 | 168 | 164 | 136
#4:2038577 | 683 | 171 | 172 | 136
#4:2038612 | 683 | 173 | 177 | 136
#4:2038662 | 683 | 176 | 164 | 136
#4:2038713 | 683 | 179 | 172 | 136
#4:2038766 | 683 | 182 | 176 | 136
#4:2038816 | 683 | 185 | 164 | 136
#4:2038868 | 684 | 188 | 172 | 137
#4:2038920 | 685 | 191 | 169 | 137
#4:2038971 | 685 | 194 | 175 | 137
#4:2039024 | 688 | 197 | 180 | 138
#4:2039075 | 687 | 200 | 164 | 138
#4:2039126 | 686 | 203 | 171 | 137
#4:2039162 | 685 | 205 | 178 | 137
#4:2039212 | 685 | 208 | 164 | 137
#4:2039263 | 685 | 211 | 172 | 137
#4:2039316 | 684 | 214 | 175 | 136
#4:2039366 | 684 | 217 | 163 | 136
#4:2039418 | 685 | 220 | 174 | 137
#4:2039470 | 685 | 223 | 167 | 137
#4:2039520 | 685 | 226 | 174 | 137
#4:2039573 | 685 | 229 | 177 | 137
#4:2039623 | 685 | 232 | 165 | 137
#4:2039675 | 685 | 235 | 172 | 137
#4:2039728 | 685 | 238 | 176 | 137
#4:2039777 | 686 | 241 | 164 | 137
#4:2039812 | 686 | 243 | 172 | 137
#4:2039865 | 686 | 246 | 177 | 137
#4:2039915 | 685 | 249 | 164 | 137
#4:2039967 | 685 | 252 | 174 | 137
#4:2040019 | 685 | 255 | 167 | 137
#4:2040069 | 684 | 2 | 172 | 136
#4:2040121 | 683 | 5 | 175 | 136
#4:2040171 | 683 | 8 | 164 | 136
#4:2040222 | 682 | 11 | 169 | 135
#4:2040273 | 681 | 14 | 175 | 135
#4:2040323 | 681 | 17 | 160 | 135
#4:2040374 | 680 | 20 | 167 | 135
#4:2040426 | 681 | 23 | 165 | 135
#4:2040476 | 681 | 26 | 171 | 135
#4:2040527 | 681 | 29 | 177 | 135
#4:2040578 | 681 | 32 | 166 | 135
#4:2040628 | 681 | 35 | 170 | 135
#4:2040663 | 682 | 37 | 176 | 135
#4:2040713 | 682 | 40 | 165 | 135
#4:2040764 | 682 | 43 | 171 | 136
#4:2040816 | 682 | 46 | 176 | 136
#4:2040866 | 682 | 49 | 163 | 136
#4:2040918 | 682 | 52 | 171 | 136
#4:2040970 | 683 | 55 | 167 | 136
#4:2041020 | 683 | 58 | 174 | 136
#4:2041072 | 684 | 61 | 176 | 137
#4:2041124 | 685 | 64 | 167 | 137
#4:2041175 | 685 | 67 | 172 | 137
#4:2041228 | 685 | 70 | 178 | 137
#4:2041278 | 685 | 73 | 165 | 137
#4:2041313 | 685 | 75 | 172 | 137
#4:2041366 | 685 | 78 | 177 | 137
#4:2041416 | 685 | 81 | 164 | 137
#4:2041468 | 685 | 84 | 172 | 137
#4:2041520 | 685 | 87 | 167 | 137
#4:2041571 | 686 | 90 | 177 | 137
#4:2041624 | 687 | 93 | 178 | 138
#4:2041675 | 687 | 96 | 167 | 138
#4:2041726 | 686 | 99 | 174 | 137
#4:2041761 | 686 | 101 | 176 | 137
#4:2041813 | 686 | 104 | 165 | 137
#4:2041863 | 685 | 107 | 172 | 137
#4:2041916 | 685 | 110 | 176 | 136
#4:2041966 | 684 | 113 | 163 | 136
#4:2042018 | 684 | 116 | 172 | 136
#4:2042070 | 685 | 119 | 167 | 137
#4:2042121 | 685 | 122 | 175 | 137
#4:2042173 | 686 | 125 | 178 | 137
#4:2042225 | 688 | 128 | 167 | 138
#4:2042276 | 687 | 131 | 172 | 137
#4:2042328 | 686 | 134 | 176 | 137
#4:2042377 | 684 | 137 | 161 | 136
#4:2042412 | 684 | 139 | 169 | 136
#4:2042464 | 683 | 142 | 176 | 135
#4:2042513 | 683 | 145 | 163 | 136
#4:2042565 | 683 | 148 | 168 | 136
#4:2042617 | 684 | 151 | 168 | 136
#4:2042668 | 685 | 154 | 175 | 137
#4:2042720 | 685 | 157 | 175 | 137
#4:2042772 | 686 | 160 | 170 | 137
#4:2042823 | 686 | 163 | 172 | 137
#4:2042875 | 685 | 166 | 175 | 137
#4:2042925 | 684 | 169 | 163 | 136
#4:2042977 | 683 | 172 | 171 | 136
#4:2043028 | 683 | 175 | 168 | 136
#4:2043062 | 684 | 177 | 165 | 136
#4:2043114 | 685 | 180 | 172 | 137
#4:2043167 | 688 | 183 | 170 | 138
#4:2043218 | 689 | 186 | 177 | 138
#4:2043270 | 689 | 189 | 175 | 138
#4:2043321 | 688 | 192 | 166 | 137
#4:2043372 | 686 | 195 | 170 | 136
#4:2043424 | 685 | 198 | 174 | 136
#4:2043474 | 685 | 201 | 163 | 136
#4:2043525 | 685 | 204 | 171 | 136
#4:2043577 | 686 | 207 | 167 | 136
#4:2043628 | 686 | 210 | 173 | 136
#4:2043662 | 686 | 212 | 171 | 136
#4:2043714 | 685 | 215 | 165 | 136
#4:2043764 | 684 | 218 | 171 | 135
#4:2043815 | 683 | 221 | 173 | 135
#4:2043866 | 682 | 224 | 166 | 135
#4:2043916 | 682 | 227 | 168 | 135
#4:2043968 | 681 | 230 | 174 | 135
#4:2044018 | 681 | 233 | 161 | 135
#4:2044069 | 681 | 236 | 172 | 135
#4:2044121 | 682 | 239 | 167 | 135
#4:2044171 | 682 | 242 | 173 | 136
#4:2044223 | 682 | 245 | 176 | 136
#4:2044274 | 683 | 248 | 169 | 136
#4:2044325 | 684 | 251 | 170 | 137
#4:2044378 | 685 | 254 | 177 | 137
#4:2044428 | 685 | 1 | 165 | 137
#4:2044463 | 685 | 3 | 170 | 137
#4:2044515 | 684 | 6 | 176 | 137
> !daq stop
#4:2044566 | 685 | 9 | 166 | 137
:stopped

> !drv f -100
:F -100
