> !globalvar g_carbasicfcts_cruiseTS 50
:50
> !globalvar g_carbasicfcts_cruiseKP 100
:100
> !globalvar g_carbasicfcts_cruiseKI 20
:20
> !daq grp 4 ~all _tics cruise_drvval hall_cnt hall_dt hall_dt8
:ok

> !daq start
:started

> !drv c 500
:C 500
#4:1473022 | 269 | 7 | 37016 | 4110
#4:1473122 | 311 | 8 | 1088 | 4182
#4:1473172 | 292 | 9 | 727 | 4214
#4:1473272 | 281 | 10 | 656 | 4233
#4:1473322 | 277 | 11 | 587 | 4241
#4:1473372 | 272 | 12 | 584 | 4239
#4:1473422 | 272 | 13 | 578 | 4221
#4:1473472 | 271 | 14 | 547 | 4178
#4:1473522 | 269 | 15 | 512 | 528
#4:1473572 | 277 | 16 | 488 | 468
#4:1473622 | 273 | 17 | 485 | 444
#4:1473672 | 271 | 18 | 510 | 429
#4:1473722 | 269 | 19 | 497 | 420
#4:1473772 | 268 | 20 | 508 | 412
#4:1473822 | 267 | 21 | 524 | 407
#4:1473872 | 267 | 22 | 505 | 403
#4:1473922 | 267 | 23 | 484 | 400
#4:1473972 | 267 | 24 | 463 | 397
#4:1474022 | 266 | 25 | 470 | 396
#4:1474072 | 265 | 26 | 500 | 395
#4:1474122 | 265 | 27 | 495 | 395
#4:1474172 | 265 | 28 | 512 | 395
#4:1474222 | 265 | 29 | 526 | 395
#4:1474272 | 265 | 30 | 515 | 396
#4:1474322 | 265 | 31 | 494 | 397
#4:1474372 | 265 | 32 | 470 | 398
#4:1474422 | 265 | 33 | 473 | 398
#4:1474472 | 265 | 34 | 503 | 399
#4:1474522 | 265 | 35 | 493 | 398
#4:1474572 | 265 | 36 | 506 | 398
#4:1474622 | 265 | 37 | 530 | 398
#4:1474672 | 265 | 38 | 513 | 398
#4:1474722 | 265 | 39 | 492 | 398
#4:1474772 | 265 | 40 | 476 | 398
#4:1474822 | 265 | 41 | 477 | 399
#4:1474872 | 265 | 42 | 501 | 399
#4:1474922 | 265 | 43 | 498 | 399
#4:1474972 | 265 | 44 | 500 | 399
#4:1475022 | 265 | 45 | 516 | 397
#4:1475072 | 265 | 46 | 501 | 396
#4:1475122 | 265 | 47 | 481 | 395
#4:1475172 | 265 | 48 | 462 | 393
#4:1475222 | 265 | 49 | 469 | 393
#4:1475272 | 265 | 50 | 500 | 393
#4:1475322 | 265 | 51 | 488 | 392
#4:1475372 | 264 | 52 | 501 | 392
#4:1475422 | 264 | 53 | 517 | 392
#4:1475472 | 264 | 54 | 502 | 392
#4:1475522 | 264 | 55 | 485 | 392
#4:1475572 | 265 | 56 | 464 | 393
#4:1475622 | 265 | 57 | 472 | 393
#4:1475672 | 265 | 58 | 502 | 393
#4:1475722 | 265 | 59 | 492 | 394
#4:1475772 | 265 | 60 | 502 | 394
#4:1475822 | 265 | 61 | 520 | 394
#4:1475872 | 265 | 62 | 505 | 394
#4:1475922 | 265 | 63 | 489 | 395
#4:1475972 | 265 | 64 | 468 | 395
#4:1476022 | 265 | 65 | 477 | 395
#4:1476072 | 265 | 66 | 508 | 396
#4:1476122 | 265 | 67 | 504 | 397
#4:1476172 | 265 | 68 | 513 | 398
#4:1476222 | 265 | 69 | 527 | 399
#4:1476272 | 265 | 70 | 512 | 400
#4:1476322 | 265 | 71 | 491 | 400
#4:1476372 | 265 | 72 | 474 | 400
#4:1476422 | 266 | 73 | 481 | 401
#4:1476472 | 266 | 74 | 512 | 401
#4:1476522 | 266 | 75 | 509 | 402
#4:1476572 | 265 | 76 | 502 | 401
#4:1476622 | 265 | 77 | 523 | 400
#4:1476672 | 265 | 78 | 514 | 401
#4:1476722 | 265 | 79 | 494 | 401
#4:1476772 | 265 | 80 | 472 | 401
#4:1476822 | 265 | 81 | 480 | 401
#4:1476872 | 265 | 82 | 516 | 401
#4:1476922 | 265 | 83 | 489 | 399
#4:1476972 | 264 | 84 | 518 | 401
#4:1477022 | 265 | 85 | 529 | 401
#4:1477072 | 265 | 86 | 518 | 402
#4:1477122 | 265 | 87 | 500 | 402
#4:1477172 | 265 | 88 | 475 | 402
#4:1477222 | 265 | 89 | 486 | 403
#4:1477272 | 265 | 90 | 515 | 403
#4:1477322 | 265 | 91 | 503 | 404
#4:1477372 | 265 | 92 | 514 | 404
#4:1477422 | 265 | 93 | 527 | 404
#4:1477472 | 265 | 94 | 518 | 404
#4:1477522 | 265 | 95 | 500 | 404
#4:1477572 | 265 | 96 | 476 | 404
#4:1477622 | 265 | 97 | 479 | 403
#4:1477672 | 265 | 98 | 514 | 403
#4:1477722 | 265 | 99 | 504 | 403
#4:1477772 | 265 | 100 | 511 | 403
#4:1477822 | 265 | 101 | 525 | 403
#4:1477872 | 265 | 102 | 517 | 402
#4:1477922 | 265 | 103 | 499 | 402
#4:1477972 | 265 | 104 | 469 | 402
#4:1478022 | 265 | 105 | 475 | 401
#4:1478072 | 265 | 106 | 504 | 400
#4:1478122 | 265 | 107 | 505 | 400
#4:1478172 | 265 | 108 | 507 | 400
#4:1478222 | 265 | 109 | 520 | 399
#4:1478272 | 264 | 110 | 512 | 399
#4:1478322 | 264 | 111 | 495 | 399
#4:1478372 | 264 | 112 | 467 | 398
#4:1478422 | 264 | 113 | 475 | 398
#4:1478472 | 264 | 114 | 507 | 399
#4:1478522 | 264 | 115 | 501 | 398
#4:1478572 | 264 | 116 | 510 | 399
#4:1478622 | 264 | 117 | 526 | 399
#4:1478672 | 264 | 118 | 516 | 400
#4:1478722 | 264 | 119 | 504 | 400
#4:1478772 | 265 | 120 | 474 | 401
#4:1478822 | 265 | 121 | 482 | 402
#4:1478872 | 265 | 122 | 514 | 403
#4:1478922 | 265 | 123 | 508 | 403
#4:1478972 | 265 | 124 | 511 | 403
#4:1479022 | 265 | 125 | 532 | 404
#4:1479072 | 265 | 126 | 521 | 404
#4:1479122 | 265 | 127 | 510 | 405
#4:1479172 | 265 | 128 | 482 | 406
#4:1479222 | 265 | 129 | 486 | 406
#4:1479272 | 265 | 130 | 518 | 407
#4:1479322 | 265 | 131 | 514 | 407
#4:1479372 | 265 | 132 | 515 | 408
#4:1479422 | 265 | 133 | 528 | 407
#4:1479472 | 265 | 134 | 518 | 407
#4:1479522 | 265 | 135 | 502 | 406
#4:1479572 | 265 | 136 | 480 | 406
#4:1479622 | 265 | 137 | 488 | 406
#4:1479672 | 265 | 138 | 516 | 406
#4:1479722 | 265 | 139 | 508 | 405
#4:1479772 | 265 | 140 | 516 | 406
#4:1479822 | 265 | 141 | 528 | 406
#4:1479872 | 265 | 142 | 520 | 406
#4:1479922 | 265 | 143 | 500 | 406
#4:1479972 | 265 | 144 | 481 | 406
#4:1480022 | 265 | 145 | 486 | 406
#4:1480072 | 265 | 146 | 517 | 406
#4:1480122 | 265 | 147 | 513 | 406
#4:1480172 | 265 | 148 | 514 | 406
#4:1480272 | 265 | 149 | 535 | 407
#4:1480322 | 265 | 150 | 523 | 407
#4:1480372 | 265 | 151 | 508 | 408
#4:1480422 | 265 | 152 | 490 | 409
#4:1480472 | 265 | 153 | 497 | 410
#4:1480522 | 265 | 154 | 526 | 411
#4:1480572 | 265 | 155 | 523 | 412
#4:1480622 | 265 | 156 | 506 | 411
#4:1480672 | 265 | 157 | 538 | 411
#4:1480722 | 265 | 158 | 529 | 412
#4:1480772 | 265 | 159 | 507 | 411
#4:1480822 | 265 | 160 | 495 | 412
#4:1480872 | 265 | 161 | 491 | 411
#4:1480922 | 265 | 162 | 524 | 411
#4:1480972 | 265 | 163 | 523 | 411
#4:1481022 | 265 | 164 | 509 | 411
#4:1481072 | 265 | 165 | 541 | 412
#4:1481122 | 265 | 166 | 531 | 412
#4:1481172 | 265 | 167 | 502 | 412
#4:1481222 | 265 | 168 | 491 | 411
#4:1481272 | 265 | 169 | 493 | 411
#4:1481322 | 265 | 170 | 528 | 412
#4:1481372 | 265 | 171 | 522 | 412
#4:1481422 | 265 | 172 | 511 | 412
#4:1481472 | 265 | 173 | 543 | 412
#4:1481522 | 265 | 174 | 534 | 412
#4:1481572 | 265 | 175 | 506 | 413
#4:1481622 | 265 | 176 | 491 | 413
#4:1481672 | 265 | 177 | 494 | 413
#4:1481722 | 265 | 178 | 528 | 413
#4:1481772 | 265 | 179 | 523 | 413
#4:1481822 | 265 | 180 | 510 | 413
#4:1481922 | 265 | 181 | 538 | 412
#4:1481972 | 265 | 182 | 526 | 412
#4:1482022 | 265 | 183 | 500 | 411
#4:1482072 | 265 | 184 | 487 | 410
#4:1482122 | 265 | 185 | 479 | 409
#4:1482172 | 265 | 186 | 513 | 407
#4:1482222 | 265 | 187 | 508 | 406
#4:1482272 | 265 | 188 | 495 | 404
#4:1482322 | 265 | 189 | 520 | 403
#4:1482372 | 265 | 190 | 510 | 401
#4:1482422 | 265 | 191 | 483 | 399
#4:1482472 | 264 | 192 | 472 | 398
#4:1482520 | 264 | 193 | 467 | 397
#4:1482569 | 264 | 194 | 496 | 395
#4:1482619 | 264 | 195 | 496 | 394
#4:1482667 | 264 | 196 | 481 | 392
#4:1482718 | 263 | 197 | 510 | 391
#4:1482769 | 263 | 198 | 504 | 391
#4:1482817 | 263 | 199 | 478 | 390
> !daq stop
#4:1482863 | 263 | 200 | 462 | 389
:stopped

> !drv f -100
:F -100
