> !globalvar g_carbasicfcts_cruiseTS 50
:50
> !globalvar g_carbasicfcts_cruiseKP 1000
:1000
> !globalvar g_carbasicfcts_cruiseKI 50
:50
> !daq grp 4 ~all _tics cruise_drvval hall_cnt hall_dt hall_dt8
:ok

> !daq start
:started

> !drv c 1500
:C 1500
#4:2614512 | 1000 | 198 | 25546 | 4326
#4:2614562 | 1000 | 199 | 465 | 4332
#4:2614612 | 1000 | 200 | 345 | 4322
#4:2614662 | 1000 | 201 | 289 | 4302
#4:2614691 | 1000 | 202 | 272 | 4270
#4:2614759 | 1000 | 205 | 216 | 2760
#4:2614799 | 1000 | 207 | 188 | 198
#4:2614853 | 948 | 210 | 183 | 162
#4:2614905 | 798 | 213 | 169 | 145
#4:2614952 | 691 | 216 | 153 | 134
#4:2615000 | 622 | 219 | 156 | 129
#4:2615047 | 587 | 222 | 161 | 126
#4:2615111 | 601 | 226 | 169 | 127
#4:2615161 | 627 | 229 | 166 | 129
#4:2615210 | 650 | 232 | 163 | 131
#4:2615261 | 666 | 235 | 168 | 132
#4:2615312 | 676 | 238 | 171 | 134
#4:2615362 | 690 | 241 | 168 | 135
#4:2615397 | 704 | 243 | 172 | 136
#4:2615449 | 711 | 246 | 173 | 136
#4:2615499 | 710 | 249 | 165 | 136
#4:2615550 | 702 | 252 | 169 | 136
#4:2615601 | 694 | 255 | 163 | 135
#4:2615651 | 689 | 2 | 174 | 134
#4:2615702 | 688 | 5 | 168 | 134
#4:2615752 | 685 | 8 | 164 | 134
#4:2615802 | 681 | 11 | 168 | 134
#4:2615853 | 678 | 14 | 169 | 133
#4:2615902 | 677 | 17 | 164 | 133
#4:2615953 | 679 | 20 | 167 | 134
#4:2616004 | 682 | 23 | 163 | 134
#4:2616054 | 684 | 26 | 175 | 134
#4:2616105 | 687 | 29 | 170 | 134
#4:2616155 | 691 | 32 | 164 | 135
#4:2616206 | 690 | 35 | 170 | 135
#4:2616257 | 688 | 38 | 170 | 134
#4:2616306 | 683 | 41 | 165 | 134
#4:2616357 | 679 | 44 | 167 | 134
#4:2616408 | 680 | 47 | 163 | 134
#4:2616459 | 688 | 50 | 176 | 134
#4:2616510 | 697 | 53 | 170 | 135
#4:2616560 | 698 | 56 | 164 | 135
#4:2616611 | 692 | 59 | 170 | 135
#4:2616662 | 687 | 62 | 167 | 134
#4:2616710 | 675 | 65 | 164 | 133
#4:2616761 | 668 | 68 | 166 | 133
#4:2616811 | 672 | 71 | 161 | 133
#4:2616861 | 676 | 74 | 173 | 133
#4:2616896 | 682 | 76 | 169 | 134
#4:2616946 | 692 | 79 | 165 | 135
#4:2616998 | 702 | 82 | 176 | 136
#4:2617049 | 705 | 85 | 171 | 136
#4:2617099 | 700 | 88 | 164 | 136
#4:2617150 | 694 | 91 | 171 | 135
#4:2617201 | 685 | 94 | 169 | 134
#4:2617250 | 677 | 97 | 163 | 134
#4:2617301 | 673 | 100 | 166 | 133
#4:2617351 | 675 | 103 | 162 | 133
#4:2617402 | 680 | 106 | 175 | 134
#4:2617453 | 689 | 109 | 173 | 135
#4:2617503 | 691 | 112 | 162 | 135
#4:2617554 | 692 | 115 | 172 | 135
#4:2617605 | 684 | 118 | 166 | 134
#4:2617654 | 684 | 121 | 165 | 134
#4:2617706 | 684 | 124 | 169 | 134
#4:2617756 | 686 | 127 | 163 | 134
#4:2617807 | 693 | 130 | 176 | 135
#4:2617859 | 696 | 133 | 170 | 135
#4:2617908 | 693 | 136 | 163 | 135
#4:2617959 | 687 | 139 | 171 | 134
#4:2618010 | 681 | 142 | 167 | 134
#4:2618059 | 680 | 145 | 165 | 134
#4:2618111 | 687 | 148 | 170 | 135
#4:2618162 | 695 | 151 | 165 | 136
#4:2618196 | 702 | 153 | 164 | 136
#4:2618247 | 698 | 156 | 168 | 136
#4:2618297 | 690 | 159 | 160 | 135
#4:2618348 | 681 | 162 | 174 | 134
#4:2618399 | 676 | 165 | 168 | 134
#4:2618448 | 678 | 168 | 163 | 134
#4:2618499 | 683 | 171 | 173 | 134
#4:2618551 | 692 | 174 | 169 | 135
#4:2618600 | 697 | 177 | 166 | 135
#4:2618652 | 697 | 180 | 170 | 135
#4:2618703 | 692 | 183 | 161 | 135
#4:2618753 | 684 | 186 | 173 | 134
#4:2618804 | 675 | 189 | 168 | 134
#4:2618853 | 677 | 192 | 163 | 134
#4:2618904 | 680 | 195 | 172 | 134
#4:2618955 | 686 | 198 | 170 | 134
#4:2619005 | 688 | 201 | 164 | 135
#4:2619057 | 691 | 204 | 170 | 135
#4:2619107 | 690 | 207 | 163 | 135
#4:2619157 | 686 | 210 | 175 | 135
#4:2619209 | 682 | 213 | 170 | 134
#4:2619258 | 679 | 216 | 162 | 134
#4:2619309 | 682 | 219 | 172 | 134
#4:2619360 | 685 | 222 | 169 | 134
#4:2619409 | 684 | 225 | 164 | 134
#4:2619461 | 687 | 228 | 172 | 135
#4:2619512 | 684 | 231 | 162 | 134
#4:2619562 | 684 | 234 | 175 | 134
#4:2619596 | 680 | 236 | 169 | 134
#4:2619662 | 682 | 240 | 163 | 134
#4:2619696 | 683 | 242 | 175 | 134
#4:2619748 | 681 | 245 | 171 | 134
#4:2619797 | 679 | 248 | 162 | 134
#4:2619848 | 681 | 251 | 172 | 134
#4:2619899 | 683 | 254 | 169 | 134
#4:2619949 | 688 | 1 | 165 | 135
#4:2620001 | 693 | 4 | 172 | 135
#4:2620051 | 693 | 7 | 162 | 135
#4:2620102 | 688 | 10 | 175 | 135
#4:2620153 | 684 | 13 | 170 | 134
#4:2620202 | 676 | 16 | 162 | 134
#4:2620253 | 682 | 19 | 173 | 134
#4:2620305 | 690 | 22 | 171 | 135
#4:2620355 | 696 | 25 | 166 | 135
#4:2620407 | 695 | 28 | 172 | 135
#4:2620457 | 691 | 31 | 161 | 135
#4:2620507 | 679 | 34 | 174 | 134
#4:2620558 | 670 | 37 | 169 | 133
#4:2620607 | 669 | 40 | 162 | 133
#4:2620658 | 670 | 43 | 173 | 133
#4:2620709 | 678 | 46 | 169 | 134
#4:2620758 | 683 | 49 | 163 | 134
#4:2620810 | 689 | 52 | 173 | 135
#4:2620861 | 694 | 55 | 162 | 135
#4:2620912 | 696 | 58 | 176 | 136
#4:2620946 | 697 | 60 | 172 | 136
#4:2620997 | 693 | 63 | 161 | 135
#4:2621047 | 690 | 66 | 175 | 135
#4:2621099 | 685 | 69 | 170 | 135
#4:2621148 | 680 | 72 | 162 | 134
#4:2621199 | 676 | 75 | 172 | 134
#4:2621250 | 674 | 78 | 169 | 134
#4:2621298 | 677 | 81 | 162 | 134
#4:2621351 | 683 | 84 | 173 | 134
#4:2621401 | 691 | 87 | 163 | 135
#4:2621452 | 698 | 90 | 177 | 136
#4:2621505 | 701 | 93 | 172 | 136
#4:2621554 | 698 | 96 | 162 | 136
#4:2621605 | 691 | 99 | 172 | 135
#4:2621656 | 681 | 102 | 168 | 134
#4:2621705 | 672 | 105 | 161 | 134
#4:2621757 | 673 | 108 | 172 | 134
#4:2621807 | 679 | 111 | 161 | 134
#4:2621857 | 686 | 114 | 176 | 135
#4:2621910 | 693 | 117 | 174 | 135
#4:2621960 | 696 | 120 | 163 | 136
#4:2622011 | 696 | 123 | 174 | 136
#4:2622046 | 695 | 125 | 174 | 136
#4:2622112 | 692 | 129 | 162 | 135
#4:2622147 | 691 | 131 | 175 | 135
#4:2622198 | 689 | 134 | 170 | 135
#4:2622247 | 685 | 137 | 160 | 135
#4:2622299 | 681 | 140 | 171 | 134
#4:2622350 | 682 | 143 | 163 | 134
#4:2622400 | 689 | 146 | 175 | 135
#4:2622452 | 694 | 149 | 175 | 135
#4:2622502 | 695 | 152 | 161 | 136
#4:2622553 | 690 | 155 | 174 | 135
#4:2622604 | 681 | 158 | 167 | 134
#4:2622652 | 674 | 161 | 159 | 134
#4:2622704 | 670 | 164 | 171 | 133
#4:2622754 | 671 | 167 | 162 | 133
#4:2622804 | 673 | 170 | 172 | 134
#4:2622856 | 674 | 173 | 172 | 134
#4:2622905 | 676 | 176 | 160 | 134
#4:2622956 | 679 | 179 | 174 | 134
#4:2623008 | 682 | 182 | 171 | 135
#4:2623057 | 686 | 185 | 164 | 135
#4:2623109 | 693 | 188 | 174 | 135
#4:2623160 | 693 | 191 | 163 | 135
#4:2623210 | 690 | 194 | 173 | 135
#4:2623262 | 686 | 197 | 175 | 135
#4:2623311 | 679 | 200 | 158 | 134
#4:2623361 | 672 | 203 | 172 | 134
#4:2623396 | 670 | 205 | 174 | 133
#4:2623462 | 674 | 209 | 162 | 134
#4:2623496 | 684 | 211 | 174 | 135
#4:2623549 | 698 | 214 | 172 | 136
#4:2623599 | 707 | 217 | 165 | 137
#4:2623652 | 708 | 220 | 175 | 137
#4:2623703 | 700 | 223 | 162 | 136
#4:2623753 | 697 | 226 | 175 | 136
#4:2623805 | 694 | 229 | 176 | 136
#4:2623855 | 690 | 232 | 160 | 135
#4:2623905 | 685 | 235 | 171 | 135
#4:2623957 | 678 | 238 | 169 | 134
#4:2624005 | 675 | 241 | 161 | 134
#4:2624057 | 676 | 244 | 173 | 134
#4:2624108 | 681 | 247 | 162 | 135
#4:2624158 | 682 | 250 | 174 | 135
#4:2624210 | 680 | 253 | 174 | 134
#4:2624259 | 682 | 0 | 160 | 135
#4:2624310 | 684 | 3 | 172 | 135
#4:2624362 | 686 | 6 | 171 | 135
> !daq stop
#4:2624411 | 690 | 9 | 163 | 135
:stopped

> !drv f -100
:F -100
