> !globalvar g_carbasicfcts_cruiseTS 50
:50
> !globalvar g_carbasicfcts_cruiseKP 2000
:2000
> !globalvar g_carbasicfcts_cruiseKI 100
:100
> !daq grp 4 ~all _tics cruise_drvval hall_cnt hall_dt hall_dt8
:ok

> !daq start
:started

> !drv c 1500
:C 1500
#4:4498558 | 1000 | 95 | 40386 | 4442
#4:4498608 | 1000 | 96 | 618 | 4469
#4:4498658 | 1000 | 97 | 373 | 4467
#4:4498708 | 1000 | 98 | 357 | 4456
#4:4498758 | 1000 | 99 | 307 | 4435
#4:4498788 | 1000 | 100 | 270 | 4404
#4:4498856 | 1000 | 103 | 208 | 260
#4:4498894 | 1000 | 105 | 189 | 200
#4:4498951 | 1000 | 108 | 179 | 162
#4:4499001 | 914 | 111 | 159 | 145
#4:4499049 | 692 | 114 | 164 | 134
#4:4499096 | 520 | 117 | 154 | 127
#4:4499157 | 439 | 121 | 152 | 124
#4:4499206 | 462 | 124 | 161 | 125
#4:4499254 | 524 | 127 | 157 | 127
#4:4499304 | 601 | 130 | 177 | 130
#4:4499357 | 691 | 133 | 176 | 134
#4:4499407 | 753 | 136 | 164 | 137
#4:4499442 | 771 | 138 | 180 | 138
#4:4499495 | 762 | 141 | 173 | 137
#4:4499543 | 715 | 144 | 159 | 135
#4:4499593 | 655 | 147 | 167 | 133
#4:4499643 | 627 | 150 | 164 | 132
#4:4499708 | 621 | 154 | 174 | 131
#4:4499743 | 644 | 156 | 171 | 132
#4:4499793 | 678 | 159 | 163 | 134
#4:4499844 | 712 | 162 | 178 | 135
#4:4499897 | 738 | 165 | 175 | 137
#4:4499947 | 744 | 168 | 164 | 137
#4:4499999 | 730 | 171 | 173 | 136
#4:4500050 | 704 | 174 | 168 | 135
#4:4500098 | 676 | 177 | 161 | 134
#4:4500149 | 656 | 180 | 168 | 133
#4:4500199 | 656 | 183 | 160 | 133
#4:4500249 | 663 | 186 | 175 | 133
#4:4500301 | 683 | 189 | 171 | 134
#4:4500350 | 695 | 192 | 161 | 135
#4:4500402 | 707 | 195 | 174 | 135
#4:4500453 | 701 | 198 | 169 | 135
#4:4500502 | 693 | 201 | 162 | 134
#4:4500554 | 683 | 204 | 171 | 134
#4:4500604 | 679 | 207 | 160 | 134
#4:4500654 | 685 | 210 | 175 | 134
#4:4500706 | 700 | 213 | 174 | 135
#4:4500756 | 716 | 216 | 164 | 136
#4:4500808 | 722 | 219 | 173 | 136
#4:4500842 | 718 | 221 | 173 | 136
#4:4500907 | 690 | 225 | 161 | 134
#4:4500942 | 676 | 227 | 171 | 134
#4:4500993 | 664 | 230 | 168 | 133
#4:4501041 | 670 | 233 | 162 | 134
#4:4501093 | 676 | 236 | 172 | 134
#4:4501144 | 688 | 239 | 162 | 134
#4:4501194 | 694 | 242 | 175 | 135
#4:4501247 | 713 | 245 | 175 | 136
#4:4501296 | 725 | 248 | 161 | 136
#4:4501348 | 717 | 251 | 173 | 136
#4:4501399 | 697 | 254 | 168 | 135
#4:4501447 | 677 | 1 | 161 | 134
#4:4501499 | 661 | 4 | 171 | 133
#4:4501549 | 659 | 7 | 162 | 133
#4:4501599 | 671 | 10 | 174 | 134
#4:4501651 | 703 | 13 | 176 | 135
#4:4501701 | 717 | 16 | 163 | 136
#4:4501753 | 727 | 19 | 174 | 136
#4:4501804 | 712 | 22 | 169 | 136
#4:4501853 | 694 | 25 | 160 | 135
#4:4501904 | 678 | 28 | 171 | 134
#4:4501954 | 664 | 31 | 159 | 133
#4:4502004 | 666 | 34 | 173 | 133
#4:4502056 | 674 | 37 | 174 | 134
#4:4502105 | 686 | 40 | 161 | 134
#4:4502157 | 702 | 43 | 176 | 135
#4:4502192 | 709 | 45 | 174 | 135
#4:4502258 | 713 | 49 | 162 | 136
#4:4502293 | 705 | 51 | 174 | 135
#4:4502344 | 691 | 54 | 168 | 135
#4:4502392 | 681 | 57 | 161 | 134
#4:4502444 | 669 | 60 | 170 | 134
#4:4502494 | 669 | 63 | 162 | 134
#4:4502544 | 679 | 66 | 173 | 134
#4:4502596 | 693 | 69 | 173 | 135
#4:4502646 | 706 | 72 | 161 | 135
#4:4502697 | 704 | 75 | 173 | 135
#4:4502749 | 702 | 78 | 171 | 135
#4:4502798 | 692 | 81 | 162 | 135
#4:4502849 | 682 | 84 | 171 | 134
#4:4502900 | 666 | 87 | 160 | 134
#4:4502949 | 652 | 90 | 170 | 133
#4:4503000 | 655 | 93 | 174 | 133
#4:4503050 | 665 | 96 | 160 | 134
#4:4503101 | 683 | 99 | 175 | 134
#4:4503153 | 701 | 102 | 172 | 135
#4:4503202 | 707 | 105 | 162 | 135
#4:4503253 | 701 | 108 | 172 | 135
#4:4503304 | 685 | 111 | 161 | 134
#4:4503353 | 667 | 114 | 171 | 134
#4:4503405 | 654 | 117 | 174 | 133
#4:4503454 | 662 | 120 | 159 | 133
#4:4503505 | 680 | 123 | 172 | 134
#4:4503557 | 696 | 126 | 171 | 135
#4:4503606 | 710 | 129 | 164 | 136
#4:4503658 | 712 | 132 | 173 | 136
#4:4503693 | 704 | 134 | 169 | 135
#4:4503742 | 694 | 137 | 163 | 135
#4:4503793 | 686 | 140 | 172 | 134
#4:4503844 | 686 | 143 | 162 | 134
#4:4503894 | 681 | 146 | 171 | 134
#4:4503946 | 691 | 149 | 176 | 135
#4:4503996 | 701 | 152 | 162 | 135
#4:4504047 | 695 | 155 | 172 | 135
#4:4504099 | 687 | 158 | 170 | 135
#4:4504147 | 673 | 161 | 160 | 134
#4:4504198 | 661 | 164 | 172 | 133
#4:4504249 | 663 | 167 | 162 | 134
#4:4504299 | 678 | 170 | 173 | 134
#4:4504351 | 696 | 173 | 177 | 135
#4:4504401 | 708 | 176 | 162 | 136
#4:4504452 | 712 | 179 | 172 | 136
#4:4504504 | 702 | 182 | 171 | 135
#4:4504553 | 692 | 185 | 160 | 135
#4:4504605 | 686 | 188 | 174 | 135
#4:4504655 | 680 | 191 | 162 | 134
#4:4504705 | 684 | 194 | 174 | 135
#4:4504758 | 692 | 197 | 177 | 135
#4:4504808 | 710 | 200 | 162 | 136
#4:4504842 | 716 | 202 | 174 | 136
#4:4504894 | 712 | 205 | 176 | 136
#4:4504944 | 702 | 208 | 161 | 135
#4:4504994 | 686 | 211 | 169 | 135
#4:4505046 | 673 | 214 | 171 | 134
#4:4505094 | 675 | 217 | 160 | 134
#4:4505146 | 681 | 220 | 175 | 134
#4:4505198 | 697 | 223 | 163 | 135
#4:4505248 | 709 | 226 | 175 | 136
#4:4505301 | 713 | 229 | 176 | 136
#4:4505350 | 709 | 232 | 161 | 136
#4:4505401 | 699 | 235 | 171 | 135
#4:4505453 | 687 | 238 | 171 | 135
#4:4505501 | 679 | 241 | 160 | 134
#4:4505553 | 675 | 244 | 174 | 134
#4:4505604 | 681 | 247 | 163 | 134
#4:4505654 | 703 | 250 | 175 | 135
#4:4505707 | 723 | 253 | 179 | 136
#4:4505758 | 729 | 0 | 164 | 137
#4:4505808 | 723 | 3 | 166 | 136
#4:4505843 | 692 | 5 | 174 | 135
#4:4505908 | 660 | 9 | 159 | 133
#4:4505958 | 648 | 12 | 170 | 133
#4:4505993 | 642 | 14 | 171 | 133
#4:4506042 | 666 | 17 | 163 | 134
#4:4506095 | 704 | 20 | 177 | 136
#4:4506147 | 734 | 23 | 167 | 137
#4:4506198 | 750 | 26 | 175 | 138
#4:4506250 | 732 | 29 | 176 | 137
#4:4506299 | 696 | 32 | 158 | 135
#4:4506349 | 653 | 35 | 165 | 133
#4:4506400 | 625 | 38 | 169 | 132
#4:4506448 | 627 | 41 | 160 | 132
#4:4506499 | 647 | 44 | 174 | 133
#4:4506551 | 683 | 47 | 165 | 135
#4:4506601 | 711 | 50 | 174 | 136
#4:4506654 | 729 | 53 | 178 | 137
#4:4506704 | 723 | 56 | 161 | 136
#4:4506754 | 699 | 59 | 169 | 135
#4:4506806 | 671 | 62 | 171 | 134
#4:4506854 | 652 | 65 | 159 | 133
#4:4506905 | 656 | 68 | 173 | 133
#4:4506957 | 680 | 71 | 165 | 135
#4:4507007 | 708 | 74 | 174 | 136
#4:4507042 | 712 | 76 | 171 | 136
#4:4507094 | 724 | 79 | 166 | 136
#4:4507144 | 714 | 82 | 174 | 136
#4:4507196 | 696 | 85 | 175 | 135
#4:4507246 | 690 | 88 | 161 | 135
#4:4507296 | 682 | 91 | 169 | 135
#4:4507349 | 700 | 94 | 174 | 135
#4:4507398 | 708 | 97 | 163 | 136
#4:4507450 | 708 | 100 | 173 | 136
#4:4507502 | 702 | 103 | 165 | 135
#4:4507551 | 697 | 106 | 172 | 135
#4:4507603 | 685 | 109 | 176 | 135
#4:4507653 | 671 | 112 | 159 | 134
#4:4507703 | 663 | 115 | 169 | 134
#4:4507755 | 671 | 118 | 173 | 134
#4:4507804 | 685 | 121 | 160 | 135
#4:4507855 | 695 | 124 | 173 | 135
#4:4507907 | 695 | 127 | 165 | 135
#4:4507957 | 695 | 130 | 172 | 135
#4:4508008 | 687 | 133 | 177 | 135
#4:4508058 | 678 | 136 | 160 | 134
#4:4508108 | 674 | 139 | 169 | 134
#4:4508143 | 682 | 141 | 178 | 135
#4:4508194 | 700 | 144 | 163 | 135
#4:4508245 | 720 | 147 | 173 | 136
#4:4508298 | 720 | 150 | 174 | 136
#4:4508347 | 710 | 153 | 161 | 136
#4:4508398 | 680 | 156 | 170 | 135
#4:4508449 | 658 | 159 | 163 | 134
> !daq stop
#4:4508498 | 644 | 162 | 169 | 133
:stopped

> !drv f -100
:F -100
