> !globalvar g_carbasicfcts_cruiseTS 50
:50
> !globalvar g_carbasicfcts_cruiseKP 200
:200
> !globalvar g_carbasicfcts_cruiseKI 200
:200
> !daq grp 4 ~all _tics cruise_drvval hall_cnt hall_dt hall_dt8
:ok

> !daq start
:started

> !drv c 500
:C 500
#4:1958354 | 277 | 65 | 36939 | 4120
#4:1958454 | 365 | 66 | 1097 | 4188
#4:1958504 | 331 | 67 | 682 | 4213
#4:1958554 | 304 | 68 | 572 | 4223
#4:1958654 | 290 | 69 | 541 | 4223
#4:1958704 | 285 | 70 | 505 | 4212
#4:1958752 | 272 | 71 | 474 | 4185
#4:1958800 | 273 | 72 | 477 | 4129
#4:1958848 | 295 | 73 | 483 | 483
#4:1958898 | 283 | 74 | 503 | 424
#4:1958947 | 279 | 75 | 488 | 404
#4:1958995 | 276 | 76 | 482 | 395
#4:1959044 | 275 | 77 | 486 | 390
#4:1959093 | 273 | 78 | 483 | 388
#4:1959139 | 273 | 79 | 465 | 387
#4:1959186 | 273 | 80 | 473 | 386
#4:1959234 | 272 | 81 | 477 | 386
#4:1959284 | 272 | 82 | 501 | 385
#4:1959334 | 271 | 83 | 494 | 386
#4:1959383 | 271 | 84 | 490 | 387
#4:1959433 | 271 | 85 | 500 | 388
#4:1959482 | 271 | 86 | 495 | 389
#4:1959531 | 271 | 87 | 481 | 391
#4:1959579 | 272 | 88 | 485 | 392
#4:1959628 | 271 | 89 | 492 | 394
#4:1959680 | 271 | 90 | 516 | 395
#4:1959731 | 272 | 91 | 507 | 397
#4:1959780 | 272 | 92 | 495 | 397
#4:1959831 | 272 | 93 | 505 | 397
#4:1959880 | 271 | 94 | 493 | 397
#4:1959929 | 271 | 95 | 483 | 398
#4:1959977 | 271 | 96 | 488 | 398
#4:1960027 | 271 | 97 | 492 | 398
#4:1960079 | 271 | 98 | 521 | 398
#4:1960130 | 270 | 99 | 507 | 398
#4:1960179 | 270 | 100 | 497 | 398
#4:1960229 | 270 | 101 | 501 | 398
#4:1960279 | 270 | 102 | 492 | 398
#4:1960326 | 270 | 103 | 469 | 397
#4:1960373 | 268 | 104 | 480 | 396
#4:1960422 | 268 | 105 | 485 | 395
#4:1960473 | 268 | 106 | 510 | 394
#4:1960523 | 268 | 107 | 497 | 393
#4:1960572 | 268 | 108 | 490 | 392
#4:1960622 | 267 | 109 | 500 | 392
#4:1960671 | 266 | 110 | 491 | 392
#4:1960718 | 266 | 111 | 467 | 392
#4:1960766 | 266 | 112 | 480 | 392
#4:1960815 | 266 | 113 | 486 | 392
#4:1960866 | 266 | 114 | 514 | 392
#4:1960917 | 266 | 115 | 507 | 393
#4:1960966 | 266 | 116 | 496 | 394
#4:1961017 | 266 | 117 | 503 | 394
#4:1961066 | 266 | 118 | 491 | 394
#4:1961113 | 265 | 119 | 476 | 395
#4:1961162 | 265 | 120 | 487 | 396
#4:1961211 | 266 | 121 | 489 | 396
#4:1961263 | 266 | 122 | 521 | 397
#4:1961315 | 266 | 123 | 512 | 397
#4:1961365 | 265 | 124 | 499 | 398
#4:1961416 | 265 | 125 | 511 | 398
#4:1961466 | 265 | 126 | 502 | 400
#4:1961514 | 266 | 127 | 482 | 400
#4:1961563 | 266 | 128 | 493 | 401
#4:1961613 | 265 | 129 | 496 | 402
#4:1961666 | 265 | 130 | 529 | 402
#4:1961719 | 265 | 131 | 524 | 404
#4:1961770 | 266 | 132 | 510 | 405
#4:1961821 | 266 | 133 | 514 | 405
#4:1961872 | 265 | 134 | 507 | 405
#4:1961921 | 265 | 135 | 490 | 406
#4:1961971 | 265 | 136 | 498 | 407
#4:1962021 | 265 | 137 | 503 | 407
#4:1962074 | 265 | 138 | 532 | 408
#4:1962127 | 265 | 139 | 529 | 408
#4:1962179 | 265 | 140 | 516 | 409
#4:1962231 | 265 | 141 | 520 | 409
#4:1962282 | 265 | 142 | 511 | 410
#4:1962331 | 265 | 143 | 490 | 410
#4:1962381 | 265 | 144 | 495 | 410
#4:1962431 | 265 | 145 | 499 | 409
#4:1962484 | 265 | 146 | 529 | 409
#4:1962536 | 265 | 147 | 524 | 408
#4:1962587 | 265 | 148 | 505 | 407
#4:1962639 | 265 | 149 | 516 | 407
#4:1962689 | 265 | 150 | 508 | 407
#4:1962738 | 265 | 151 | 484 | 406
#4:1962788 | 265 | 152 | 498 | 406
#4:1962837 | 265 | 153 | 497 | 406
#4:1962890 | 265 | 154 | 522 | 405
#4:1962942 | 265 | 155 | 521 | 405
#4:1962992 | 265 | 156 | 503 | 405
#4:1963043 | 265 | 157 | 511 | 404
#4:1963094 | 265 | 158 | 506 | 404
#4:1963142 | 265 | 159 | 486 | 404
#4:1963191 | 264 | 160 | 487 | 403
#4:1963241 | 264 | 161 | 493 | 403
#4:1963293 | 264 | 162 | 524 | 403
#4:1963345 | 264 | 163 | 515 | 402
#4:1963395 | 264 | 164 | 505 | 403
#4:1963446 | 264 | 165 | 507 | 402
#4:1963496 | 264 | 166 | 504 | 402
#4:1963545 | 264 | 167 | 488 | 402
#4:1963594 | 264 | 168 | 489 | 403
#4:1963643 | 264 | 169 | 494 | 403
#4:1963696 | 264 | 170 | 527 | 403
#4:1963748 | 264 | 171 | 515 | 403
#4:1963799 | 264 | 172 | 506 | 403
#4:1963850 | 264 | 173 | 511 | 403
#4:1963901 | 264 | 174 | 507 | 404
#4:1963950 | 265 | 175 | 493 | 404
#4:1963999 | 265 | 176 | 487 | 404
#4:1964048 | 265 | 177 | 495 | 404
#4:1964101 | 265 | 178 | 526 | 404
#4:1964153 | 265 | 179 | 517 | 404
#4:1964203 | 265 | 180 | 508 | 404
#4:1964254 | 265 | 181 | 517 | 405
#4:1964304 | 265 | 182 | 506 | 405
#4:1964354 | 265 | 183 | 490 | 404
#4:1964403 | 265 | 184 | 482 | 404
#4:1964452 | 264 | 185 | 493 | 404
#4:1964504 | 264 | 186 | 533 | 404
#4:1964554 | 265 | 187 | 521 | 405
#4:1964604 | 265 | 188 | 512 | 405
#4:1964654 | 265 | 189 | 516 | 405
#4:1964704 | 265 | 190 | 513 | 406
#4:1964754 | 265 | 191 | 488 | 406
#4:1964804 | 265 | 192 | 483 | 406
#4:1964854 | 265 | 193 | 501 | 407
#4:1964904 | 265 | 194 | 534 | 407
#4:1964954 | 265 | 195 | 524 | 407
#4:1965004 | 265 | 196 | 516 | 407
#4:1965054 | 265 | 197 | 523 | 408
#4:1965104 | 265 | 198 | 514 | 408
#4:1965154 | 265 | 199 | 498 | 409
#4:1965204 | 265 | 200 | 495 | 410
#4:1965254 | 265 | 201 | 512 | 411
#4:1965304 | 266 | 202 | 547 | 413
#4:1965354 | 266 | 203 | 533 | 413
#4:1965404 | 266 | 204 | 524 | 414
#4:1965454 | 266 | 205 | 527 | 415
#4:1965504 | 266 | 206 | 518 | 415
#4:1965554 | 266 | 207 | 501 | 416
#4:1965604 | 267 | 208 | 489 | 415
#4:1965654 | 266 | 209 | 509 | 415
#4:1965704 | 266 | 210 | 546 | 415
#4:1965754 | 266 | 211 | 531 | 414
#4:1965804 | 266 | 212 | 526 | 415
#4:1965854 | 266 | 213 | 527 | 414
#4:1965904 | 266 | 214 | 517 | 414
#4:1965954 | 266 | 215 | 496 | 414
#4:1966004 | 266 | 216 | 493 | 414
#4:1966054 | 266 | 217 | 508 | 414
#4:1966154 | 266 | 218 | 540 | 414
#4:1966204 | 266 | 219 | 531 | 414
#4:1966254 | 266 | 220 | 526 | 414
#4:1966304 | 266 | 221 | 524 | 413
#4:1966354 | 266 | 222 | 519 | 414
#4:1966404 | 266 | 223 | 503 | 414
#4:1966454 | 266 | 224 | 489 | 414
#4:1966504 | 266 | 225 | 513 | 414
#4:1966554 | 266 | 226 | 543 | 415
#4:1966604 | 266 | 227 | 532 | 415
#4:1966654 | 266 | 228 | 525 | 415
#4:1966704 | 266 | 229 | 529 | 415
#4:1966754 | 266 | 230 | 515 | 415
#4:1966804 | 266 | 231 | 495 | 414
#4:1966854 | 266 | 232 | 486 | 414
#4:1966904 | 266 | 233 | 503 | 413
#4:1966954 | 266 | 234 | 533 | 412
#4:1967004 | 266 | 235 | 519 | 410
#4:1967054 | 265 | 236 | 511 | 409
#4:1967104 | 265 | 237 | 515 | 408
#4:1967154 | 265 | 238 | 499 | 406
#4:1967204 | 265 | 239 | 481 | 405
#4:1967254 | 265 | 240 | 472 | 403
#4:1967304 | 264 | 241 | 488 | 402
#4:1967354 | 264 | 242 | 518 | 400
#4:1967404 | 264 | 243 | 506 | 399
#4:1967454 | 263 | 244 | 499 | 398
#4:1967504 | 263 | 245 | 498 | 396
#4:1967554 | 262 | 246 | 490 | 395
#4:1967604 | 262 | 247 | 470 | 394
#4:1967654 | 262 | 248 | 462 | 393
#4:1967704 | 262 | 249 | 477 | 392
#4:1967754 | 261 | 250 | 508 | 391
#4:1967804 | 261 | 251 | 497 | 390
#4:1967854 | 261 | 252 | 496 | 390
#4:1967904 | 261 | 253 | 493 | 389
#4:1967954 | 260 | 254 | 487 | 389
#4:1968004 | 260 | 255 | 469 | 389
#4:1968054 | 260 | 0 | 463 | 389
#4:1968104 | 260 | 1 | 475 | 389
#4:1968154 | 260 | 2 | 508 | 389
> !daq stop
#4:1968204 | 259 :stopped

> !drv f -100
:F -100
