> !globalvar g_carbasicfcts_cruiseTS 50
:50
> !globalvar g_carbasicfcts_cruiseKP 1000
:1000
> !globalvar g_carbasicfcts_cruiseKI 20
:20
> !daq grp 4 ~all _tics cruise_drvval hall_cnt hall_dt hall_dt8
:ok

> !daq start
:started

> !drv c 1000
:C 1000
#4:2555793 | 1000 | 97 | 43621 | 4855
#4:2555843 | 1000 | 98 | 534 | 4856
#4:2555893 | 1000 | 99 | 415 | 4846
#4:2555943 | 875 | 100 | 345 | 4828
#4:2555990 | 621 | 101 | 294 | 4804
#4:2556041 | 452 | 103 | 246 | 4705
#4:2556088 | 694 | 105 | 234 | 256
#4:2556136 | 518 | 107 | 240 | 210
#4:2556182 | 427 | 109 | 232 | 192
#4:2556229 | 404 | 111 | 231 | 188
#4:2556274 | 391 | 113 | 225 | 186
#4:2556322 | 385 | 115 | 237 | 185
#4:2556370 | 396 | 117 | 242 | 187
#4:2556443 | 411 | 120 | 239 | 191
#4:2556492 | 436 | 122 | 252 | 194
#4:2556543 | 444 | 124 | 252 | 197
#4:2556568 | 460 | 125 | 256 | 198
#4:2556620 | 471 | 127 | 254 | 200
#4:2556669 | 478 | 129 | 245 | 202
#4:2556721 | 484 | 131 | 256 | 203
#4:2556772 | 486 | 133 | 258 | 203
#4:2556823 | 484 | 135 | 252 | 203
#4:2556872 | 480 | 137 | 240 | 202
#4:2556923 | 475 | 139 | 250 | 201
#4:2556973 | 468 | 141 | 252 | 200
#4:2557022 | 462 | 143 | 246 | 199
#4:2557071 | 461 | 145 | 241 | 198
#4:2557121 | 458 | 147 | 249 | 198
#4:2557171 | 458 | 149 | 249 | 198
#4:2557222 | 463 | 151 | 252 | 199
#4:2557271 | 468 | 153 | 245 | 200
#4:2557322 | 474 | 155 | 256 | 201
#4:2557374 | 481 | 157 | 257 | 202
#4:2557425 | 483 | 159 | 253 | 203
#4:2557475 | 484 | 161 | 247 | 203
#4:2557525 | 481 | 163 | 252 | 202
#4:2557577 | 480 | 165 | 259 | 202
#4:2557627 | 475 | 167 | 249 | 201
#4:2557676 | 473 | 169 | 245 | 201
#4:2557726 | 472 | 171 | 251 | 201
#4:2557777 | 468 | 173 | 255 | 200
#4:2557827 | 467 | 175 | 246 | 200
#4:2557876 | 468 | 177 | 246 | 200
#4:2557927 | 471 | 179 | 253 | 200
#4:2557979 | 473 | 181 | 258 | 201
#4:2558030 | 479 | 183 | 252 | 202
#4:2558079 | 480 | 185 | 247 | 202
#4:2558130 | 479 | 187 | 252 | 202
#4:2558181 | 477 | 189 | 255 | 202
#4:2558231 | 473 | 191 | 248 | 201
#4:2558280 | 469 | 193 | 243 | 200
#4:2558330 | 467 | 195 | 249 | 200
#4:2558382 | 469 | 197 | 258 | 200
#4:2558432 | 472 | 199 | 251 | 201
#4:2558482 | 477 | 201 | 249 | 202
#4:2558533 | 481 | 203 | 254 | 203
#4:2558585 | 482 | 205 | 258 | 203
#4:2558636 | 481 | 207 | 249 | 203
#4:2558685 | 479 | 209 | 247 | 202
#4:2558736 | 477 | 211 | 253 | 202
#4:2558787 | 476 | 213 | 257 | 202
#4:2558837 | 474 | 215 | 246 | 201
#4:2558886 | 474 | 217 | 247 | 201
#4:2558938 | 474 | 219 | 253 | 201
#4:2558989 | 474 | 221 | 257 | 201
#4:2559038 | 471 | 223 | 247 | 201
#4:2559088 | 472 | 225 | 246 | 201
#4:2559140 | 476 | 227 | 256 | 202
#4:2559191 | 477 | 229 | 259 | 202
#4:2559241 | 479 | 231 | 250 | 202
#4:2559291 | 480 | 233 | 245 | 202
#4:2559342 | 477 | 235 | 253 | 202
#4:2559393 | 476 | 237 | 257 | 201
#4:2559443 | 475 | 239 | 248 | 201
#4:2559492 | 471 | 241 | 242 | 201
#4:2559543 | 471 | 243 | 253 | 201
#4:2559568 | 471 | 244 | 253 | 201
#4:2559619 | 473 | 246 | 255 | 201
#4:2559670 | 477 | 248 | 251 | 202
#4:2559721 | 481 | 250 | 262 | 203
#4:2559772 | 484 | 252 | 256 | 203
#4:2559823 | 486 | 254 | 256 | 204
#4:2559873 | 484 | 0 | 248 | 203
#4:2559924 | 484 | 2 | 262 | 203
#4:2559976 | 484 | 4 | 255 | 203
#4:2560027 | 484 | 6 | 255 | 203
#4:2560077 | 484 | 8 | 250 | 203
#4:2560128 | 484 | 10 | 259 | 203
#4:2560179 | 484 | 12 | 254 | 203
#4:2560230 | 481 | 14 | 254 | 203
#4:2560280 | 480 | 16 | 248 | 202
#4:2560331 | 479 | 18 | 260 | 202
#4:2560382 | 478 | 20 | 255 | 202
#4:2560433 | 478 | 22 | 254 | 202
#4:2560483 | 477 | 24 | 248 | 202
#4:2560533 | 476 | 26 | 259 | 202
#4:2560584 | 476 | 28 | 254 | 202
#4:2560635 | 476 | 30 | 253 | 202
#4:2560685 | 477 | 32 | 247 | 202
#4:2560736 | 478 | 34 | 262 | 202
#4:2560787 | 478 | 36 | 254 | 202
#4:2560838 | 477 | 38 | 252 | 202
#4:2560887 | 475 | 40 | 247 | 201
#4:2560937 | 472 | 42 | 259 | 201
#4:2560988 | 470 | 44 | 252 | 201
#4:2561039 | 470 | 46 | 253 | 201
#4:2561088 | 472 | 48 | 249 | 201
#4:2561139 | 475 | 50 | 262 | 202
#4:2561191 | 479 | 52 | 254 | 202
#4:2561242 | 482 | 54 | 256 | 203
#4:2561292 | 482 | 56 | 248 | 203
#4:2561343 | 482 | 58 | 260 | 203
#4:2561393 | 481 | 60 | 253 | 203
#4:2561420 | 479 | 61 | 257 | 202
#4:2561470 | 478 | 63 | 244 | 202
#4:2561519 | 477 | 65 | 248 | 202
#4:2561571 | 476 | 67 | 252 | 202
#4:2561622 | 475 | 69 | 255 | 202
#4:2561671 | 472 | 71 | 244 | 201
#4:2561720 | 470 | 73 | 244 | 201
#4:2561772 | 469 | 75 | 255 | 200
#4:2561823 | 470 | 77 | 257 | 200
#4:2561873 | 473 | 79 | 250 | 201
#4:2561922 | 475 | 81 | 247 | 202
#4:2561974 | 476 | 83 | 253 | 202
#4:2562025 | 475 | 85 | 256 | 202
#4:2562074 | 472 | 87 | 242 | 201
#4:2562123 | 468 | 89 | 242 | 200
#4:2562174 | 463 | 91 | 250 | 199
#4:2562224 | 459 | 93 | 250 | 198
#4:2562273 | 460 | 95 | 244 | 199
#4:2562323 | 462 | 97 | 244 | 199
#4:2562374 | 466 | 99 | 253 | 200
#4:2562425 | 471 | 101 | 256 | 201
#4:2562475 | 474 | 103 | 248 | 201
#4:2562525 | 477 | 105 | 247 | 202
#4:2562577 | 478 | 107 | 254 | 202
#4:2562628 | 478 | 109 | 256 | 202
#4:2562677 | 474 | 111 | 244 | 201
#4:2562726 | 470 | 113 | 243 | 201
#4:2562777 | 466 | 115 | 250 | 200
#4:2562828 | 464 | 117 | 255 | 199
#4:2562878 | 466 | 119 | 248 | 200
#4:2562927 | 470 | 121 | 249 | 201
#4:2562979 | 477 | 123 | 257 | 202
#4:2563031 | 484 | 125 | 263 | 203
#4:2563082 | 488 | 127 | 251 | 204
#4:2563132 | 488 | 129 | 247 | 204
#4:2563184 | 487 | 131 | 257 | 204
#4:2563235 | 483 | 133 | 259 | 203
#4:2563285 | 479 | 135 | 247 | 202
#4:2563334 | 477 | 137 | 245 | 202
#4:2563386 | 474 | 139 | 254 | 201
#4:2563437 | 476 | 141 | 259 | 202
#4:2563488 | 477 | 143 | 246 | 202
#4:2563537 | 479 | 145 | 246 | 202
#4:2563589 | 480 | 147 | 255 | 203
#4:2563640 | 479 | 149 | 260 | 202
#4:2563691 | 481 | 151 | 247 | 203
#4:2563740 | 481 | 153 | 249 | 203
#4:2563792 | 482 | 155 | 257 | 203
#4:2563818 | 482 | 156 | 254 | 203
#4:2563869 | 480 | 158 | 255 | 203
#4:2563943 | 481 | 161 | 248 | 203
#4:2563970 | 480 | 162 | 263 | 203
#4:2564021 | 480 | 164 | 254 | 203
#4:2564072 | 478 | 166 | 255 | 202
#4:2564121 | 475 | 168 | 242 | 202
#4:2564171 | 472 | 170 | 259 | 201
#4:2564222 | 469 | 172 | 248 | 200
#4:2564272 | 463 | 174 | 248 | 199
#4:2564320 | 463 | 176 | 244 | 199
#4:2564371 | 465 | 178 | 260 | 200
#4:2564423 | 469 | 180 | 255 | 200
#4:2564473 | 474 | 182 | 254 | 201
#4:2564523 | 479 | 184 | 250 | 202
#4:2564575 | 483 | 186 | 265 | 203
#4:2564626 | 483 | 188 | 256 | 203
#4:2564677 | 483 | 190 | 254 | 203
#4:2564727 | 481 | 192 | 246 | 203
#4:2564778 | 478 | 194 | 262 | 202
#4:2564829 | 475 | 196 | 254 | 202
#4:2564879 | 474 | 198 | 252 | 201
#4:2564928 | 471 | 200 | 245 | 201
#4:2564979 | 470 | 202 | 260 | 201
#4:2565030 | 470 | 204 | 252 | 200
#4:2565081 | 474 | 206 | 258 | 201
#4:2565131 | 480 | 208 | 250 | 203
#4:2565182 | 482 | 210 | 262 | 203
#4:2565233 | 485 | 212 | 256 | 204
#4:2565284 | 481 | 214 | 252 | 203
#4:2565333 | 477 | 216 | 245 | 202
#4:2565384 | 474 | 218 | 260 | 201
#4:2565435 | 470 | 220 | 250 | 201
#4:2565485 | 467 | 222 | 250 | 200
#4:2565533 | 464 | 224 | 242 | 199
#4:2565585 | 467 | 226 | 263 | 200
#4:2565636 | 473 | 228 | 256 | 201
#4:2565688 | 480 | 230 | 257 | 203
> !daq stop
#4:2565737 | 481 | 232 | 244 | 203
:stopped

> !drv f -100
:F -100
