> !globalvar g_carbasicfcts_cruiseTS 50
:50
> !globalvar g_carbasicfcts_cruiseKP 100
:100
> !globalvar g_carbasicfcts_cruiseKI 10
:10
> !daq grp 4 ~all _tics cruise_drvval hall_cnt hall_dt hall_dt8
:ok

> !daq start
:started

> !drv c 500
:C 500
#4:1428962 | 266 | 56 | 38199 | 4206
#4:1429062 | 310 | 57 | 1137 | 4285
#4:1429162 | 292 | 58 | 803 | 4325
#4:1429212 | 283 | 59 | 670 | 4348
#4:1429262 | 277 | 60 | 602 | 4360
#4:1429312 | 272 | 61 | 619 | 4364
#4:1429412 | 273 | 62 | 590 | 4353
#4:1429462 | 271 | 63 | 546 | 4316
#4:1429512 | 269 | 64 | 523 | 549
#4:1429562 | 278 | 65 | 514 | 487
#4:1429612 | 274 | 66 | 543 | 461
#4:1429662 | 271 | 67 | 534 | 447
#4:1429712 | 270 | 68 | 518 | 438
#4:1429762 | 269 | 69 | 551 | 432
#4:1429812 | 268 | 70 | 538 | 426
#4:1429862 | 268 | 71 | 511 | 423
#4:1429912 | 267 | 72 | 493 | 420
#4:1429962 | 267 | 73 | 494 | 418
#4:1430012 | 267 | 74 | 526 | 416
#4:1430062 | 267 | 75 | 519 | 415
#4:1430112 | 266 | 76 | 511 | 414
#4:1430162 | 266 | 77 | 540 | 413
#4:1430212 | 266 | 78 | 529 | 412
#4:1430262 | 266 | 79 | 505 | 412
#4:1430312 | 266 | 80 | 491 | 411
#4:1430362 | 266 | 81 | 487 | 411
#4:1430412 | 266 | 82 | 521 | 410
#4:1430462 | 266 | 83 | 515 | 410
#4:1430512 | 266 | 84 | 506 | 409
#4:1430612 | 266 | 85 | 537 | 409
#4:1430662 | 266 | 86 | 523 | 408
#4:1430712 | 266 | 87 | 497 | 408
#4:1430762 | 266 | 88 | 484 | 407
#4:1430812 | 266 | 89 | 478 | 406
#4:1430862 | 266 | 90 | 506 | 405
#4:1430912 | 266 | 91 | 499 | 403
#4:1430962 | 266 | 92 | 495 | 402
#4:1431012 | 266 | 93 | 518 | 400
#4:1431062 | 265 | 94 | 511 | 399
#4:1431112 | 265 | 95 | 483 | 397
#4:1431160 | 265 | 96 | 468 | 396
#4:1431207 | 265 | 97 | 467 | 395
#4:1431257 | 265 | 98 | 500 | 394
#4:1431306 | 265 | 99 | 492 | 393
#4:1431354 | 264 | 100 | 482 | 392
#4:1431406 | 264 | 101 | 513 | 392
#4:1431456 | 264 | 102 | 500 | 390
#4:1431503 | 264 | 103 | 478 | 390
#4:1431550 | 263 | 104 | 463 | 389
#4:1431596 | 263 | 105 | 463 | 389
#4:1431646 | 263 | 106 | 493 | 388
#4:1431694 | 263 | 107 | 487 | 388
#4:1431743 | 263 | 108 | 482 | 388
#4:1431793 | 263 | 109 | 505 | 387
#4:1431843 | 263 | 110 | 499 | 387
#4:1431891 | 263 | 111 | 475 | 387
#4:1431937 | 263 | 112 | 466 | 387
#4:1431984 | 263 | 113 | 464 | 387
#4:1432033 | 263 | 114 | 495 | 387
#4:1432082 | 263 | 115 | 489 | 387
#4:1432131 | 263 | 116 | 487 | 388
#4:1432182 | 263 | 117 | 505 | 388
#4:1432232 | 263 | 118 | 504 | 388
#4:1432281 | 263 | 119 | 484 | 389
#4:1432328 | 263 | 120 | 472 | 390
#4:1432375 | 263 | 121 | 472 | 391
#4:1432425 | 263 | 122 | 503 | 392
#4:1432476 | 264 | 123 | 505 | 393
#4:1432526 | 264 | 124 | 501 | 395
#4:1432578 | 264 | 125 | 518 | 396
#4:1432629 | 264 | 126 | 512 | 397
#4:1432679 | 264 | 127 | 497 | 398
#4:1432727 | 264 | 128 | 481 | 399
#4:1432775 | 264 | 129 | 478 | 400
#4:1432826 | 265 | 130 | 510 | 400
#4:1432877 | 265 | 131 | 505 | 400
#4:1432927 | 265 | 132 | 506 | 401
#4:1432979 | 265 | 133 | 517 | 401
#4:1433031 | 265 | 134 | 514 | 401
#4:1433080 | 265 | 135 | 496 | 401
#4:1433129 | 265 | 136 | 481 | 401
#4:1433177 | 265 | 137 | 480 | 401
#4:1433228 | 265 | 138 | 514 | 401
#4:1433279 | 265 | 139 | 505 | 401
#4:1433329 | 265 | 140 | 506 | 401
#4:1433382 | 265 | 141 | 523 | 402
#4:1433433 | 265 | 142 | 511 | 402
#4:1433482 | 265 | 143 | 491 | 401
#4:1433530 | 265 | 144 | 481 | 401
#4:1433578 | 265 | 145 | 478 | 401
#4:1433629 | 265 | 146 | 509 | 400
#4:1433679 | 265 | 147 | 504 | 400
#4:1433729 | 264 | 148 | 493 | 399
#4:1433781 | 264 | 149 | 522 | 399
#4:1433832 | 264 | 150 | 514 | 399
#4:1433882 | 264 | 151 | 494 | 399
#4:1433930 | 264 | 152 | 480 | 399
#4:1433977 | 264 | 153 | 472 | 399
#4:1434028 | 264 | 154 | 505 | 398
#4:1434078 | 264 | 155 | 501 | 398
#4:1434127 | 264 | 156 | 496 | 398
#4:1434179 | 264 | 157 | 518 | 398
#4:1434231 | 264 | 158 | 512 | 398
#4:1434280 | 264 | 159 | 493 | 398
#4:1434328 | 264 | 160 | 482 | 398
#4:1434376 | 264 | 161 | 477 | 398
#4:1434427 | 264 | 162 | 511 | 399
#4:1434478 | 264 | 163 | 508 | 400
#4:1434529 | 265 | 164 | 506 | 401
#4:1434581 | 265 | 165 | 522 | 401
#4:1434633 | 265 | 166 | 517 | 402
#4:1434682 | 265 | 167 | 498 | 402
#4:1434731 | 265 | 168 | 483 | 402
#4:1434778 | 265 | 169 | 475 | 402
#4:1434829 | 265 | 170 | 510 | 402
#4:1434879 | 265 | 171 | 501 | 401
#4:1434930 | 265 | 172 | 507 | 401
#4:1434982 | 265 | 173 | 518 | 401
#4:1435033 | 264 | 174 | 508 | 400
#4:1435082 | 264 | 175 | 494 | 399
#4:1435130 | 264 | 176 | 479 | 399
#4:1435177 | 264 | 177 | 471 | 399
#4:1435228 | 264 | 178 | 503 | 398
#4:1435277 | 264 | 179 | 497 | 397
#4:1435327 | 264 | 180 | 499 | 397
#4:1435379 | 264 | 181 | 515 | 396
#4:1435430 | 264 | 182 | 512 | 397
#4:1435479 | 264 | 183 | 492 | 397
#4:1435527 | 264 | 184 | 479 | 397
#4:1435575 | 264 | 185 | 475 | 397
#4:1435626 | 264 | 186 | 507 | 397
#4:1435676 | 264 | 187 | 502 | 398
#4:1435726 | 264 | 188 | 498 | 398
#4:1435779 | 264 | 189 | 526 | 399
#4:1435830 | 264 | 190 | 518 | 400
#4:1435881 | 265 | 191 | 504 | 401
#4:1435930 | 265 | 192 | 489 | 402
#4:1435978 | 265 | 193 | 480 | 402
#4:1436029 | 265 | 194 | 512 | 403
#4:1436080 | 265 | 195 | 505 | 403
#4:1436130 | 265 | 196 | 504 | 404
#4:1436182 | 265 | 197 | 516 | 403
#4:1436233 | 265 | 198 | 514 | 402
#4:1436283 | 265 | 199 | 497 | 402
#4:1436331 | 265 | 200 | 485 | 401
#4:1436379 | 265 | 201 | 478 | 401
#4:1436431 | 265 | 202 | 514 | 401
#4:1436481 | 265 | 203 | 503 | 401
#4:1436531 | 265 | 204 | 503 | 401
#4:1436583 | 265 | 205 | 520 | 401
#4:1436635 | 265 | 206 | 512 | 401
#4:1436684 | 265 | 207 | 493 | 401
#4:1436732 | 264 | 208 | 476 | 400
#4:1436779 | 264 | 209 | 471 | 399
#4:1436829 | 264 | 210 | 501 | 398
#4:1436879 | 264 | 211 | 497 | 397
#4:1436929 | 264 | 212 | 498 | 397
#4:1436980 | 264 | 213 | 508 | 396
#4:1437030 | 264 | 214 | 501 | 394
#4:1437078 | 264 | 215 | 486 | 394
#4:1437125 | 264 | 216 | 472 | 393
#4:1437172 | 264 | 217 | 468 | 393
#4:1437222 | 264 | 218 | 497 | 393
#4:1437271 | 263 | 219 | 491 | 392
#4:1437321 | 263 | 220 | 492 | 391
#4:1437371 | 263 | 221 | 506 | 391
#4:1437421 | 263 | 222 | 496 | 391
#4:1437469 | 263 | 223 | 482 | 390
#4:1437562 | 263 | 225 | 463 | 390
#4:1437612 | 263 | 226 | 496 | 389
#4:1437661 | 263 | 227 | 488 | 389
#4:1437710 | 263 | 228 | 495 | 389
#4:1437761 | 263 | 229 | 502 | 389
#4:1437810 | 263 | 230 | 492 | 389
#4:1437858 | 263 | 231 | 482 | 389
#4:1437905 | 263 | 232 | 466 | 388
#4:1437951 | 263 | 233 | 465 | 389
#4:1438001 | 263 | 234 | 497 | 389
#4:1438050 | 263 | 235 | 491 | 389
#4:1438100 | 263 | 236 | 493 | 389
#4:1438150 | 263 | 237 | 498 | 388
#4:1438200 | 263 | 238 | 505 | 390
#4:1438249 | 263 | 239 | 487 | 390
#4:1438296 | 263 | 240 | 472 | 391
#4:1438343 | 263 | 241 | 469 | 391
#4:1438393 | 263 | 242 | 498 | 391
#4:1438442 | 263 | 243 | 490 | 391
#4:1438492 | 263 | 244 | 497 | 392
#4:1438541 | 263 | 245 | 497 | 391
#4:1438593 | 263 | 246 | 510 | 392
#4:1438642 | 264 | 247 | 496 | 393
#4:1438690 | 264 | 248 | 480 | 394
#4:1438738 | 264 | 249 | 482 | 395
> !daq stop
#4:1438789 | 264 | 250 | 507 | 396
:stopped

> !drv f -100
:F -100
