> !globalvar g_carbasicfcts_cruiseTS 50
:50
> !globalvar g_carbasicfcts_cruiseKP 2000
:2000
> !globalvar g_carbasicfcts_cruiseKI 5
:5
> !daq grp 4 ~all _tics cruise_drvval hall_cnt hall_dt hall_dt8
:ok

> !daq start
:started

> !drv c 500
:C 500
#4:4293297 | 345 | 174 | 37471 | 4155
#4:4293397 | 1000 | 175 | 939 | 4210
#4:4293439 | 59 | 176 | 422 | 4212
#4:4293474 | 0 | 177 | 354 | 4203
#4:4293545 | 0 | 179 | 365 | 4162
#4:4293581 | 0 | 180 | 359 | 4126
#4:4293616 | 0 | 181 | 357 | 4060
#4:4293656 | 109 | 182 | 393 | 352
#4:4293744 | 0 | 184 | 459 | 305
#4:4293795 | 0 | 185 | 505 | 320
#4:4293847 | 0 | 186 | 605 | 347
#4:4293897 | 91 | 187 | 730 | 383
#4:4293997 | 203 | 188 | 917 | 439
#4:4294097 | 337 | 189 | 876 | 491
#4:4294147 | 435 | 190 | 708 | 523
#4:4294197 | 485 | 191 | 548 | 535
#4:4294247 | 503 | 192 | 458 | 535
#4:4294297 | 503 | 193 | 409 | 525
#4:4294347 | 489 | 194 | 391 | 504
#4:4294395 | 391 | 195 | 355 | 466
#4:4294429 | 267 | 196 | 336 | 408
#4:4294495 | 0 | 198 | 324 | 315
#4:4294527 | 0 | 199 | 324 | 293
#4:4294596 | 0 | 201 | 367 | 275
#4:4294636 | 0 | 202 | 396 | 276
#4:4294679 | 0 | 203 | 433 | 284
#4:4294726 | 0 | 204 | 468 | 297
#4:4294780 | 0 | 205 | 537 | 317
#4:4294843 | 95 | 206 | 635 | 348
#4:4294897 | 95 | 207 | 789 | 395
#4:4294997 | 233 | 208 | 959 | 458
#4:4295097 | 375 | 209 | 850 | 507
#4:4295147 | 461 | 210 | 700 | 537
#4:4295197 | 507 | 211 | 548 | 548
#4:4295247 | 523 | 212 | 462 | 548
#4:4295297 | 521 | 213 | 409 | 535
#4:4295347 | 503 | 214 | 370 | 509
#4:4295386 | 385 | 215 | 336 | 463
#4:4295418 | 243 | 216 | 314 | 399
#4:4295482 | 0 | 218 | 329 | 308
#4:4295515 | 0 | 219 | 327 | 286
#4:4295585 | 0 | 221 | 373 | 269
#4:4295623 | 0 | 222 | 379 | 270
#4:4295663 | 0 | 223 | 399 | 276
#4:4295706 | 0 | 224 | 432 | 288
#4:4295757 | 0 | 225 | 502 | 307
#4:4295818 | 49 | 226 | 610 | 335
#4:4295892 | 183 | 227 | 738 | 376
#4:4295947 | 183 | 228 | 918 | 435
#4:4296047 | 329 | 229 | 893 | 487
#4:4296097 | 429 | 230 | 687 | 518
#4:4296147 | 479 | 231 | 532 | 531
#4:4296197 | 497 | 232 | 450 | 533
#4:4296247 | 501 | 233 | 407 | 523
#4:4296297 | 487 | 234 | 394 | 502
#4:4296347 | 453 | 235 | 359 | 464
#4:4296390 | 261 | 236 | 337 | 406
#4:4296423 | 99 | 237 | 331 | 350
#4:4296488 | 0 | 239 | 319 | 292
#4:4296520 | 0 | 240 | 326 | 280
#4:4296596 | 0 | 242 | 399 | 276
#4:4296638 | 0 | 243 | 414 | 281
#4:4296682 | 0 | 244 | 449 | 292
#4:4296733 | 0 | 245 | 504 | 310
#4:4296790 | 43 | 246 | 565 | 333
#4:4296847 | 43 | 247 | 671 | 369
#4:4296897 | 159 | 248 | 809 | 417
#4:4296997 | 287 | 249 | 905 | 472
#4:4297097 | 401 | 250 | 779 | 510
#4:4297147 | 465 | 251 | 600 | 528
#4:4297197 | 493 | 252 | 497 | 533
#4:4297247 | 501 | 253 | 436 | 526
#4:4297297 | 491 | 254 | 390 | 509
#4:4297333 | 409 | 255 | 347 | 476
#4:4297367 | 313 | 0 | 331 | 428
#4:4297432 | 13 | 2 | 335 | 326
#4:4297465 | 0 | 3 | 332 | 299
#4:4297533 | 0 | 5 | 342 | 273
#4:4297571 | 0 | 6 | 383 | 272
#4:4297610 | 0 | 7 | 387 | 276
#4:4297652 | 0 | 8 | 419 | 285
#4:4297699 | 0 | 9 | 471 | 300
#4:4297755 | 1 | 10 | 557 | 322
#4:4297821 | 119 | 11 | 664 | 355
#4:4297897 | 119 | 12 | 839 | 406
#4:4297997 | 261 | 13 | 1049 | 477
#4:4298097 | 411 | 14 | 875 | 526
#4:4298147 | 491 | 15 | 631 | 550
#4:4298197 | 525 | 16 | 520 | 561
#4:4298247 | 539 | 17 | 448 | 558
#4:4298297 | 535 | 18 | 413 | 544
#4:4298336 | 471 | 19 | 364 | 514
#4:4298369 | 385 | 20 | 337 | 464
#4:4298433 | 49 | 22 | 314 | 335
#4:4298493 | 0 | 24 | 302 | 280
#4:4298525 | 0 | 25 | 314 | 267
#4:4298597 | 0 | 27 | 362 | 261
#4:4298636 | 0 | 28 | 384 | 266
#4:4298678 | 0 | 29 | 423 | 276
#4:4298723 | 0 | 30 | 449 | 290
#4:4298773 | 0 | 31 | 497 | 309
#4:4298830 | 50 | 32 | 565 | 335
#4:4298897 | 50 | 33 | 691 | 373
#4:4298947 | 172 | 34 | 877 | 425
#4:4299047 | 304 | 35 | 922 | 481
#4:4299147 | 416 | 36 | 701 | 512
#4:4299197 | 468 | 37 | 558 | 526
#4:4299247 | 488 | 38 | 468 | 528
#4:4299292 | 478 | 39 | 406 | 519
#4:4299329 | 449 | 40 | 368 | 499
#4:4299364 | 387 | 41 | 348 | 465
#4:4299432 | 109 | 43 | 328 | 352
#4:4299497 | 0 | 45 | 326 | 292
#4:4299530 | 0 | 46 | 331 | 278
#4:4299566 | 0 | 47 | 355 | 273
#4:4299641 | 0 | 49 | 395 | 277
#4:4299686 | 0 | 50 | 449 | 287
#4:4299737 | 0 | 51 | 508 | 305
#4:4299795 | 28 | 52 | 575 | 330
#4:4299847 | 28 | 53 | 715 | 369
#4:4299947 | 160 | 54 | 872 | 423
#4:4300047 | 300 | 55 | 978 | 485
#4:4300097 | 424 | 56 | 793 | 528
#4:4300147 | 492 | 57 | 601 | 549
#4:4300197 | 522 | 58 | 511 | 555
#4:4300247 | 530 | 59 | 428 | 547
#4:4300297 | 520 | 60 | 377 | 527
#4:4300347 | 492 | 61 | 349 | 491
#4:4300390 | 330 | 62 | 328 | 436
#4:4300421 | 160 | 63 | 304 | 369
#4:4300482 | 0 | 65 | 311 | 291
#4:4300515 | 0 | 66 | 331 | 273
#4:4300585 | 0 | 68 | 363 | 262
#4:4300622 | 0 | 69 | 375 | 265
#4:4300663 | 0 | 70 | 402 | 272
#4:4300705 | 0 | 71 | 427 | 284
#4:4300752 | 0 | 72 | 470 | 301
#4:4300807 | 10 | 73 | 549 | 325
#4:4300877 | 136 | 74 | 692 | 361
#4:4300947 | 136 | 75 | 885 | 416
#4:4301047 | 284 | 76 | 980 | 478
#4:4301097 | 412 | 77 | 805 | 521
#4:4301197 | 482 | 78 | 607 | 542
#4:4301247 | 512 | 79 | 479 | 547
#4:4301293 | 510 | 80 | 409 | 541
#4:4301331 | 484 | 81 | 373 | 523
#4:4301368 | 434 | 82 | 370 | 491
#4:4301434 | 162 | 84 | 315 | 370
#4:4301496 | 0 | 86 | 310 | 291
#4:4301527 | 0 | 87 | 304 | 274
#4:4301595 | 0 | 89 | 350 | 264
#4:4301633 | 0 | 90 | 381 | 265
#4:4301675 | 0 | 91 | 419 | 272
#4:4301720 | 0 | 92 | 451 | 286
#4:4301771 | 0 | 93 | 506 | 305
#4:4301829 | 36 | 94 | 576 | 332
#4:4301895 | 158 | 95 | 669 | 368
#4:4301947 | 158 | 96 | 848 | 420
#4:4302047 | 294 | 97 | 887 | 474
#4:4302097 | 404 | 98 | 752 | 511
#4:4302197 | 466 | 99 | 590 | 528
#4:4302247 | 492 | 100 | 485 | 531
#4:4302295 | 486 | 101 | 433 | 524
#4:4302333 | 456 | 102 | 384 | 505
#4:4302368 | 402 | 103 | 346 | 472
#4:4302433 | 144 | 105 | 321 | 364
#4:4302467 | 0 | 106 | 339 | 323
#4:4302534 | 0 | 108 | 337 | 282
#4:4302572 | 0 | 109 | 372 | 276
#4:4302610 | 0 | 110 | 380 | 276
#4:4302692 | 0 | 112 | 434 | 291
#4:4302742 | 0 | 113 | 498 | 308
#4:4302797 | 0 | 114 | 624 | 337
#4:4302847 | 53 | 115 | 800 | 384
#4:4302947 | 201 | 116 | 1027 | 453
#4:4303047 | 364 | 117 | 908 | 506
> !daq stop
#4:4303097 | 458 | 118 | 643 | 532
:stopped

> !drv f -100
:F -100
