> !globalvar g_carbasicfcts_cruiseTS 50
:50
> !globalvar g_carbasicfcts_cruiseKP 200
:200
> !globalvar g_carbasicfcts_cruiseKI 500
:500
> !daq grp 4 ~all _tics cruise_drvval hall_cnt hall_dt hall_dt8
:ok

> !daq start
:started

> !drv c 1000
:C 1000
#4:2019884 | 627 | 30 | 44260 | 4850
#4:2019984 | 751 | 31 | 813 | 4881
#4:2020034 | 714 | 32 | 458 | 4877
#4:2020084 | 676 | 33 | 370 | 4862
#4:2020120 | 645 | 34 | 344 | 4842
#4:2020180 | 617 | 36 | 285 | 4777
#4:2020233 | 674 | 38 | 262 | 311
#4:2020282 | 632 | 40 | 238 | 232
#4:2020330 | 612 | 42 | 243 | 209
#4:2020376 | 599 | 44 | 227 | 195
#4:2020420 | 586 | 46 | 221 | 186
#4:2020484 | 576 | 49 | 212 | 178
#4:2020528 | 563 | 51 | 219 | 175
#4:2020571 | 557 | 53 | 216 | 173
#4:2020634 | 550 | 56 | 207 | 171
#4:2020677 | 544 | 58 | 221 | 171
#4:2020721 | 539 | 60 | 215 | 171
#4:2020764 | 534 | 62 | 215 | 171
#4:2020827 | 529 | 65 | 209 | 171
#4:2020871 | 524 | 67 | 218 | 171
#4:2020914 | 519 | 69 | 218 | 171
#4:2020978 | 515 | 72 | 210 | 171
#4:2021021 | 511 | 74 | 225 | 172
#4:2021066 | 507 | 76 | 220 | 173
#4:2021131 | 504 | 79 | 210 | 174
#4:2021173 | 500 | 81 | 215 | 174
#4:2021219 | 497 | 83 | 225 | 175
#4:2021264 | 494 | 85 | 226 | 176
#4:2021329 | 491 | 88 | 217 | 177
#4:2021375 | 489 | 90 | 235 | 178
#4:2021422 | 487 | 92 | 231 | 180
#4:2021468 | 486 | 94 | 232 | 182
#4:2021513 | 485 | 96 | 225 | 183
#4:2021561 | 484 | 98 | 244 | 185
#4:2021633 | 485 | 101 | 243 | 187
#4:2021680 | 485 | 103 | 230 | 189
#4:2021726 | 484 | 105 | 233 | 190
#4:2021776 | 482 | 107 | 245 | 190
#4:2021824 | 482 | 109 | 246 | 191
#4:2021872 | 480 | 111 | 235 | 192
#4:2021919 | 480 | 113 | 236 | 192
#4:2021970 | 479 | 115 | 249 | 193
#4:2022019 | 479 | 117 | 249 | 194
#4:2022068 | 478 | 119 | 237 | 195
#4:2022115 | 477 | 121 | 239 | 196
#4:2022166 | 478 | 123 | 250 | 196
#4:2022216 | 477 | 125 | 250 | 196
#4:2022265 | 477 | 127 | 238 | 196
#4:2022312 | 476 | 129 | 238 | 197
#4:2022363 | 476 | 131 | 251 | 197
#4:2022413 | 475 | 133 | 249 | 196
#4:2022461 | 475 | 135 | 236 | 196
#4:2022509 | 474 | 137 | 241 | 197
#4:2022560 | 474 | 139 | 250 | 196
#4:2022610 | 473 | 141 | 251 | 197
#4:2022683 | 474 | 144 | 236 | 197
#4:2022733 | 473 | 146 | 257 | 197
#4:2022783 | 473 | 148 | 250 | 197
#4:2022833 | 472 | 150 | 248 | 197
#4:2022880 | 472 | 152 | 234 | 197
#4:2022930 | 470 | 154 | 257 | 197
#4:2022980 | 470 | 156 | 250 | 196
#4:2023030 | 470 | 158 | 249 | 197
#4:2023078 | 470 | 160 | 236 | 197
#4:2023129 | 470 | 162 | 264 | 198
#4:2023180 | 472 | 164 | 259 | 200
#4:2023232 | 473 | 166 | 254 | 201
#4:2023280 | 474 | 168 | 242 | 202
#4:2023332 | 474 | 170 | 265 | 203
#4:2023383 | 474 | 172 | 257 | 202
#4:2023434 | 474 | 174 | 251 | 202
#4:2023482 | 473 | 176 | 237 | 201
#4:2023532 | 472 | 178 | 260 | 200
#4:2023583 | 471 | 180 | 250 | 199
#4:2023633 | 470 | 182 | 251 | 199
#4:2023681 | 469 | 184 | 235 | 199
#4:2023732 | 469 | 186 | 263 | 199
#4:2023783 | 470 | 188 | 256 | 200
#4:2023809 | 470 | 189 | 261 | 201
#4:2023883 | 471 | 192 | 241 | 201
#4:2023934 | 472 | 194 | 264 | 202
#4:2023960 | 472 | 195 | 261 | 202
#4:2024012 | 472 | 197 | 257 | 202
#4:2024062 | 472 | 199 | 244 | 202
#4:2024110 | 471 | 201 | 243 | 201
#4:2024162 | 471 | 203 | 258 | 201
#4:2024213 | 471 | 205 | 258 | 201
#4:2024263 | 471 | 207 | 244 | 201
#4:2024311 | 471 | 209 | 245 | 201
#4:2024364 | 472 | 211 | 262 | 202
#4:2024417 | 472 | 213 | 262 | 202
#4:2024466 | 472 | 215 | 244 | 203
#4:2024515 | 473 | 217 | 246 | 203
#4:2024567 | 472 | 219 | 259 | 202
#4:2024618 | 471 | 221 | 256 | 201
#4:2024667 | 470 | 223 | 241 | 200
#4:2024716 | 470 | 225 | 245 | 200
#4:2024768 | 470 | 227 | 261 | 201
#4:2024820 | 471 | 229 | 258 | 202
#4:2024870 | 473 | 231 | 247 | 203
#4:2024920 | 474 | 233 | 250 | 204
#4:2024973 | 474 | 235 | 264 | 204
#4:2025025 | 476 | 237 | 259 | 205
#4:2025075 | 475 | 239 | 242 | 204
#4:2025123 | 475 | 241 | 245 | 203
#4:2025175 | 474 | 243 | 256 | 202
#4:2025227 | 473 | 245 | 259 | 202
#4:2025277 | 474 | 247 | 244 | 202
#4:2025325 | 473 | 249 | 245 | 202
#4:2025377 | 473 | 251 | 257 | 202
#4:2025428 | 473 | 253 | 256 | 201
#4:2025478 | 472 | 255 | 242 | 201
#4:2025526 | 472 | 1 | 243 | 200
#4:2025577 | 471 | 3 | 254 | 200
#4:2025628 | 470 | 5 | 255 | 200
#4:2025678 | 470 | 7 | 243 | 200
#4:2025726 | 469 | 9 | 240 | 200
#4:2025779 | 471 | 11 | 264 | 201
#4:2025831 | 472 | 13 | 260 | 202
#4:2025881 | 473 | 15 | 244 | 203
#4:2025930 | 473 | 17 | 240 | 203
#4:2025982 | 472 | 19 | 258 | 202
#4:2026033 | 471 | 21 | 255 | 201
#4:2026082 | 470 | 23 | 241 | 200
#4:2026130 | 469 | 25 | 235 | 200
#4:2026182 | 470 | 27 | 261 | 200
#4:2026234 | 470 | 29 | 262 | 200
#4:2026284 | 471 | 31 | 246 | 202
#4:2026333 | 473 | 33 | 244 | 203
#4:2026360 | 473 | 34 | 266 | 203
#4:2026412 | 473 | 36 | 260 | 204
#4:2026464 | 474 | 38 | 256 | 204
#4:2026513 | 474 | 40 | 241 | 204
#4:2026563 | 474 | 42 | 259 | 203
#4:2026614 | 472 | 44 | 252 | 201
#4:2026665 | 471 | 46 | 249 | 200
#4:2026712 | 469 | 48 | 235 | 199
#4:2026761 | 467 | 50 | 254 | 198
#4:2026812 | 467 | 52 | 251 | 197
#4:2026862 | 466 | 54 | 249 | 197
#4:2026934 | 466 | 57 | 237 | 198
#4:2026959 | 465 | 58 | 256 | 198
#4:2027010 | 466 | 60 | 252 | 198
#4:2027061 | 466 | 62 | 253 | 199
#4:2027133 | 466 | 65 | 239 | 199
#4:2027159 | 465 | 66 | 257 | 199
#4:2027211 | 466 | 68 | 255 | 200
#4:2027262 | 466 | 70 | 254 | 200
#4:2027311 | 466 | 72 | 241 | 201
#4:2027361 | 467 | 74 | 260 | 201
#4:2027413 | 467 | 76 | 256 | 201
#4:2027464 | 468 | 78 | 255 | 202
#4:2027513 | 468 | 80 | 242 | 202
#4:2027564 | 468 | 82 | 264 | 203
#4:2027616 | 469 | 84 | 261 | 203
#4:2027669 | 470 | 86 | 257 | 204
#4:2027718 | 471 | 88 | 246 | 205
#4:2027770 | 472 | 90 | 266 | 205
#4:2027823 | 473 | 92 | 264 | 206
#4:2027875 | 474 | 94 | 259 | 206
#4:2027924 | 474 | 96 | 243 | 206
#4:2027975 | 474 | 98 | 263 | 205
#4:2028028 | 473 | 100 | 261 | 204
#4:2028079 | 473 | 102 | 253 | 204
#4:2028128 | 473 | 104 | 241 | 203
#4:2028178 | 472 | 106 | 256 | 202
#4:2028230 | 471 | 108 | 259 | 201
#4:2028281 | 471 | 110 | 251 | 201
#4:2028329 | 470 | 112 | 237 | 201
#4:2028379 | 470 | 114 | 262 | 201
#4:2028431 | 471 | 116 | 262 | 201
#4:2028483 | 472 | 118 | 254 | 202
#4:2028532 | 472 | 120 | 241 | 203
#4:2028582 | 472 | 122 | 256 | 203
#4:2028634 | 472 | 124 | 258 | 202
#4:2028660 | 471 | 125 | 259 | 202
#4:2028733 | 471 | 128 | 239 | 201
#4:2028783 | 471 | 130 | 259 | 201
#4:2028809 | 471 | 131 | 261 | 201
#4:2028862 | 471 | 133 | 265 | 202
#4:2028912 | 472 | 135 | 249 | 203
#4:2028961 | 473 | 137 | 245 | 204
#4:2029014 | 474 | 139 | 261 | 204
#4:2029067 | 474 | 141 | 267 | 204
#4:2029117 | 475 | 143 | 246 | 204
#4:2029165 | 475 | 145 | 244 | 204
#4:2029217 | 475 | 147 | 258 | 203
#4:2029269 | 474 | 149 | 261 | 202
#4:2029319 | 473 | 151 | 242 | 202
#4:2029367 | 473 | 153 | 243 | 201
#4:2029418 | 473 | 155 | 258 | 201
#4:2029470 | 472 | 157 | 259 | 200
#4:2029520 | 472 | 159 | 242 | 200
#4:2029568 | 472 | 161 | 241 | 200
#4:2029619 | 472 | 163 | 256 | 200
#4:2029670 | 470 | 165 | 257 | 199
#4:2029719 | 470 | 167 | 239 | 199
#4:2029768 | 469 | 169 | 241 | 200
> !daq stop
#4:2029819 | 469 | 171 | 255 | 200
:stopped

> !drv f -100
:F -100
