> !globalvar g_carbasicfcts_cruiseTS 50
:50
> !globalvar g_carbasicfcts_cruiseKP 0
:0
> !globalvar g_carbasicfcts_cruiseKI 0
:0
> !daq grp 4 ~all _tics cruise_drvval hall_cnt hall_dt hall_dt8
:ok

> !daq start
:started

> !drv c 1000
:C 1000
#4:650755 | 485 | 142 | 48223 | 5327
#4:650805 | 485 | 143 | 606 | 5342
#4:650855 | 485 | 144 | 453 | 5342
#4:650905 | 485 | 145 | 390 | 5336
#4:650955 | 485 | 146 | 380 | 5319
#4:650995 | 485 | 147 | 351 | 5291
#4:651029 | 485 | 148 | 336 | 5240
#4:651092 | 485 | 150 | 308 | 315
#4:651148 | 485 | 152 | 274 | 265
#4:651203 | 485 | 154 | 279 | 242
#4:651230 | 485 | 155 | 268 | 234
#4:651284 | 485 | 157 | 275 | 223
#4:651336 | 485 | 159 | 253 | 215
#4:651385 | 485 | 161 | 242 | 210
#4:651436 | 485 | 163 | 252 | 206
#4:651488 | 485 | 165 | 260 | 203
#4:651538 | 485 | 167 | 243 | 201
#4:651585 | 485 | 169 | 233 | 199
#4:651634 | 485 | 171 | 245 | 197
#4:651685 | 485 | 173 | 254 | 196
#4:651733 | 485 | 175 | 238 | 195
#4:651804 | 485 | 178 | 247 | 194
#4:651853 | 485 | 180 | 246 | 193
#4:651903 | 485 | 182 | 245 | 193
#4:651949 | 485 | 184 | 228 | 192
#4:651996 | 485 | 186 | 242 | 191
#4:652044 | 485 | 188 | 241 | 190
#4:652093 | 485 | 190 | 240 | 189
#4:652138 | 485 | 192 | 224 | 188
#4:652184 | 485 | 194 | 236 | 188
#4:652232 | 485 | 196 | 239 | 187
#4:652302 | 485 | 199 | 227 | 186
#4:652347 | 485 | 201 | 220 | 186
#4:652394 | 485 | 203 | 233 | 186
#4:652442 | 485 | 205 | 242 | 185
#4:652488 | 485 | 207 | 226 | 185
#4:652555 | 485 | 210 | 231 | 184
#4:652601 | 485 | 212 | 233 | 184
#4:652649 | 485 | 214 | 235 | 183
#4:652693 | 485 | 216 | 218 | 183
#4:652738 | 485 | 218 | 231 | 183
#4:652785 | 485 | 220 | 233 | 183
#4:652833 | 485 | 222 | 235 | 183
#4:652900 | 485 | 225 | 219 | 184
#4:652946 | 485 | 227 | 232 | 184
#4:652995 | 485 | 229 | 244 | 185
#4:653041 | 485 | 231 | 228 | 185
#4:653086 | 485 | 233 | 221 | 186
#4:653133 | 485 | 235 | 234 | 186
#4:653182 | 485 | 237 | 247 | 187
#4:653252 | 485 | 240 | 226 | 188
#4:653298 | 485 | 242 | 238 | 188
#4:653346 | 485 | 244 | 240 | 189
#4:653395 | 485 | 246 | 244 | 189
#4:653441 | 485 | 248 | 227 | 189
#4:653488 | 485 | 250 | 240 | 189
#4:653536 | 485 | 252 | 242 | 189
#4:653585 | 485 | 254 | 242 | 189
#4:653653 | 485 | 1 | 223 | 189
#4:653701 | 485 | 3 | 236 | 189
#4:653749 | 485 | 5 | 246 | 188
#4:653797 | 485 | 7 | 231 | 188
#4:653842 | 485 | 9 | 224 | 188
#4:653889 | 485 | 11 | 235 | 188
#4:653938 | 485 | 13 | 248 | 188
#4:653986 | 485 | 15 | 233 | 188
#4:654055 | 485 | 18 | 241 | 189
#4:654103 | 485 | 20 | 241 | 189
#4:654152 | 485 | 22 | 246 | 190
#4:654199 | 485 | 24 | 227 | 190
#4:654246 | 485 | 26 | 243 | 190
#4:654293 | 485 | 28 | 241 | 190
#4:654343 | 485 | 30 | 245 | 190
#4:654389 | 485 | 32 | 225 | 190
#4:654436 | 485 | 34 | 242 | 190
#4:654484 | 485 | 36 | 241 | 190
#4:654533 | 485 | 38 | 242 | 189
#4:654601 | 485 | 41 | 224 | 189
#4:654649 | 485 | 43 | 238 | 189
#4:654698 | 485 | 45 | 247 | 189
#4:654746 | 485 | 47 | 231 | 189
#4:654791 | 485 | 49 | 225 | 189
#4:654839 | 485 | 51 | 237 | 189
#4:654888 | 485 | 53 | 247 | 189
#4:654936 | 485 | 55 | 235 | 189
#4:655005 | 485 | 58 | 241 | 190
#4:655053 | 485 | 60 | 241 | 190
#4:655102 | 485 | 62 | 244 | 190
#4:655148 | 485 | 64 | 226 | 189
#4:655195 | 485 | 66 | 240 | 189
#4:655243 | 485 | 68 | 240 | 189
#4:655291 | 485 | 70 | 242 | 189
#4:655337 | 485 | 72 | 226 | 189
#4:655385 | 485 | 74 | 242 | 189
#4:655433 | 485 | 76 | 243 | 190
#4:655505 | 485 | 79 | 234 | 190
#4:655552 | 485 | 81 | 230 | 191
#4:655600 | 485 | 83 | 241 | 191
#4:655649 | 485 | 85 | 250 | 191
#4:655698 | 485 | 87 | 237 | 192
#4:655744 | 485 | 89 | 230 | 192
#4:655793 | 485 | 91 | 242 | 192
#4:655842 | 485 | 93 | 250 | 192
#4:655890 | 485 | 95 | 235 | 192
#4:655937 | 485 | 97 | 231 | 192
#4:655985 | 485 | 99 | 240 | 192
#4:656034 | 485 | 101 | 250 | 192
#4:656105 | 485 | 104 | 233 | 191
#4:656153 | 485 | 106 | 242 | 191
#4:656200 | 485 | 108 | 239 | 191
#4:656250 | 485 | 110 | 246 | 191
#4:656296 | 485 | 112 | 231 | 190
#4:656343 | 485 | 114 | 240 | 190
#4:656391 | 485 | 116 | 239 | 190
#4:656439 | 485 | 118 | 242 | 189
#4:656485 | 485 | 120 | 228 | 189
#4:656555 | 485 | 123 | 236 | 188
#4:656604 | 485 | 125 | 244 | 188
#4:656651 | 485 | 127 | 232 | 189
#4:656697 | 485 | 129 | 227 | 189
#4:656745 | 485 | 131 | 237 | 189
#4:656794 | 485 | 133 | 246 | 189
#4:656842 | 485 | 135 | 233 | 190
#4:656887 | 485 | 137 | 227 | 190
#4:656936 | 485 | 139 | 240 | 190
#4:656984 | 485 | 141 | 246 | 190
#4:657055 | 485 | 144 | 229 | 190
#4:657102 | 485 | 146 | 242 | 190
#4:657150 | 485 | 148 | 238 | 190
#4:657199 | 485 | 150 | 245 | 190
#4:657246 | 485 | 152 | 229 | 190
#4:657293 | 485 | 154 | 242 | 190
#4:657340 | 485 | 156 | 236 | 190
#4:657390 | 485 | 158 | 246 | 190
#4:657436 | 485 | 160 | 229 | 190
#4:657483 | 485 | 162 | 241 | 190
#4:657555 | 485 | 165 | 247 | 190
#4:657603 | 485 | 167 | 233 | 190
#4:657649 | 485 | 169 | 227 | 190
#4:657697 | 485 | 171 | 238 | 190
#4:657746 | 485 | 173 | 245 | 190
#4:657793 | 485 | 175 | 233 | 190
#4:657839 | 485 | 177 | 227 | 190
#4:657887 | 485 | 179 | 237 | 190
#4:657935 | 485 | 181 | 244 | 189
#4:657983 | 485 | 183 | 234 | 190
#4:658054 | 485 | 186 | 243 | 190
#4:658102 | 485 | 188 | 239 | 190
#4:658151 | 485 | 190 | 244 | 190
#4:658197 | 485 | 192 | 230 | 190
#4:658244 | 485 | 194 | 242 | 190
#4:658292 | 485 | 196 | 239 | 189
#4:658340 | 485 | 198 | 243 | 189
#4:658387 | 485 | 200 | 231 | 189
#4:658434 | 485 | 202 | 242 | 189
#4:658482 | 485 | 204 | 240 | 190
#4:658553 | 485 | 207 | 232 | 190
#4:658599 | 485 | 209 | 227 | 189
#4:658647 | 485 | 211 | 237 | 189
#4:658695 | 485 | 213 | 245 | 189
#4:658743 | 485 | 215 | 233 | 189
#4:658789 | 485 | 217 | 225 | 189
#4:658836 | 485 | 219 | 236 | 189
#4:658884 | 485 | 221 | 243 | 188
#4:658954 | 485 | 224 | 229 | 188
#4:659001 | 485 | 226 | 238 | 188
#4:659047 | 485 | 228 | 232 | 187
#4:659096 | 485 | 230 | 240 | 187
#4:659142 | 485 | 232 | 230 | 187
#4:659188 | 485 | 234 | 238 | 187
#4:659235 | 485 | 236 | 234 | 187
#4:659284 | 485 | 238 | 242 | 188
#4:659353 | 485 | 241 | 227 | 188
#4:659401 | 485 | 243 | 236 | 188
#4:659449 | 485 | 245 | 243 | 189
#4:659497 | 485 | 247 | 235 | 189
#4:659543 | 485 | 249 | 227 | 190
#4:659591 | 485 | 251 | 237 | 190
#4:659640 | 485 | 253 | 242 | 190
#4:659687 | 485 | 255 | 234 | 190
#4:659733 | 485 | 1 | 226 | 189
#4:659805 | 485 | 4 | 237 | 189
#4:659853 | 485 | 6 | 241 | 189
#4:659900 | 485 | 8 | 232 | 189
#4:659946 | 485 | 10 | 240 | 189
#4:659994 | 485 | 12 | 236 | 189
#4:660042 | 485 | 14 | 241 | 189
#4:660088 | 485 | 16 | 231 | 188
#4:660135 | 485 | 18 | 241 | 188
#4:660182 | 485 | 20 | 237 | 188
#4:660254 | 485 | 23 | 233 | 188
#4:660300 | 485 | 25 | 227 | 188
#4:660348 | 485 | 27 | 239 | 189
#4:660396 | 485 | 29 | 242 | 189
#4:660443 | 485 | 31 | 233 | 189
#4:660489 | 485 | 33 | 225 | 189
#4:660537 | 485 | 35 | 238 | 189
> !daq stop
#4:660585 | 485 | 37 | 240 | 188
:stopped

> !drv f -100
:F -100
