> !globalvar g_carbasicfcts_cruiseTS 50
:50
> !globalvar g_carbasicfcts_cruiseKP 0
:0
> !globalvar g_carbasicfcts_cruiseKI 50
:50
> !daq grp 4 ~all _tics cruise_drvval hall_cnt hall_dt hall_dt8
:ok

> !daq start
:started

> !drv c 1000
:C 1000
#4:826650 | 489 | 40 | 43803 | 4848
#4:826750 | 494 | 41 | 740 | 4876
#4:826800 | 495 | 42 | 527 | 4880
#4:826847 | 496 | 43 | 433 | 4874
#4:826886 | 497 | 44 | 387 | 4858
#4:826922 | 498 | 45 | 358 | 4829
#4:826988 | 498 | 47 | 319 | 4691
#4:827046 | 499 | 49 | 286 | 294
#4:827075 | 500 | 50 | 292 | 271
#4:827132 | 500 | 52 | 279 | 245
#4:827187 | 500 | 54 | 274 | 230
#4:827238 | 501 | 56 | 253 | 220
#4:827289 | 501 | 58 | 259 | 213
#4:827340 | 501 | 60 | 253 | 208
#4:827391 | 501 | 62 | 256 | 204
#4:827440 | 501 | 64 | 239 | 201
#4:827488 | 501 | 66 | 250 | 199
#4:827537 | 500 | 68 | 245 | 197
#4:827587 | 500 | 70 | 248 | 196
#4:827635 | 500 | 72 | 235 | 195
#4:827682 | 500 | 74 | 244 | 193
#4:827731 | 500 | 76 | 242 | 193
#4:827779 | 500 | 78 | 244 | 192
#4:827850 | 499 | 81 | 233 | 191
#4:827899 | 499 | 83 | 241 | 192
#4:827947 | 499 | 85 | 242 | 192
#4:827996 | 499 | 87 | 239 | 192
#4:828043 | 499 | 89 | 235 | 192
#4:828091 | 499 | 91 | 243 | 192
#4:828140 | 498 | 93 | 241 | 192
#4:828188 | 498 | 95 | 239 | 192
#4:828235 | 498 | 97 | 233 | 192
#4:828283 | 498 | 99 | 242 | 192
#4:828332 | 498 | 101 | 240 | 191
#4:828380 | 497 | 103 | 236 | 191
#4:828450 | 497 | 106 | 241 | 190
#4:828498 | 497 | 108 | 239 | 190
#4:828547 | 497 | 110 | 243 | 190
#4:828593 | 497 | 112 | 229 | 190
#4:828641 | 496 | 114 | 242 | 190
#4:828689 | 496 | 116 | 241 | 190
#4:828738 | 496 | 118 | 242 | 190
#4:828785 | 496 | 120 | 232 | 190
#4:828832 | 496 | 122 | 243 | 190
#4:828880 | 495 | 124 | 240 | 191
#4:828929 | 495 | 126 | 245 | 191
#4:829000 | 495 | 129 | 233 | 191
#4:829048 | 495 | 131 | 242 | 192
#4:829097 | 495 | 133 | 246 | 192
#4:829146 | 495 | 135 | 238 | 193
#4:829193 | 494 | 137 | 234 | 193
#4:829241 | 494 | 139 | 242 | 193
#4:829290 | 494 | 141 | 243 | 192
#4:829338 | 494 | 143 | 238 | 192
#4:829385 | 494 | 145 | 231 | 191
#4:829433 | 494 | 147 | 239 | 191
#4:829481 | 493 | 149 | 243 | 191
#4:829529 | 493 | 151 | 235 | 190
#4:829600 | 493 | 154 | 243 | 191
#4:829648 | 493 | 156 | 240 | 191
#4:829697 | 493 | 158 | 243 | 191
#4:829744 | 492 | 160 | 232 | 191
#4:829792 | 492 | 162 | 245 | 191
#4:829840 | 492 | 164 | 241 | 192
#4:829890 | 492 | 166 | 244 | 192
#4:829936 | 492 | 168 | 235 | 192
#4:829984 | 491 | 170 | 244 | 192
#4:830033 | 491 | 172 | 242 | 192
#4:830081 | 491 | 174 | 240 | 191
#4:830128 | 491 | 176 | 234 | 191
#4:830177 | 491 | 178 | 249 | 192
#4:830249 | 490 | 181 | 241 | 191
#4:830297 | 490 | 183 | 237 | 192
#4:830344 | 490 | 185 | 234 | 192
#4:830393 | 490 | 187 | 242 | 192
#4:830442 | 490 | 189 | 244 | 192
#4:830490 | 489 | 191 | 240 | 193
#4:830537 | 489 | 193 | 235 | 193
#4:830587 | 489 | 195 | 245 | 193
#4:830636 | 489 | 197 | 244 | 194
#4:830684 | 489 | 199 | 239 | 194
#4:830732 | 489 | 201 | 235 | 194
#4:830781 | 489 | 203 | 244 | 194
#4:830830 | 488 | 205 | 245 | 194
#4:830878 | 488 | 207 | 240 | 193
#4:830950 | 488 | 210 | 248 | 193
#4:830999 | 488 | 212 | 241 | 193
#4:831048 | 488 | 214 | 242 | 193
#4:831095 | 488 | 216 | 235 | 192
#4:831143 | 487 | 218 | 245 | 192
#4:831191 | 487 | 220 | 240 | 192
#4:831239 | 487 | 222 | 241 | 191
#4:831286 | 487 | 224 | 233 | 191
#4:831334 | 487 | 226 | 245 | 191
#4:831382 | 486 | 228 | 238 | 190
#4:831430 | 486 | 230 | 240 | 190
#4:831499 | 486 | 233 | 230 | 190
#4:831548 | 486 | 235 | 238 | 189
#4:831596 | 486 | 237 | 240 | 190
#4:831643 | 485 | 239 | 234 | 190
#4:831690 | 485 | 241 | 231 | 190
#4:831738 | 485 | 243 | 239 | 190
#4:831786 | 485 | 245 | 242 | 190
#4:831834 | 485 | 247 | 234 | 190
#4:831881 | 485 | 249 | 233 | 191
#4:831930 | 485 | 251 | 241 | 192
#4:831979 | 485 | 253 | 244 | 192
#4:832050 | 485 | 0 | 235 | 192
#4:832098 | 485 | 2 | 248 | 191
#4:832146 | 485 | 4 | 239 | 191
#4:832194 | 485 | 6 | 241 | 191
#4:832240 | 484 | 8 | 232 | 190
#4:832289 | 484 | 10 | 248 | 191
#4:832337 | 484 | 12 | 240 | 191
#4:832385 | 484 | 14 | 238 | 191
#4:832432 | 484 | 16 | 232 | 191
#4:832480 | 484 | 18 | 247 | 191
#4:832528 | 484 | 20 | 240 | 191
#4:832600 | 483 | 23 | 234 | 190
#4:832646 | 483 | 25 | 233 | 190
#4:832695 | 483 | 27 | 241 | 191
#4:832743 | 483 | 29 | 240 | 191
#4:832791 | 483 | 31 | 234 | 191
#4:832837 | 483 | 33 | 233 | 190
#4:832886 | 482 | 35 | 240 | 190
#4:832935 | 482 | 37 | 242 | 191
#4:832982 | 482 | 39 | 233 | 191
#4:833029 | 482 | 41 | 234 | 191
#4:833078 | 482 | 43 | 240 | 191
#4:833126 | 482 | 45 | 242 | 191
#4:833197 | 482 | 48 | 233 | 191
#4:833245 | 481 | 50 | 248 | 191
#4:833293 | 481 | 52 | 239 | 191
#4:833342 | 481 | 54 | 240 | 190
#4:833388 | 481 | 56 | 231 | 190
#4:833436 | 481 | 58 | 249 | 191
#4:833485 | 481 | 60 | 241 | 191
#4:833533 | 481 | 62 | 242 | 191
#4:833580 | 480 | 64 | 232 | 191
#4:833628 | 480 | 66 | 246 | 191
#4:833677 | 480 | 68 | 241 | 191
#4:833749 | 480 | 71 | 234 | 191
#4:833795 | 480 | 73 | 232 | 191
#4:833843 | 480 | 75 | 239 | 191
#4:833892 | 479 | 77 | 243 | 190
#4:833939 | 479 | 79 | 228 | 190
#4:833985 | 479 | 81 | 231 | 189
#4:834033 | 479 | 83 | 237 | 189
#4:834081 | 479 | 85 | 242 | 189
#4:834128 | 479 | 87 | 226 | 188
#4:834199 | 478 | 90 | 246 | 189
#4:834247 | 478 | 92 | 238 | 189
#4:834295 | 478 | 94 | 242 | 189
#4:834341 | 478 | 96 | 229 | 190
#4:834389 | 478 | 98 | 247 | 190
#4:834438 | 478 | 100 | 242 | 191
#4:834486 | 478 | 102 | 242 | 191
#4:834532 | 477 | 104 | 231 | 191
#4:834581 | 477 | 106 | 250 | 191
#4:834629 | 477 | 108 | 241 | 191
#4:834678 | 477 | 110 | 241 | 191
#4:834748 | 477 | 113 | 235 | 191
#4:834797 | 477 | 115 | 244 | 191
#4:834845 | 477 | 117 | 241 | 191
#4:834892 | 476 | 119 | 231 | 191
#4:834939 | 476 | 121 | 232 | 191
#4:834988 | 476 | 123 | 242 | 190
#4:835036 | 476 | 125 | 242 | 190
#4:835083 | 476 | 127 | 228 | 190
#4:835130 | 476 | 129 | 235 | 190
#4:835179 | 475 | 131 | 245 | 191
#4:835228 | 475 | 133 | 243 | 191
#4:835298 | 475 | 136 | 233 | 192
#4:835347 | 475 | 138 | 250 | 192
#4:835396 | 475 | 140 | 242 | 193
#4:835446 | 475 | 142 | 245 | 193
#4:835493 | 475 | 144 | 237 | 194
#4:835543 | 475 | 146 | 254 | 195
#4:835593 | 475 | 148 | 248 | 196
#4:835643 | 475 | 150 | 249 | 197
#4:835691 | 474 | 152 | 243 | 198
#4:835742 | 474 | 154 | 263 | 199
#4:835794 | 474 | 156 | 254 | 201
#4:835845 | 474 | 158 | 253 | 201
#4:835893 | 474 | 160 | 244 | 202
#4:835945 | 474 | 162 | 264 | 202
#4:835997 | 474 | 164 | 255 | 202
#4:836048 | 474 | 166 | 253 | 203
#4:836097 | 474 | 168 | 248 | 203
#4:836149 | 474 | 170 | 264 | 203
#4:836200 | 474 | 172 | 255 | 203
#4:836226 | 474 | 173 | 259 | 204
#4:836277 | 474 | 175 | 244 | 204
#4:836326 | 474 | 177 | 249 | 204
#4:836379 | 474 | 179 | 258 | 203
#4:836430 | 474 | 181 | 258 | 203
#4:836480 | 474 | 183 | 242 | 203
> !daq stop
#4:836530 | 474 | 185 | 251 | 203
:stopped

> !drv f -100
:F -100
