> !globalvar g_carbasicfcts_cruiseTS 50
:50
> !globalvar g_carbasicfcts_cruiseKP 100
:100
> !globalvar g_carbasicfcts_cruiseKI 5
:5
> !daq grp 4 ~all _tics cruise_drvval hall_cnt hall_dt hall_dt8
:ok

> !daq start
:started

> !drv c 500
:C 500
#4:1384857 | 265 | 109 | 37265 | 4103
#4:1385007 | 310 | 110 | 1385 | 4203
#4:1385057 | 296 | 111 | 794 | 4243
#4:1385107 | 282 | 112 | 634 | 4264
#4:1385207 | 274 | 113 | 584 | 4275
#4:1385257 | 271 | 114 | 591 | 4279
#4:1385307 | 271 | 115 | 568 | 4269
#4:1385357 | 270 | 116 | 553 | 4237
#4:1385407 | 269 | 117 | 541 | 565
#4:1385457 | 278 | 118 | 545 | 481
#4:1385507 | 272 | 119 | 526 | 454
#4:1385557 | 270 | 120 | 501 | 441
#4:1385607 | 268 | 121 | 495 | 432
#4:1385657 | 267 | 122 | 516 | 424
#4:1385707 | 267 | 123 | 502 | 418
#4:1385757 | 266 | 124 | 504 | 413
#4:1385807 | 265 | 125 | 502 | 409
#4:1385857 | 265 | 126 | 511 | 405
#4:1385907 | 265 | 127 | 494 | 402
#4:1385957 | 265 | 128 | 476 | 400
#4:1386007 | 264 | 129 | 472 | 398
#4:1386057 | 264 | 130 | 502 | 396
#4:1386107 | 264 | 131 | 491 | 395
#4:1386157 | 264 | 132 | 489 | 394
#4:1386207 | 264 | 133 | 490 | 392
#4:1386257 | 264 | 134 | 500 | 391
#4:1386307 | 263 | 135 | 482 | 390
#4:1386357 | 263 | 136 | 464 | 389
#4:1386407 | 263 | 137 | 467 | 388
#4:1386457 | 263 | 138 | 491 | 387
#4:1386507 | 263 | 139 | 484 | 387
#4:1386557 | 263 | 140 | 481 | 386
#4:1386607 | 263 | 141 | 485 | 385
#4:1386657 | 263 | 142 | 497 | 385
#4:1386707 | 263 | 143 | 481 | 385
#4:1386757 | 263 | 144 | 463 | 385
#4:1386807 | 262 | 145 | 466 | 385
#4:1386857 | 262 | 146 | 489 | 384
#4:1386907 | 262 | 147 | 484 | 384
#4:1386957 | 262 | 148 | 486 | 385
#4:1387007 | 263 | 149 | 483 | 385
#4:1387057 | 262 | 150 | 500 | 385
#4:1387107 | 263 | 151 | 490 | 386
#4:1387157 | 263 | 152 | 466 | 386
#4:1387206 | 263 | 153 | 468 | 386
#4:1387255 | 263 | 154 | 494 | 387
#4:1387304 | 263 | 155 | 486 | 387
#4:1387352 | 263 | 156 | 485 | 387
#4:1387401 | 263 | 157 | 490 | 388
#4:1387451 | 263 | 158 | 498 | 388
#4:1387500 | 263 | 159 | 490 | 388
#4:1387548 | 263 | 160 | 475 | 388
#4:1387595 | 263 | 161 | 473 | 389
#4:1387645 | 263 | 162 | 502 | 390
#4:1387695 | 263 | 163 | 496 | 391
#4:1387745 | 263 | 164 | 496 | 392
#4:1387794 | 263 | 165 | 493 | 392
#4:1387845 | 264 | 166 | 508 | 393
#4:1387894 | 264 | 167 | 493 | 393
#4:1387942 | 264 | 168 | 476 | 394
#4:1387990 | 264 | 169 | 476 | 394
#4:1388040 | 264 | 170 | 499 | 394
#4:1388089 | 264 | 171 | 495 | 394
#4:1388139 | 264 | 172 | 502 | 394
#4:1388189 | 264 | 173 | 494 | 394
#4:1388240 | 264 | 174 | 512 | 395
#4:1388290 | 264 | 175 | 498 | 395
#4:1388338 | 264 | 176 | 480 | 396
#4:1388386 | 264 | 177 | 478 | 396
#4:1388436 | 264 | 178 | 504 | 396
#4:1388486 | 264 | 179 | 501 | 397
#4:1388538 | 264 | 180 | 514 | 398
#4:1388589 | 264 | 181 | 511 | 400
#4:1388641 | 265 | 182 | 520 | 401
#4:1388692 | 265 | 183 | 506 | 401
#4:1388741 | 265 | 184 | 487 | 402
#4:1388789 | 265 | 185 | 482 | 402
#4:1388840 | 265 | 186 | 509 | 403
#4:1388890 | 265 | 187 | 497 | 403
#4:1388940 | 265 | 188 | 502 | 401
#4:1388990 | 265 | 189 | 505 | 401
#4:1389043 | 265 | 190 | 529 | 402
#4:1389094 | 265 | 191 | 506 | 402
#4:1389143 | 265 | 192 | 493 | 402
#4:1389193 | 265 | 193 | 491 | 403
#4:1389243 | 265 | 194 | 508 | 403
#4:1389294 | 265 | 195 | 507 | 404
#4:1389345 | 265 | 196 | 503 | 404
#4:1389394 | 265 | 197 | 498 | 403
#4:1389445 | 265 | 198 | 509 | 401
#4:1389495 | 265 | 199 | 498 | 401
#4:1389543 | 264 | 200 | 483 | 400
#4:1389592 | 264 | 201 | 484 | 399
#4:1389642 | 264 | 202 | 500 | 398
#4:1389692 | 264 | 203 | 498 | 397
#4:1389741 | 264 | 204 | 495 | 396
#4:1389791 | 264 | 205 | 495 | 396
#4:1389842 | 264 | 206 | 506 | 396
#4:1389891 | 264 | 207 | 491 | 395
#4:1389938 | 264 | 208 | 475 | 394
#4:1389987 | 264 | 209 | 482 | 394
#4:1390037 | 264 | 210 | 499 | 394
#4:1390086 | 264 | 211 | 496 | 394
#4:1390136 | 264 | 212 | 494 | 394
#4:1390185 | 264 | 213 | 493 | 394
#4:1390236 | 264 | 214 | 505 | 393
#4:1390285 | 264 | 215 | 492 | 394
#4:1390332 | 264 | 216 | 477 | 394
#4:1390380 | 264 | 217 | 479 | 393
#4:1390431 | 264 | 218 | 502 | 394
#4:1390480 | 264 | 219 | 492 | 393
#4:1390530 | 264 | 220 | 496 | 393
#4:1390580 | 264 | 221 | 506 | 395
#4:1390631 | 264 | 222 | 509 | 395
#4:1390681 | 264 | 223 | 493 | 395
#4:1390729 | 264 | 224 | 484 | 396
#4:1390778 | 264 | 225 | 486 | 397
#4:1390828 | 264 | 226 | 500 | 396
#4:1390878 | 264 | 227 | 499 | 397
#4:1390927 | 264 | 228 | 497 | 397
#4:1390977 | 264 | 229 | 496 | 396
#4:1391027 | 264 | 230 | 505 | 396
#4:1391076 | 264 | 231 | 486 | 395
#4:1391123 | 264 | 232 | 473 | 394
#4:1391171 | 264 | 233 | 473 | 393
#4:1391220 | 263 | 234 | 492 | 392
#4:1391269 | 263 | 235 | 487 | 391
#4:1391317 | 263 | 236 | 484 | 389
#4:1391366 | 263 | 237 | 488 | 389
#4:1391415 | 263 | 238 | 490 | 387
#4:1391462 | 263 | 239 | 472 | 386
#4:1391554 | 262 | 241 | 458 | 383
#4:1391602 | 262 | 242 | 478 | 381
#4:1391649 | 262 | 243 | 474 | 380
#4:1391697 | 262 | 244 | 472 | 379
#4:1391745 | 262 | 245 | 480 | 378
#4:1391793 | 261 | 246 | 478 | 377
#4:1391839 | 261 | 247 | 468 | 377
#4:1391885 | 261 | 248 | 451 | 376
#4:1391930 | 261 | 249 | 452 | 375
#4:1391977 | 261 | 250 | 475 | 375
#4:1392024 | 261 | 251 | 470 | 375
#4:1392071 | 261 | 252 | 466 | 374
#4:1392118 | 261 | 253 | 472 | 373
#4:1392166 | 261 | 254 | 474 | 373
#4:1392257 | 261 | 0 | 450 | 372
#4:1392302 | 261 | 1 | 448 | 372
#4:1392349 | 261 | 2 | 468 | 371
#4:1392396 | 260 | 3 | 466 | 371
#4:1392443 | 261 | 4 | 467 | 371
#4:1392490 | 261 | 5 | 473 | 371
#4:1392537 | 261 | 6 | 473 | 371
#4:1392583 | 260 | 7 | 462 | 371
#4:1392628 | 260 | 8 | 447 | 370
#4:1392674 | 261 | 9 | 455 | 371
#4:1392721 | 261 | 10 | 472 | 371
#4:1392768 | 261 | 11 | 471 | 372
#4:1392816 | 261 | 12 | 472 | 373
#4:1392863 | 261 | 13 | 480 | 373
#4:1392912 | 261 | 14 | 480 | 374
#4:1393004 | 261 | 16 | 454 | 375
#4:1393050 | 261 | 17 | 463 | 376
#4:1393099 | 261 | 18 | 485 | 377
#4:1393147 | 262 | 19 | 480 | 378
#4:1393195 | 262 | 20 | 483 | 379
#4:1393245 | 262 | 21 | 492 | 381
#4:1393292 | 262 | 22 | 473 | 380
#4:1393340 | 262 | 23 | 478 | 381
#4:1393387 | 262 | 24 | 472 | 383
#4:1393434 | 262 | 25 | 468 | 383
#4:1393483 | 262 | 26 | 495 | 384
#4:1393533 | 263 | 27 | 491 | 385
#4:1393581 | 263 | 28 | 487 | 386
#4:1393631 | 263 | 29 | 492 | 385
#4:1393680 | 263 | 30 | 493 | 388
#4:1393729 | 263 | 31 | 490 | 389
#4:1393778 | 263 | 32 | 485 | 390
#4:1393826 | 263 | 33 | 485 | 392
#4:1393878 | 264 | 34 | 514 | 394
#4:1393928 | 264 | 35 | 504 | 395
#4:1393978 | 264 | 36 | 504 | 397
#4:1394029 | 264 | 37 | 504 | 398
#4:1394079 | 264 | 38 | 499 | 398
#4:1394129 | 264 | 39 | 496 | 399
#4:1394177 | 264 | 40 | 485 | 399
#4:1394225 | 264 | 41 | 483 | 399
#4:1394277 | 264 | 42 | 515 | 399
#4:1394327 | 264 | 43 | 504 | 399
#4:1394378 | 264 | 44 | 504 | 399
#4:1394429 | 264 | 45 | 513 | 400
#4:1394480 | 265 | 46 | 505 | 400
#4:1394530 | 265 | 47 | 498 | 401
#4:1394578 | 265 | 48 | 485 | 401
#4:1394626 | 265 | 49 | 480 | 400
#4:1394677 | 264 | 50 | 504 | 399
> !daq stop
#4:1394726 | 264 | 51 | 494 | 398
:stopped

> !drv f -100
:F -100
