> !globalvar g_carbasicfcts_cruiseTS 50
:50
> !globalvar g_carbasicfcts_cruiseKP 100
:100
> !globalvar g_carbasicfcts_cruiseKI 200
:200
> !daq grp 4 ~all _tics cruise_drvval hall_cnt hall_dt hall_dt8
:ok

> !daq start
:started

> !drv c 1500
:C 1500
#4:1634505 | 803 | 249 | 40604 | 4448
#4:1634555 | 861 | 250 | 680 | 4479
#4:1634605 | 839 | 251 | 430 | 4482
#4:1634655 | 826 | 252 | 383 | 4475
#4:1634705 | 827 | 253 | 326 | 4455
#4:1634740 | 810 | 254 | 286 | 4426
#4:1634789 | 793 | 0 | 231 | 4319
#4:1634854 | 814 | 3 | 212 | 213
#4:1634896 | 802 | 5 | 208 | 184
#4:1634952 | 791 | 8 | 177 | 163
#4:1634988 | 786 | 10 | 183 | 155
#4:1635042 | 779 | 13 | 182 | 145
#4:1635092 | 773 | 16 | 161 | 139
#4:1635141 | 769 | 19 | 166 | 135
#4:1635192 | 764 | 22 | 165 | 132
#4:1635255 | 761 | 26 | 163 | 130
#4:1635303 | 758 | 29 | 167 | 128
#4:1635350 | 755 | 32 | 151 | 127
#4:1635397 | 753 | 35 | 157 | 126
#4:1635446 | 751 | 38 | 159 | 125
#4:1635490 | 748 | 41 | 147 | 125
#4:1635553 | 746 | 45 | 161 | 124
#4:1635599 | 743 | 48 | 148 | 123
#4:1635645 | 741 | 51 | 153 | 123
#4:1635693 | 740 | 54 | 159 | 123
#4:1635754 | 739 | 58 | 158 | 124
#4:1635802 | 739 | 61 | 162 | 124
#4:1635848 | 737 | 64 | 149 | 124
#4:1635894 | 736 | 67 | 154 | 124
#4:1635942 | 735 | 70 | 161 | 124
#4:1636004 | 733 | 74 | 160 | 124
#4:1636051 | 732 | 77 | 163 | 125
#4:1636098 | 730 | 80 | 149 | 125
#4:1636144 | 729 | 83 | 155 | 124
#4:1636192 | 726 | 86 | 159 | 124
#4:1636253 | 725 | 90 | 157 | 124
#4:1636300 | 723 | 93 | 162 | 124
#4:1636346 | 722 | 96 | 150 | 124
#4:1636392 | 720 | 99 | 154 | 124
#4:1636455 | 718 | 103 | 152 | 124
#4:1636501 | 717 | 106 | 157 | 124
#4:1636549 | 715 | 109 | 163 | 124
#4:1636595 | 715 | 112 | 150 | 124
#4:1636642 | 714 | 115 | 157 | 125
#4:1636691 | 714 | 118 | 163 | 126
#4:1636753 | 714 | 122 | 161 | 127
#4:1636802 | 714 | 125 | 166 | 127
#4:1636850 | 713 | 128 | 154 | 127
#4:1636898 | 712 | 131 | 160 | 128
#4:1636948 | 712 | 134 | 166 | 128
#4:1636995 | 712 | 137 | 155 | 129
#4:1637044 | 711 | 140 | 164 | 129
#4:1637093 | 712 | 143 | 159 | 130
#4:1637141 | 711 | 146 | 164 | 130
#4:1637191 | 710 | 149 | 170 | 130
#4:1637255 | 709 | 153 | 156 | 130
#4:1637305 | 709 | 156 | 163 | 131
#4:1637355 | 709 | 159 | 159 | 130
#4:1637403 | 707 | 162 | 166 | 130
#4:1637452 | 706 | 165 | 168 | 130
#4:1637501 | 706 | 168 | 158 | 130
#4:1637550 | 705 | 171 | 164 | 130
#4:1637600 | 704 | 174 | 169 | 130
#4:1637647 | 703 | 177 | 156 | 130
#4:1637697 | 704 | 180 | 165 | 131
#4:1637747 | 703 | 183 | 160 | 131
#4:1637795 | 702 | 186 | 166 | 130
#4:1637845 | 702 | 189 | 168 | 130
#4:1637894 | 701 | 192 | 158 | 130
#4:1637942 | 699 | 195 | 163 | 130
#4:1637992 | 699 | 198 | 168 | 130
#4:1638040 | 698 | 201 | 155 | 130
#4:1638105 | 696 | 205 | 166 | 129
#4:1638153 | 694 | 208 | 156 | 129
#4:1638202 | 693 | 211 | 162 | 129
#4:1638251 | 692 | 214 | 167 | 129
#4:1638298 | 691 | 217 | 154 | 129
#4:1638347 | 690 | 220 | 161 | 129
#4:1638396 | 689 | 223 | 157 | 129
#4:1638443 | 688 | 226 | 163 | 128
#4:1638493 | 687 | 229 | 166 | 129
#4:1638541 | 687 | 232 | 157 | 129
#4:1638589 | 687 | 235 | 162 | 129
#4:1638655 | 687 | 239 | 161 | 130
#4:1638704 | 687 | 242 | 168 | 131
#4:1638755 | 688 | 245 | 171 | 132
#4:1638804 | 688 | 248 | 161 | 132
#4:1638854 | 688 | 251 | 165 | 132
#4:1638905 | 688 | 254 | 172 | 132
#4:1638953 | 687 | 1 | 159 | 132
#4:1639003 | 687 | 4 | 167 | 132
#4:1639054 | 686 | 7 | 163 | 133
#4:1639103 | 686 | 10 | 170 | 133
#4:1639154 | 686 | 13 | 170 | 133
#4:1639204 | 685 | 16 | 162 | 133
#4:1639253 | 685 | 19 | 167 | 133
#4:1639304 | 684 | 22 | 172 | 133
#4:1639353 | 685 | 25 | 162 | 133
#4:1639404 | 686 | 28 | 167 | 134
#4:1639439 | 686 | 30 | 174 | 134
#4:1639489 | 685 | 33 | 162 | 135
#4:1639540 | 686 | 36 | 169 | 135
#4:1639592 | 686 | 39 | 167 | 135
#4:1639642 | 686 | 42 | 173 | 136
#4:1639694 | 686 | 45 | 174 | 136
#4:1639745 | 686 | 48 | 166 | 136
#4:1639796 | 686 | 51 | 169 | 136
#4:1639848 | 686 | 54 | 176 | 136
#4:1639898 | 686 | 57 | 164 | 136
#4:1639950 | 686 | 60 | 169 | 136
#4:1640002 | 686 | 63 | 168 | 136
#4:1640052 | 686 | 66 | 173 | 136
#4:1640104 | 686 | 69 | 176 | 136
#4:1640155 | 686 | 72 | 167 | 136
#4:1640189 | 686 | 74 | 174 | 136
#4:1640241 | 687 | 77 | 177 | 137
#4:1640293 | 687 | 80 | 168 | 137
#4:1640344 | 688 | 83 | 172 | 138
#4:1640397 | 688 | 86 | 177 | 138
#4:1640447 | 687 | 89 | 165 | 137
#4:1640499 | 687 | 92 | 169 | 137
#4:1640551 | 686 | 95 | 166 | 136
#4:1640601 | 686 | 98 | 172 | 136
#4:1640652 | 686 | 101 | 174 | 136
#4:1640703 | 686 | 104 | 165 | 135
#4:1640753 | 686 | 107 | 169 | 135
#4:1640805 | 686 | 110 | 175 | 135
#4:1640855 | 685 | 113 | 162 | 135
#4:1640890 | 685 | 115 | 170 | 136
#4:1640942 | 685 | 118 | 175 | 136
#4:1640992 | 685 | 121 | 163 | 136
#4:1641044 | 685 | 124 | 172 | 136
#4:1641096 | 685 | 127 | 168 | 136
#4:1641146 | 685 | 130 | 174 | 136
#4:1641198 | 686 | 133 | 176 | 137
#4:1641249 | 686 | 136 | 167 | 137
#4:1641300 | 686 | 139 | 170 | 137
#4:1641353 | 685 | 142 | 176 | 136
#4:1641403 | 686 | 145 | 165 | 136
#4:1641455 | 686 | 148 | 171 | 137
#4:1641490 | 685 | 150 | 176 | 136
#4:1641540 | 686 | 153 | 165 | 136
#4:1641591 | 685 | 156 | 170 | 136
#4:1641643 | 685 | 159 | 171 | 136
#4:1641694 | 686 | 162 | 174 | 137
#4:1641746 | 686 | 165 | 174 | 137
#4:1641798 | 688 | 168 | 168 | 137
#4:1641850 | 688 | 171 | 174 | 138
#4:1641902 | 687 | 174 | 176 | 137
#4:1641952 | 686 | 177 | 163 | 136
#4:1642003 | 686 | 180 | 168 | 136
#4:1642054 | 684 | 183 | 166 | 135
#4:1642104 | 684 | 186 | 171 | 134
#4:1642155 | 684 | 189 | 170 | 134
#4:1642205 | 684 | 192 | 165 | 134
#4:1642255 | 684 | 195 | 168 | 134
#4:1642289 | 683 | 197 | 171 | 134
#4:1642339 | 683 | 200 | 165 | 134
#4:1642390 | 683 | 203 | 169 | 134
#4:1642441 | 683 | 206 | 173 | 134
#4:1642491 | 684 | 209 | 165 | 135
#4:1642543 | 683 | 212 | 171 | 135
#4:1642595 | 683 | 215 | 169 | 136
#4:1642645 | 683 | 218 | 174 | 136
#4:1642697 | 684 | 221 | 174 | 137
#4:1642748 | 684 | 224 | 167 | 137
#4:1642800 | 684 | 227 | 171 | 137
#4:1642852 | 684 | 230 | 176 | 137
#4:1642902 | 684 | 233 | 167 | 137
#4:1642954 | 684 | 236 | 170 | 136
#4:1642989 | 683 | 238 | 175 | 136
#4:1643039 | 683 | 241 | 166 | 136
#4:1643090 | 683 | 244 | 170 | 136
#4:1643142 | 683 | 247 | 168 | 136
#4:1643193 | 683 | 250 | 174 | 136
#4:1643245 | 683 | 253 | 175 | 136
#4:1643296 | 684 | 0 | 168 | 137
#4:1643347 | 684 | 3 | 171 | 137
#4:1643399 | 684 | 6 | 173 | 137
#4:1643450 | 683 | 9 | 167 | 136
#4:1643501 | 683 | 12 | 169 | 136
#4:1643553 | 683 | 15 | 167 | 136
#4:1643604 | 684 | 18 | 177 | 136
#4:1643639 | 684 | 20 | 171 | 137
#4:1643690 | 686 | 23 | 169 | 137
#4:1643742 | 686 | 26 | 177 | 138
#4:1643794 | 685 | 29 | 173 | 137
#4:1643845 | 685 | 32 | 170 | 137
#4:1643897 | 685 | 35 | 172 | 137
#4:1643949 | 685 | 38 | 173 | 137
#4:1643999 | 685 | 41 | 166 | 137
#4:1644051 | 685 | 44 | 170 | 137
#4:1644102 | 684 | 47 | 165 | 136
#4:1644152 | 684 | 50 | 173 | 135
#4:1644204 | 683 | 53 | 172 | 135
#4:1644254 | 683 | 56 | 168 | 135
#4:1644305 | 683 | 59 | 171 | 135
#4:1644340 | 683 | 61 | 171 | 135
#4:1644390 | 683 | 64 | 168 | 136
> !daq stop
#4:1644441 | 682 | 67 | 171 | 135
:stopped

> !drv f -100
:F -100
