> !globalvar g_carbasicfcts_cruiseTS 50
:50
> !globalvar g_carbasicfcts_cruiseKP 100
:100
> !globalvar g_carbasicfcts_cruiseKI 0
:0
> !daq grp 4 ~all _tics cruise_drvval hall_cnt hall_dt hall_dt8
:ok

> !daq start
:started

> !drv c 500
:C 500
#4:368833 | 94 | 198 | 1780 | 3600
#4:368933 | 85 | 199 | 929 | 3642
#4:369033 | 72 | 200 | 793 | 3663
#4:369083 | 67 | 201 | 728 | 3671
#4:369133 | 65 | 202 | 601 | 3664
#4:369233 | 57 | 203 | 599 | 3639
#4:369283 | 57 | 204 | 659 | 3573
#4:369333 | 61 | 205 | 582 | 667
#4:369383 | 69 | 206 | 621 | 551
#4:369433 | 63 | 207 | 544 | 513
#4:369483 | 60 | 208 | 547 | 488
#4:369583 | 58 | 209 | 539 | 469
#4:369630 | 55 | 210 | 477 | 457
#4:369680 | 54 | 211 | 490 | 446
#4:369733 | 54 | 212 | 541 | 434
#4:369783 | 53 | 213 | 491 | 425
#4:369833 | 52 | 214 | 516 | 414
#4:369882 | 50 | 215 | 472 | 407
#4:369930 | 50 | 216 | 481 | 401
#4:369978 | 49 | 217 | 483 | 395
#4:370021 | 48 | 218 | 432 | 390
#4:370067 | 48 | 219 | 450 | 387
#4:370118 | 47 | 220 | 511 | 384
#4:370164 | 47 | 221 | 464 | 381
#4:370215 | 47 | 222 | 508 | 380
#4:370263 | 47 | 223 | 478 | 381
#4:370312 | 47 | 224 | 491 | 382
#4:370361 | 47 | 225 | 484 | 382
#4:370403 | 47 | 226 | 423 | 381
#4:370448 | 47 | 227 | 446 | 380
#4:370499 | 47 | 228 | 514 | 381
#4:370546 | 47 | 229 | 466 | 381
#4:370596 | 47 | 230 | 504 | 380
#4:370641 | 47 | 231 | 457 | 378
#4:370689 | 46 | 232 | 474 | 377
#4:370778 | 46 | 234 | 410 | 375
#4:370821 | 46 | 235 | 428 | 373
#4:370870 | 45 | 236 | 488 | 370
#4:370915 | 45 | 237 | 451 | 369
#4:370963 | 45 | 238 | 486 | 367
#4:371008 | 45 | 239 | 446 | 366
#4:371053 | 44 | 240 | 453 | 364
#4:371099 | 44 | 241 | 454 | 362
#4:371180 | 44 | 243 | 413 | 359
#4:371227 | 43 | 244 | 462 | 356
#4:371268 | 43 | 245 | 418 | 353
#4:371314 | 42 | 246 | 455 | 350
#4:371356 | 42 | 247 | 425 | 348
#4:371400 | 42 | 248 | 431 | 346
#4:371480 | 41 | 250 | 373 | 340
#4:371520 | 40 | 251 | 398 | 339
#4:371566 | 40 | 252 | 459 | 338
#4:371607 | 40 | 253 | 418 | 338
#4:371652 | 40 | 254 | 443 | 337
#4:371694 | 40 | 255 | 418 | 337
#4:371780 | 40 | 1 | 432 | 337
#4:371818 | 40 | 2 | 382 | 338
#4:371858 | 40 | 3 | 400 | 338
#4:371904 | 40 | 4 | 460 | 338
#4:371947 | 40 | 5 | 423 | 339
#4:371992 | 41 | 6 | 456 | 340
#4:372077 | 41 | 8 | 431 | 340
#4:372120 | 40 | 9 | 431 | 340
#4:372159 | 41 | 10 | 383 | 340
#4:372199 | 41 | 11 | 404 | 340
#4:372245 | 41 | 12 | 454 | 340
#4:372331 | 40 | 14 | 450 | 338
#4:372373 | 40 | 15 | 420 | 339
#4:372416 | 40 | 16 | 431 | 339
#4:372459 | 40 | 17 | 428 | 339
#4:372498 | 40 | 18 | 385 | 339
#4:372538 | 40 | 19 | 399 | 338
#4:372625 | 40 | 21 | 413 | 339
#4:372670 | 40 | 22 | 443 | 338
#4:372711 | 40 | 23 | 421 | 338
#4:372756 | 40 | 24 | 443 | 339
#4:372799 | 40 | 25 | 428 | 339
#4:372877 | 40 | 27 | 401 | 338
#4:372924 | 40 | 28 | 468 | 339
#4:372966 | 41 | 29 | 427 | 341
#4:373012 | 41 | 30 | 460 | 342
#4:373056 | 41 | 31 | 432 | 343
#4:373099 | 41 | 32 | 436 | 343
#4:373181 | 41 | 34 | 385 | 345
#4:373222 | 41 | 35 | 407 | 345
#4:373268 | 41 | 36 | 456 | 344
#4:373310 | 41 | 37 | 420 | 343
#4:373356 | 41 | 38 | 460 | 343
#4:373399 | 41 | 39 | 426 | 343
#4:373442 | 41 | 40 | 430 | 342
#4:373522 | 41 | 42 | 380 | 340
#4:373563 | 41 | 43 | 404 | 340
#4:373609 | 41 | 44 | 463 | 341
#4:373650 | 41 | 45 | 412 | 340
#4:373696 | 40 | 46 | 453 | 339
#4:373781 | 40 | 48 | 432 | 339
#4:373824 | 40 | 49 | 430 | 339
#4:373862 | 40 | 50 | 376 | 339
#4:373902 | 40 | 51 | 403 | 339
#4:373949 | 40 | 52 | 465 | 339
#4:373991 | 41 | 53 | 420 | 340
#4:374078 | 40 | 55 | 422 | 340
#4:374122 | 41 | 56 | 437 | 340
#4:374166 | 41 | 57 | 436 | 341
#4:374204 | 41 | 58 | 387 | 342
#4:374245 | 41 | 59 | 407 | 342
#4:374292 | 41 | 60 | 469 | 343
#4:374383 | 41 | 62 | 473 | 347
#4:374427 | 42 | 63 | 432 | 348
#4:374471 | 42 | 64 | 449 | 349
#4:374517 | 42 | 65 | 450 | 351
#4:374556 | 43 | 66 | 397 | 352
#4:374599 | 43 | 67 | 421 | 353
#4:374647 | 43 | 68 | 481 | 354
#4:374690 | 43 | 69 | 436 | 354
#4:374739 | 43 | 70 | 482 | 355
#4:374830 | 44 | 72 | 466 | 358
#4:374876 | 44 | 73 | 451 | 358
#4:374916 | 44 | 74 | 400 | 359
#4:374958 | 44 | 75 | 422 | 359
#4:375006 | 44 | 76 | 483 | 359
#4:375050 | 44 | 77 | 437 | 359
#4:375097 | 43 | 78 | 466 | 357
#4:375141 | 43 | 79 | 444 | 357
#4:375231 | 43 | 81 | 446 | 355
#4:375270 | 43 | 82 | 388 | 354
#4:375311 | 43 | 83 | 409 | 353
#4:375359 | 43 | 84 | 477 | 352
#4:375402 | 43 | 85 | 435 | 352
#4:375449 | 43 | 86 | 467 | 352
#4:375492 | 42 | 87 | 435 | 351
#4:375583 | 42 | 89 | 454 | 351
#4:375623 | 43 | 90 | 401 | 353
#4:375665 | 43 | 91 | 418 | 354
#4:375713 | 43 | 92 | 482 | 354
#4:375757 | 43 | 93 | 439 | 354
#4:375805 | 43 | 94 | 476 | 355
#4:375850 | 43 | 95 | 451 | 357
#4:375896 | 44 | 96 | 459 | 358
#4:375982 | 44 | 98 | 406 | 359
#4:376026 | 44 | 99 | 435 | 360
#4:376075 | 44 | 100 | 493 | 361
#4:376119 | 44 | 101 | 438 | 361
#4:376166 | 44 | 102 | 475 | 361
#4:376211 | 44 | 103 | 451 | 361
#4:376258 | 44 | 104 | 468 | 362
#4:376304 | 44 | 105 | 460 | 362
#4:376344 | 44 | 106 | 400 | 362
#4:376386 | 44 | 107 | 420 | 360
#4:376480 | 44 | 109 | 448 | 361
#4:376528 | 44 | 110 | 474 | 361
#4:376572 | 44 | 111 | 443 | 360
#4:376618 | 44 | 112 | 463 | 360
#4:376664 | 44 | 113 | 458 | 359
#4:376704 | 44 | 114 | 397 | 359
#4:376745 | 44 | 115 | 414 | 359
#4:376793 | 43 | 116 | 479 | 358
#4:376837 | 43 | 117 | 439 | 357
#4:376929 | 43 | 119 | 437 | 356
#4:376973 | 43 | 120 | 446 | 355
#4:377018 | 43 | 121 | 447 | 353
#4:377058 | 43 | 122 | 395 | 353
#4:377100 | 43 | 123 | 419 | 354
#4:377148 | 43 | 124 | 485 | 354
#4:377192 | 43 | 125 | 437 | 354
#4:377283 | 43 | 127 | 446 | 354
#4:377329 | 43 | 128 | 450 | 355
#4:377373 | 43 | 129 | 444 | 354
#4:377412 | 43 | 130 | 388 | 354
#4:377454 | 43 | 131 | 416 | 353
#4:377501 | 43 | 132 | 474 | 352
#4:377544 | 43 | 133 | 430 | 352
#4:377632 | 42 | 135 | 426 | 348
#4:377676 | 42 | 136 | 442 | 347
#4:377720 | 42 | 137 | 438 | 347
#4:377759 | 42 | 138 | 383 | 346
#4:377798 | 41 | 139 | 398 | 344
#4:377845 | 41 | 140 | 461 | 343
#4:377932 | 41 | 142 | 451 | 342
#4:377974 | 41 | 143 | 418 | 341
#4:378017 | 41 | 144 | 435 | 340
#4:378060 | 40 | 145 | 428 | 339
#4:378098 | 40 | 146 | 377 | 339
#4:378182 | 40 | 148 | 445 | 337
#4:378223 | 40 | 149 | 409 | 336
#4:378267 | 40 | 150 | 440 | 334
#4:378309 | 39 | 151 | 416 | 334
#4:378351 | 39 | 152 | 423 | 333
#4:378430 | 39 | 154 | 368 | 331
> !daq stop
:stopped

> !drv f -100
:F -100
