> !globalvar g_carbasicfcts_cruiseTS 50
:50
> !globalvar g_carbasicfcts_cruiseKP 50
:50
> !globalvar g_carbasicfcts_cruiseKI 20
:20
> !daq grp 4 ~all _tics cruise_drvval hall_cnt hall_dt hall_dt8
:ok

> !daq start
:started

> !drv c 1000
:C 1000
#4:339686 | 115 | 138 | 38320 | 4515
#4:339786 | 128 | 139 | 889 | 4554
#4:339836 | 116 | 140 | 756 | 4568
#4:339886 | 115 | 141 | 597 | 4566
#4:339986 | 111 | 142 | 590 | 4547
#4:340036 | 112 | 143 | 514 | 4513
#4:340086 | 109 | 144 | 503 | 4453
#4:340136 | 109 | 145 | 476 | 4264
#4:340180 | 113 | 146 | 403 | 473
#4:340221 | 112 | 147 | 408 | 425
#4:340266 | 110 | 148 | 451 | 394
#4:340305 | 109 | 149 | 397 | 374
#4:340384 | 107 | 151 | 374 | 342
#4:340422 | 107 | 152 | 382 | 330
#4:340461 | 106 | 153 | 387 | 321
#4:340529 | 104 | 155 | 341 | 307
#4:340566 | 105 | 156 | 377 | 300
#4:340636 | 104 | 158 | 354 | 288
#4:340669 | 103 | 159 | 329 | 284
#4:340736 | 102 | 161 | 339 | 274
#4:340766 | 102 | 162 | 297 | 271
#4:340831 | 101 | 164 | 344 | 264
#4:340860 | 100 | 165 | 295 | 259
#4:340922 | 99 | 167 | 297 | 253
#4:340982 | 98 | 169 | 300 | 246
#4:341036 | 97 | 171 | 277 | 239
#4:341067 | 97 | 172 | 311 | 236
#4:341124 | 97 | 174 | 290 | 232
#4:341180 | 96 | 176 | 279 | 227
#4:341232 | 95 | 178 | 247 | 224
#4:341258 | 95 | 179 | 254 | 221
#4:341314 | 94 | 181 | 267 | 218
#4:341368 | 93 | 183 | 261 | 216
#4:341421 | 93 | 185 | 268 | 213
#4:341469 | 92 | 187 | 246 | 211
#4:341522 | 92 | 189 | 251 | 208
#4:341575 | 91 | 191 | 253 | 206
#4:341626 | 91 | 193 | 255 | 204
#4:341672 | 91 | 195 | 237 | 202
#4:341723 | 91 | 197 | 241 | 200
#4:341772 | 90 | 199 | 238 | 197
#4:341822 | 89 | 201 | 247 | 196
#4:341866 | 89 | 203 | 226 | 194
#4:341915 | 88 | 205 | 233 | 192
#4:341986 | 88 | 208 | 234 | 188
#4:342031 | 87 | 210 | 214 | 187
#4:342078 | 87 | 212 | 247 | 186
#4:342125 | 86 | 214 | 240 | 185
#4:342170 | 85 | 216 | 229 | 184
#4:342236 | 85 | 219 | 217 | 183
#4:342283 | 84 | 221 | 219 | 182
#4:342328 | 84 | 223 | 220 | 180
#4:342373 | 83 | 225 | 226 | 179
#4:342414 | 83 | 227 | 208 | 177
#4:342482 | 82 | 230 | 226 | 175
#4:342525 | 81 | 232 | 218 | 174
#4:342586 | 81 | 235 | 201 | 172
#4:342630 | 80 | 237 | 211 | 171
#4:342673 | 80 | 239 | 207 | 170
#4:342735 | 79 | 242 | 192 | 169
#4:342778 | 78 | 244 | 226 | 168
#4:342821 | 78 | 246 | 221 | 168
#4:342884 | 78 | 249 | 213 | 168
#4:342923 | 78 | 251 | 199 | 168
#4:342967 | 77 | 253 | 208 | 168
#4:343031 | 77 | 0 | 217 | 168
#4:343072 | 77 | 2 | 191 | 168
#4:343136 | 77 | 5 | 211 | 169
#4:343180 | 77 | 7 | 208 | 169
#4:343223 | 76 | 9 | 221 | 170
#4:343264 | 77 | 11 | 204 | 171
#4:343331 | 77 | 14 | 228 | 172
#4:343376 | 78 | 16 | 223 | 174
#4:343418 | 78 | 18 | 202 | 174
#4:343486 | 78 | 21 | 219 | 176
#4:343530 | 78 | 23 | 218 | 177
#4:343576 | 78 | 25 | 226 | 177
#4:343617 | 78 | 27 | 207 | 177
#4:343686 | 78 | 30 | 232 | 177
#4:343731 | 78 | 32 | 227 | 177
#4:343775 | 77 | 34 | 207 | 179
#4:343821 | 78 | 36 | 244 | 180
#4:343868 | 78 | 38 | 242 | 181
#4:343914 | 79 | 40 | 231 | 183
#4:343980 | 79 | 43 | 218 | 184
#4:344028 | 79 | 45 | 223 | 183
#4:344074 | 79 | 47 | 227 | 183
#4:344121 | 79 | 49 | 233 | 183
#4:344164 | 78 | 51 | 217 | 183
#4:344235 | 78 | 54 | 237 | 183
#4:344281 | 78 | 56 | 233 | 182
#4:344325 | 78 | 58 | 207 | 183
#4:344371 | 78 | 60 | 246 | 183
#4:344418 | 78 | 62 | 236 | 182
#4:344486 | 77 | 65 | 231 | 181
#4:344527 | 77 | 67 | 210 | 180
#4:344573 | 75 | 69 | 217 | 178
#4:344618 | 75 | 71 | 217 | 177
#4:344683 | 75 | 74 | 203 | 176
#4:344729 | 75 | 76 | 241 | 177
#4:344774 | 75 | 78 | 229 | 177
#4:344818 | 75 | 80 | 225 | 178
#4:344882 | 74 | 83 | 211 | 178
#4:344929 | 74 | 85 | 225 | 178
#4:344975 | 74 | 87 | 221 | 179
#4:345021 | 75 | 89 | 232 | 179
#4:345086 | 75 | 92 | 240 | 179
#4:345133 | 75 | 94 | 237 | 180
#4:345178 | 75 | 96 | 225 | 180
#4:345221 | 74 | 98 | 202 | 179
#4:345267 | 74 | 100 | 243 | 180
#4:345336 | 74 | 103 | 227 | 180
#4:345383 | 74 | 105 | 233 | 181
#4:345425 | 75 | 107 | 219 | 182
#4:345473 | 75 | 109 | 231 | 184
#4:345520 | 75 | 111 | 227 | 183
#4:345568 | 75 | 113 | 239 | 184
#4:345636 | 74 | 116 | 250 | 185
#4:345683 | 75 | 118 | 244 | 186
#4:345729 | 74 | 120 | 231 | 185
#4:345775 | 75 | 122 | 215 | 185
#4:345822 | 75 | 124 | 251 | 186
#4:345870 | 75 | 126 | 243 | 186
#4:345917 | 75 | 128 | 236 | 187
#4:345985 | 75 | 131 | 226 | 188
#4:346035 | 76 | 133 | 234 | 189
#4:346082 | 76 | 135 | 233 | 189
#4:346130 | 76 | 137 | 239 | 189
#4:346175 | 75 | 139 | 227 | 189
#4:346225 | 75 | 141 | 242 | 190
#4:346274 | 75 | 143 | 235 | 191
#4:346323 | 75 | 145 | 248 | 192
#4:346368 | 76 | 147 | 228 | 193
#4:346419 | 76 | 149 | 243 | 193
#4:346468 | 76 | 151 | 234 | 194
#4:346517 | 76 | 153 | 247 | 194
#4:346562 | 76 | 155 | 229 | 193
#4:346611 | 76 | 157 | 237 | 192
#4:346685 | 76 | 160 | 245 | 193
#4:346732 | 76 | 162 | 219 | 193
#4:346781 | 76 | 164 | 263 | 193
#4:346831 | 76 | 166 | 254 | 194
#4:346880 | 76 | 168 | 249 | 194
#4:346928 | 75 | 170 | 224 | 195
#4:346977 | 75 | 172 | 266 | 196
#4:347028 | 76 | 174 | 257 | 196
#4:347077 | 76 | 176 | 246 | 196
#4:347125 | 76 | 178 | 229 | 197
#4:347176 | 76 | 180 | 269 | 198
#4:347226 | 76 | 182 | 259 | 198
#4:347276 | 76 | 184 | 250 | 198
#4:347324 | 76 | 186 | 225 | 198
#4:347375 | 76 | 188 | 274 | 198
#4:347425 | 76 | 190 | 258 | 199
#4:347475 | 76 | 192 | 255 | 199
#4:347523 | 76 | 194 | 221 | 199
#4:347574 | 76 | 196 | 275 | 199
#4:347625 | 76 | 198 | 260 | 199
#4:347675 | 76 | 200 | 252 | 199
#4:347723 | 77 | 202 | 227 | 200
#4:347773 | 76 | 204 | 267 | 199
#4:347824 | 76 | 206 | 260 | 198
#4:347873 | 76 | 208 | 250 | 198
#4:347921 | 76 | 210 | 225 | 198
#4:347971 | 76 | 212 | 267 | 198
#4:348021 | 76 | 214 | 258 | 197
#4:348071 | 76 | 216 | 251 | 197
#4:348119 | 76 | 218 | 222 | 197
#4:348169 | 75 | 220 | 269 | 197
#4:348219 | 75 | 222 | 256 | 197
#4:348267 | 74 | 224 | 249 | 196
#4:348315 | 75 | 226 | 223 | 196
#4:348365 | 74 | 228 | 265 | 196
#4:348415 | 74 | 230 | 256 | 196
#4:348464 | 75 | 232 | 244 | 196
#4:348535 | 75 | 235 | 235 | 196
#4:348585 | 74 | 237 | 242 | 195
#4:348636 | 74 | 239 | 244 | 196
#4:348686 | 75 | 241 | 253 | 196
#4:348732 | 75 | 243 | 235 | 197
#4:348783 | 75 | 245 | 244 | 197
#4:348834 | 75 | 247 | 247 | 197
#4:348885 | 75 | 249 | 256 | 198
#4:348931 | 75 | 251 | 236 | 199
#4:348984 | 76 | 253 | 255 | 200
#4:349036 | 76 | 255 | 250 | 202
#4:349061 | 76 | 0 | 258 | 202
#4:349136 | 76 | 3 | 244 | 205
#4:349164 | 76 | 4 | 281 | 205
#4:349218 | 76 | 6 | 273 | 207
#4:349270 | 77 | 8 | 261 | 208
#4:349320 | 77 | 10 | 235 | 208
#4:349373 | 77 | 12 | 281 | 208
> !daq stop
:stopped

> !drv f -100
:F -100
