> !globalvar g_carbasicfcts_cruiseTS 50
:50
> !globalvar g_carbasicfcts_cruiseKP 50
:50
> !globalvar g_carbasicfcts_cruiseKI 100
:100
> !daq grp 4 ~all _tics cruise_drvval hall_cnt hall_dt hall_dt8
:ok

> !daq start
:started

> !drv c 1500
:C 1500
#4:178649 | 212 | 32 | 35193 | 4121
#4:178749 | 240 | 33 | 652 | 4133
#4:178799 | 228 | 34 | 509 | 4124
#4:178849 | 227 | 35 | 435 | 4101
#4:178885 | 220 | 36 | 345 | 4068
#4:178918 | 221 | 37 | 326 | 4022
#4:178982 | 221 | 39 | 297 | 3810
#4:179039 | 230 | 41 | 271 | 282
#4:179091 | 228 | 43 | 261 | 240
#4:179137 | 226 | 45 | 228 | 218
#4:179184 | 225 | 47 | 226 | 202
#4:179229 | 224 | 49 | 218 | 190
#4:179291 | 222 | 52 | 190 | 177
#4:179332 | 221 | 54 | 213 | 170
#4:179391 | 218 | 57 | 191 | 161
#4:179447 | 217 | 60 | 169 | 154
#4:179483 | 216 | 62 | 192 | 151
#4:179537 | 214 | 65 | 174 | 145
#4:179588 | 211 | 68 | 155 | 141
#4:179638 | 209 | 71 | 166 | 137
#4:179689 | 208 | 74 | 165 | 134
#4:179736 | 207 | 77 | 154 | 131
#4:179785 | 206 | 80 | 166 | 129
#4:179848 | 204 | 84 | 143 | 127
#4:179894 | 201 | 87 | 156 | 125
#4:179941 | 200 | 90 | 159 | 124
#4:179986 | 199 | 93 | 145 | 123
#4:180048 | 197 | 97 | 149 | 122
#4:180092 | 195 | 100 | 138 | 121
#4:180137 | 193 | 103 | 147 | 120
#4:180198 | 192 | 107 | 154 | 119
#4:180241 | 191 | 110 | 156 | 119
#4:180287 | 189 | 113 | 148 | 119
#4:180345 | 187 | 117 | 140 | 118
#4:180390 | 186 | 120 | 152 | 118
#4:180448 | 185 | 124 | 133 | 117
#4:180491 | 183 | 127 | 140 | 116
#4:180549 | 180 | 131 | 147 | 114
#4:180591 | 178 | 134 | 149 | 114
#4:180648 | 175 | 138 | 143 | 113
#4:180689 | 174 | 141 | 132 | 112
#4:180746 | 172 | 145 | 139 | 112
#4:180788 | 170 | 148 | 129 | 112
#4:180844 | 168 | 152 | 145 | 112
#4:180899 | 166 | 156 | 129 | 111
#4:180941 | 164 | 159 | 137 | 111
#4:180998 | 163 | 163 | 142 | 111
#4:181038 | 160 | 166 | 145 | 110
#4:181093 | 157 | 170 | 138 | 109
#4:181147 | 155 | 174 | 145 | 109
#4:181188 | 153 | 177 | 135 | 109
#4:181241 | 151 | 181 | 127 | 108
#4:181297 | 148 | 185 | 134 | 108
#4:181337 | 146 | 188 | 123 | 108
#4:181392 | 145 | 192 | 142 | 108
#4:181446 | 143 | 196 | 124 | 108
#4:181486 | 141 | 199 | 135 | 108
#4:181543 | 140 | 203 | 142 | 109
#4:181596 | 139 | 207 | 135 | 109
#4:181638 | 137 | 210 | 139 | 109
#4:181693 | 135 | 214 | 145 | 109
#4:181749 | 133 | 218 | 141 | 110
#4:181789 | 133 | 221 | 132 | 111
#4:181847 | 132 | 225 | 140 | 112
#4:181889 | 130 | 228 | 128 | 112
#4:181946 | 129 | 232 | 148 | 112
#4:181988 | 127 | 235 | 146 | 112
#4:182044 | 126 | 239 | 140 | 113
#4:182087 | 124 | 242 | 142 | 113
#4:182143 | 122 | 246 | 149 | 113
#4:182186 | 121 | 249 | 142 | 113
#4:182241 | 120 | 253 | 134 | 113
#4:182286 | 119 | 0 | 148 | 113
#4:182343 | 117 | 4 | 132 | 114
#4:182386 | 116 | 7 | 143 | 114
#4:182444 | 117 | 11 | 148 | 114
#4:182486 | 115 | 14 | 151 | 115
#4:182545 | 114 | 18 | 146 | 115
#4:182588 | 114 | 21 | 138 | 116
#4:182648 | 113 | 25 | 144 | 116
#4:182691 | 111 | 28 | 135 | 117
#4:182735 | 111 | 31 | 146 | 117
#4:182796 | 110 | 35 | 153 | 118
#4:182839 | 109 | 38 | 155 | 118
#4:182899 | 109 | 42 | 151 | 118
#4:182943 | 108 | 45 | 142 | 119
#4:182989 | 107 | 48 | 157 | 119
#4:183049 | 107 | 52 | 140 | 120
#4:183094 | 106 | 55 | 148 | 120
#4:183141 | 105 | 58 | 155 | 121
#4:183185 | 106 | 61 | 145 | 121
#4:183248 | 106 | 65 | 152 | 123
#4:183295 | 105 | 68 | 143 | 123
#4:183341 | 104 | 71 | 151 | 123
#4:183389 | 105 | 74 | 154 | 124
#4:183435 | 104 | 77 | 151 | 125
#4:183485 | 105 | 80 | 169 | 126
#4:183549 | 105 | 84 | 149 | 128
#4:183597 | 105 | 87 | 159 | 128
#4:183647 | 106 | 90 | 166 | 129
#4:183694 | 105 | 93 | 156 | 130
#4:183746 | 106 | 96 | 174 | 132
#4:183798 | 107 | 99 | 178 | 133
#4:183847 | 108 | 102 | 178 | 134
#4:183898 | 108 | 105 | 167 | 135
#4:183948 | 108 | 108 | 157 | 135
#4:183999 | 108 | 111 | 169 | 136
#4:184034 | 108 | 113 | 167 | 136
#4:184085 | 108 | 116 | 155 | 136
#4:184135 | 108 | 119 | 169 | 135
#4:184187 | 108 | 122 | 173 | 135
#4:184237 | 108 | 125 | 161 | 136
#4:184290 | 108 | 128 | 179 | 136
#4:184342 | 109 | 131 | 177 | 137
#4:184392 | 109 | 134 | 181 | 137
#4:184445 | 110 | 137 | 172 | 138
#4:184496 | 110 | 140 | 157 | 138
#4:184548 | 110 | 143 | 172 | 138
#4:184584 | 110 | 145 | 171 | 138
#4:184635 | 111 | 148 | 157 | 138
#4:184687 | 111 | 151 | 173 | 138
#4:184739 | 111 | 154 | 174 | 138
#4:184789 | 110 | 157 | 161 | 137
#4:184842 | 110 | 160 | 180 | 137
#4:184894 | 110 | 163 | 174 | 137
#4:184945 | 110 | 166 | 184 | 137
#4:184997 | 111 | 169 | 168 | 137
#4:185048 | 112 | 172 | 159 | 137
#4:185083 | 111 | 174 | 182 | 137
#4:185135 | 111 | 177 | 169 | 137
#4:185186 | 112 | 180 | 159 | 138
#4:185239 | 112 | 183 | 171 | 138
#4:185291 | 112 | 186 | 174 | 138
#4:185342 | 113 | 189 | 165 | 138
#4:185396 | 113 | 192 | 183 | 139
#4:185449 | 113 | 195 | 179 | 139
#4:185499 | 113 | 198 | 185 | 139
#4:185535 | 113 | 200 | 180 | 138
#4:185588 | 114 | 203 | 181 | 139
#4:185639 | 115 | 206 | 187 | 139
#4:185692 | 115 | 209 | 171 | 140
#4:185745 | 115 | 212 | 162 | 140
#4:185798 | 116 | 215 | 173 | 141
#4:185834 | 116 | 217 | 173 | 141
#4:185886 | 116 | 220 | 162 | 141
#4:185940 | 117 | 223 | 174 | 141
#4:185994 | 118 | 226 | 181 | 141
#4:186045 | 117 | 229 | 167 | 141
#4:186081 | 118 | 231 | 176 | 141
#4:186135 | 118 | 234 | 178 | 140
#4:186185 | 118 | 237 | 164 | 140
#4:186240 | 119 | 240 | 184 | 140
#4:186293 | 119 | 243 | 180 | 139
#4:186344 | 119 | 246 | 186 | 140
#4:186398 | 119 | 249 | 173 | 140
#4:186449 | 120 | 252 | 160 | 140
#4:186485 | 120 | 254 | 185 | 140
#4:186537 | 119 | 1 | 171 | 139
#4:186589 | 119 | 4 | 158 | 139
#4:186641 | 120 | 7 | 173 | 139
#4:186694 | 120 | 10 | 176 | 139
#4:186745 | 120 | 13 | 164 | 139
#4:186799 | 120 | 16 | 182 | 139
#4:186833 | 120 | 18 | 172 | 138
#4:186883 | 121 | 21 | 165 | 138
#4:186937 | 120 | 24 | 180 | 137
#4:186989 | 121 | 27 | 176 | 137
#4:187039 | 120 | 30 | 183 | 137
#4:187091 | 120 | 33 | 166 | 137
#4:187142 | 120 | 36 | 157 | 137
#4:187193 | 120 | 39 | 170 | 137
#4:187245 | 120 | 42 | 171 | 137
#4:187295 | 120 | 45 | 163 | 137
#4:187348 | 121 | 48 | 180 | 136
#4:187382 | 121 | 50 | 173 | 136
#4:187432 | 121 | 53 | 164 | 136
#4:187486 | 121 | 56 | 180 | 137
#4:187539 | 122 | 59 | 177 | 138
#4:187589 | 122 | 62 | 183 | 138
#4:187642 | 122 | 65 | 164 | 138
#4:187693 | 123 | 68 | 157 | 138
#4:187745 | 123 | 71 | 170 | 138
#4:187797 | 123 | 74 | 171 | 138
#4:187848 | 123 | 77 | 166 | 138
#4:187883 | 123 | 79 | 172 | 138
#4:187936 | 124 | 82 | 175 | 139
#4:187987 | 124 | 85 | 167 | 139
#4:188042 | 125 | 88 | 184 | 140
#4:188096 | 125 | 91 | 186 | 141
#4:188148 | 126 | 94 | 186 | 141
#4:188184 | 126 | 96 | 185 | 141
#4:188237 | 126 | 99 | 181 | 141
#4:188289 | 127 | 102 | 188 | 141
#4:188342 | 127 | 105 | 174 | 140
#4:188393 | 127 | 108 | 160 | 140
#4:188445 | 126 | 111 | 169 | 138
> !daq stop
:stopped

> !drv f -100
:F -100
