> !globalvar g_carbasicfcts_cruiseTS 50
:50
> !globalvar g_carbasicfcts_cruiseKP 100
:100
> !globalvar g_carbasicfcts_cruiseKI 100
:100
> !daq grp 4 ~all _tics cruise_drvval hall_cnt hall_dt hall_dt8
:ok

> !daq start
:started

> !drv c 1000
:C 1000
#4:254861 | 151 | 1 | 43673 | 4892
#4:254961 | 192 | 2 | 1096 | 4946
#4:255011 | 177 | 3 | 647 | 4955
#4:255061 | 164 | 4 | 462 | 4948
#4:255111 | 150 | 5 | 449 | 4933
#4:255161 | 151 | 6 | 475 | 4902
#4:255211 | 156 | 7 | 412 | 4855
#4:255261 | 150 | 8 | 419 | 4763
#4:255309 | 168 | 9 | 388 | 435
#4:255346 | 160 | 10 | 371 | 362
#4:255382 | 157 | 11 | 357 | 333
#4:255443 | 152 | 13 | 307 | 303
#4:255507 | 148 | 15 | 300 | 279
#4:255539 | 147 | 16 | 316 | 268
#4:255597 | 142 | 18 | 294 | 250
#4:255651 | 138 | 20 | 254 | 238
#4:255708 | 136 | 22 | 297 | 230
#4:255735 | 135 | 23 | 274 | 227
#4:255790 | 134 | 25 | 267 | 222
#4:255844 | 132 | 27 | 268 | 217
#4:255892 | 130 | 29 | 248 | 214
#4:255946 | 129 | 31 | 255 | 210
#4:255998 | 127 | 33 | 257 | 207
#4:256050 | 127 | 35 | 261 | 206
#4:256097 | 126 | 37 | 240 | 204
#4:256149 | 126 | 39 | 248 | 203
#4:256200 | 125 | 41 | 248 | 201
#4:256250 | 124 | 43 | 248 | 199
#4:256295 | 123 | 45 | 230 | 198
#4:256346 | 123 | 47 | 244 | 196
#4:256396 | 121 | 49 | 241 | 195
#4:256445 | 121 | 51 | 251 | 195
#4:256490 | 121 | 53 | 224 | 194
#4:256540 | 119 | 55 | 233 | 193
#4:256589 | 119 | 57 | 237 | 193
#4:256657 | 117 | 60 | 209 | 189
#4:256704 | 115 | 62 | 249 | 188
#4:256751 | 114 | 64 | 241 | 186
#4:256798 | 112 | 66 | 233 | 185
#4:256841 | 112 | 68 | 203 | 184
#4:256910 | 110 | 71 | 227 | 183
#4:256957 | 109 | 73 | 227 | 182
#4:257003 | 108 | 75 | 231 | 181
#4:257044 | 107 | 77 | 212 | 181
#4:257091 | 105 | 79 | 222 | 180
#4:257159 | 105 | 82 | 222 | 179
#4:257202 | 103 | 84 | 200 | 178
#4:257247 | 102 | 86 | 236 | 178
#4:257291 | 100 | 88 | 227 | 176
#4:257357 | 98 | 91 | 217 | 174
#4:257396 | 96 | 93 | 203 | 173
#4:257441 | 94 | 95 | 212 | 172
#4:257505 | 92 | 98 | 214 | 170
#4:257546 | 91 | 100 | 188 | 170
#4:257609 | 88 | 103 | 209 | 168
#4:257652 | 87 | 105 | 204 | 167
#4:257694 | 85 | 107 | 211 | 166
#4:257754 | 84 | 110 | 219 | 166
#4:257797 | 82 | 112 | 217 | 165
#4:257859 | 80 | 115 | 211 | 165
#4:257898 | 79 | 117 | 197 | 165
#4:257940 | 78 | 119 | 205 | 165
#4:258004 | 77 | 122 | 211 | 165
#4:258044 | 77 | 124 | 185 | 166
#4:258107 | 75 | 127 | 210 | 166
#4:258150 | 74 | 129 | 210 | 167
#4:258193 | 74 | 131 | 217 | 167
#4:258255 | 73 | 134 | 226 | 168
#4:258299 | 73 | 136 | 227 | 169
#4:258342 | 73 | 138 | 215 | 170
#4:258404 | 73 | 141 | 207 | 171
#4:258449 | 72 | 143 | 215 | 172
#4:258495 | 72 | 145 | 221 | 173
#4:258558 | 72 | 148 | 194 | 174
#4:258603 | 71 | 150 | 240 | 175
#4:258649 | 71 | 152 | 234 | 176
#4:258694 | 71 | 154 | 229 | 176
#4:258757 | 71 | 157 | 209 | 178
#4:258804 | 70 | 159 | 226 | 178
#4:258850 | 70 | 161 | 222 | 179
#4:258896 | 70 | 163 | 231 | 179
#4:258938 | 70 | 165 | 212 | 180
#4:259009 | 69 | 168 | 240 | 180
#4:259055 | 69 | 170 | 231 | 181
#4:259098 | 68 | 172 | 205 | 181
#4:259144 | 67 | 174 | 245 | 181
#4:259191 | 67 | 176 | 241 | 182
#4:259261 | 67 | 179 | 233 | 183
#4:259304 | 66 | 181 | 218 | 183
#4:259352 | 67 | 183 | 232 | 184
#4:259400 | 67 | 185 | 234 | 185
#4:259448 | 67 | 187 | 239 | 186
#4:259491 | 66 | 189 | 219 | 187
#4:259539 | 66 | 191 | 232 | 186
#4:259610 | 66 | 194 | 233 | 186
#4:259655 | 66 | 196 | 210 | 185
#4:259701 | 65 | 198 | 248 | 185
#4:259749 | 65 | 200 | 247 | 185
#4:259796 | 65 | 202 | 236 | 186
#4:259841 | 64 | 204 | 209 | 186
#4:259911 | 64 | 207 | 232 | 186
#4:259959 | 63 | 209 | 229 | 186
#4:260007 | 64 | 211 | 241 | 187
#4:260050 | 63 | 213 | 220 | 187
#4:260099 | 63 | 215 | 235 | 187
#4:260147 | 63 | 217 | 230 | 188
#4:260195 | 62 | 219 | 241 | 187
#4:260239 | 62 | 221 | 221 | 188
#4:260288 | 62 | 223 | 233 | 188
#4:260361 | 62 | 226 | 241 | 189
#4:260406 | 62 | 228 | 214 | 189
#4:260455 | 62 | 230 | 255 | 190
#4:260503 | 61 | 232 | 249 | 190
#4:260551 | 61 | 234 | 243 | 190
#4:260596 | 61 | 236 | 210 | 189
#4:260644 | 61 | 238 | 256 | 189
#4:260694 | 60 | 240 | 252 | 190
#4:260742 | 60 | 242 | 244 | 190
#4:260811 | 61 | 245 | 225 | 191
#4:260861 | 60 | 247 | 243 | 192
#4:260911 | 61 | 249 | 237 | 193
#4:260960 | 61 | 251 | 247 | 193
#4:261006 | 62 | 253 | 233 | 195
#4:261057 | 62 | 255 | 248 | 195
#4:261108 | 62 | 1 | 250 | 197
#4:261160 | 63 | 3 | 260 | 199
#4:261207 | 64 | 5 | 244 | 201
#4:261259 | 64 | 7 | 250 | 201
#4:261311 | 65 | 9 | 249 | 202
#4:261337 | 65 | 10 | 257 | 202
#4:261409 | 64 | 13 | 237 | 202
#4:261437 | 65 | 14 | 274 | 202
#4:261489 | 65 | 16 | 274 | 203
#4:261542 | 65 | 18 | 266 | 205
#4:261592 | 67 | 20 | 234 | 206
#4:261644 | 67 | 22 | 274 | 207
#4:261698 | 68 | 24 | 277 | 208
#4:261752 | 68 | 26 | 272 | 209
#4:261804 | 69 | 28 | 245 | 211
#4:261860 | 72 | 30 | 298 | 216
#4:261888 | 73 | 31 | 278 | 217
#4:261946 | 74 | 33 | 283 | 221
#4:262004 | 77 | 35 | 291 | 224
#4:262057 | 77 | 37 | 270 | 226
#4:262088 | 79 | 38 | 314 | 228
#4:262148 | 81 | 40 | 305 | 230
#4:262207 | 82 | 42 | 303 | 231
#4:262238 | 83 | 43 | 302 | 233
#4:262292 | 85 | 45 | 279 | 235
#4:262353 | 85 | 47 | 293 | 235
#4:262384 | 86 | 48 | 305 | 235
#4:262441 | 86 | 50 | 292 | 233
#4:262496 | 85 | 52 | 256 | 231
#4:262552 | 85 | 54 | 296 | 228
#4:262609 | 84 | 56 | 288 | 224
#4:262636 | 83 | 57 | 275 | 223
#4:262691 | 82 | 59 | 273 | 220
#4:262740 | 81 | 61 | 252 | 218
#4:262795 | 81 | 63 | 261 | 215
#4:262849 | 80 | 65 | 262 | 213
#4:262903 | 79 | 67 | 268 | 211
#4:262951 | 79 | 69 | 245 | 210
#4:263005 | 78 | 71 | 263 | 209
#4:263058 | 78 | 73 | 259 | 209
#4:263085 | 78 | 74 | 267 | 209
#4:263160 | 78 | 77 | 247 | 209
#4:263188 | 79 | 78 | 274 | 209
#4:263241 | 79 | 80 | 274 | 208
#4:263292 | 78 | 82 | 256 | 207
#4:263341 | 77 | 84 | 230 | 205
#4:263393 | 77 | 86 | 274 | 204
#4:263445 | 77 | 88 | 265 | 203
#4:263495 | 76 | 90 | 259 | 202
#4:263543 | 76 | 92 | 224 | 202
#4:263594 | 75 | 94 | 272 | 201
#4:263646 | 75 | 96 | 263 | 201
#4:263696 | 75 | 98 | 253 | 200
#4:263744 | 75 | 100 | 225 | 201
#4:263795 | 75 | 102 | 268 | 200
#4:263847 | 75 | 104 | 268 | 200
#4:263897 | 75 | 106 | 256 | 201
#4:263946 | 75 | 108 | 228 | 201
#4:263997 | 75 | 110 | 272 | 202
#4:264049 | 75 | 112 | 270 | 202
#4:264101 | 75 | 114 | 260 | 203
#4:264150 | 75 | 116 | 228 | 203
#4:264201 | 75 | 118 | 275 | 204
#4:264254 | 75 | 120 | 272 | 205
#4:264307 | 75 | 122 | 266 | 205
#4:264356 | 76 | 124 | 231 | 206
#4:264408 | 76 | 126 | 275 | 206
#4:264461 | 76 | 128 | 276 | 207
#4:264488 | 76 | 129 | 261 | 207
#4:264541 | 77 | 131 | 266 | 208
#4:264590 | 77 | 133 | 244 | 208
#4:264643 | 77 | 135 | 258 | 209
> !daq stop
:stopped

> !drv f -100
:F -100
