> !globalvar g_carbasicfcts_cruiseTS 50
:50
> !globalvar g_carbasicfcts_cruiseKP 200
:200
> !globalvar g_carbasicfcts_cruiseKI 5
:5
> !daq grp 4 ~all _tics cruise_drvval hall_cnt hall_dt hall_dt8
:ok

> !daq start
:started

> !drv c 500
:C 500
#4:590136 | 138 | 143 | 1477 | 3468
#4:590236 | 115 | 144 | 864 | 3501
#4:590286 | 91 | 145 | 722 | 3513
#4:590336 | 79 | 146 | 574 | 3513
#4:590386 | 61 | 147 | 562 | 3502
#4:590486 | 63 | 148 | 621 | 3472
#4:590536 | 68 | 149 | 547 | 3409
#4:590586 | 56 | 150 | 572 | 594
#4:590636 | 81 | 151 | 525 | 499
#4:590686 | 68 | 152 | 532 | 465
#4:590736 | 62 | 153 | 510 | 444
#4:590786 | 58 | 154 | 435 | 430
#4:590836 | 55 | 155 | 440 | 418
#4:590886 | 52 | 156 | 506 | 407
#4:590936 | 50 | 157 | 460 | 398
#4:590986 | 48 | 158 | 497 | 390
#4:591036 | 46 | 159 | 459 | 384
#4:591086 | 44 | 160 | 478 | 378
#4:591135 | 42 | 161 | 481 | 375
#4:591177 | 41 | 162 | 421 | 374
#4:591220 | 41 | 163 | 432 | 373
#4:591269 | 41 | 164 | 495 | 372
#4:591316 | 41 | 165 | 461 | 372
#4:591366 | 41 | 166 | 501 | 373
#4:591412 | 41 | 167 | 464 | 373
#4:591460 | 41 | 168 | 477 | 373
#4:591508 | 41 | 169 | 479 | 373
#4:591550 | 41 | 170 | 421 | 373
#4:591594 | 41 | 171 | 442 | 374
#4:591644 | 41 | 172 | 497 | 374
#4:591690 | 41 | 173 | 454 | 373
#4:591785 | 41 | 175 | 464 | 373
#4:591834 | 41 | 176 | 482 | 373
#4:591881 | 41 | 177 | 479 | 373
#4:591923 | 41 | 178 | 415 | 373
#4:591967 | 41 | 179 | 435 | 372
#4:592016 | 41 | 180 | 492 | 371
#4:592061 | 41 | 181 | 451 | 371
#4:592109 | 40 | 182 | 479 | 370
#4:592154 | 40 | 183 | 447 | 368
#4:592201 | 39 | 184 | 474 | 367
#4:592248 | 39 | 185 | 466 | 366
#4:592330 | 38 | 187 | 414 | 363
#4:592377 | 37 | 188 | 470 | 360
#4:592421 | 37 | 189 | 436 | 359
#4:592467 | 37 | 190 | 468 | 358
#4:592511 | 36 | 191 | 436 | 357
#4:592557 | 36 | 192 | 454 | 355
#4:592602 | 35 | 193 | 451 | 353
#4:592682 | 35 | 195 | 408 | 352
#4:592728 | 34 | 196 | 455 | 350
#4:592770 | 34 | 197 | 420 | 349
#4:592815 | 33 | 198 | 455 | 347
#4:592858 | 33 | 199 | 427 | 347
#4:592902 | 32 | 200 | 439 | 345
#4:592984 | 31 | 202 | 381 | 342
#4:593024 | 31 | 203 | 403 | 342
#4:593070 | 31 | 204 | 459 | 342
#4:593112 | 31 | 205 | 419 | 342
#4:593157 | 31 | 206 | 450 | 341
#4:593199 | 31 | 207 | 421 | 341
#4:593243 | 31 | 208 | 438 | 340
#4:593325 | 31 | 210 | 383 | 341
#4:593365 | 31 | 211 | 396 | 340
#4:593411 | 31 | 212 | 458 | 340
#4:593453 | 31 | 213 | 421 | 341
#4:593498 | 31 | 214 | 446 | 340
#4:593584 | 31 | 216 | 441 | 341
#4:593627 | 30 | 217 | 429 | 339
#4:593665 | 30 | 218 | 383 | 339
#4:593705 | 30 | 219 | 393 | 339
#4:593749 | 30 | 220 | 440 | 337
#4:593835 | 29 | 222 | 444 | 336
#4:593877 | 29 | 223 | 421 | 336
#4:593920 | 29 | 224 | 431 | 336
#4:593964 | 29 | 225 | 434 | 336
#4:594002 | 29 | 226 | 387 | 336
#4:594042 | 29 | 227 | 398 | 337
#4:594127 | 29 | 229 | 407 | 337
#4:594172 | 29 | 230 | 445 | 337
#4:594215 | 30 | 231 | 431 | 338
#4:594260 | 30 | 232 | 448 | 339
#4:594305 | 31 | 233 | 445 | 341
#4:594386 | 31 | 235 | 415 | 343
#4:594433 | 33 | 236 | 475 | 346
#4:594477 | 34 | 237 | 443 | 350
#4:594526 | 35 | 238 | 485 | 354
#4:594572 | 36 | 239 | 459 | 356
#4:594620 | 37 | 240 | 479 | 359
#4:594669 | 38 | 241 | 491 | 364
#4:594712 | 39 | 242 | 427 | 367
#4:594756 | 40 | 243 | 442 | 370
#4:594807 | 41 | 244 | 504 | 373
#4:594854 | 42 | 245 | 474 | 376
#4:594905 | 43 | 246 | 508 | 378
#4:594953 | 43 | 247 | 476 | 380
#4:595001 | 43 | 248 | 488 | 381
#4:595051 | 44 | 249 | 494 | 381
#4:595094 | 44 | 250 | 435 | 382
#4:595140 | 44 | 251 | 450 | 383
#4:595190 | 44 | 252 | 504 | 383
#4:595237 | 44 | 253 | 468 | 382
#4:595336 | 44 | 255 | 482 | 383
#4:595386 | 44 | 0 | 502 | 385
#4:595436 | 44 | 1 | 491 | 384
#4:595480 | 44 | 2 | 438 | 385
#4:595526 | 45 | 3 | 463 | 386
#4:595580 | 46 | 4 | 533 | 389
#4:595629 | 46 | 5 | 494 | 392
#4:595682 | 47 | 6 | 533 | 394
#4:595732 | 47 | 7 | 499 | 395
#4:595785 | 48 | 8 | 522 | 397
#4:595836 | 48 | 9 | 534 | 402
#4:595885 | 50 | 10 | 470 | 405
#4:595933 | 50 | 11 | 480 | 406
#4:595986 | 50 | 12 | 555 | 409
#4:596036 | 50 | 13 | 514 | 411
#4:596086 | 50 | 14 | 544 | 412
#4:596136 | 51 | 15 | 503 | 412
#4:596186 | 51 | 16 | 515 | 411
#4:596236 | 51 | 17 | 517 | 410
#4:596286 | 50 | 18 | 448 | 407
#4:596336 | 50 | 19 | 459 | 405
#4:596386 | 50 | 20 | 506 | 401
#4:596436 | 49 | 21 | 461 | 395
#4:596486 | 47 | 22 | 512 | 392
#4:596534 | 46 | 23 | 471 | 389
#4:596582 | 45 | 24 | 480 | 385
#4:596630 | 44 | 25 | 479 | 382
#4:596672 | 43 | 26 | 417 | 379
#4:596716 | 42 | 27 | 436 | 376
#4:596764 | 42 | 28 | 488 | 374
#4:596809 | 41 | 29 | 442 | 372
#4:596857 | 40 | 30 | 483 | 370
#4:596902 | 39 | 31 | 450 | 367
#4:596948 | 39 | 32 | 455 | 365
#4:597033 | 37 | 34 | 399 | 361
#4:597075 | 37 | 35 | 415 | 359
#4:597121 | 36 | 36 | 468 | 357
#4:597165 | 36 | 37 | 433 | 356
#4:597211 | 35 | 38 | 464 | 354
#4:597254 | 35 | 39 | 430 | 352
#4:597299 | 34 | 40 | 448 | 351
#4:597385 | 34 | 42 | 397 | 351
#4:597426 | 34 | 43 | 413 | 351
#4:597473 | 34 | 44 | 464 | 351
#4:597515 | 34 | 45 | 428 | 350
#4:597562 | 34 | 46 | 468 | 350
#4:597606 | 34 | 47 | 439 | 351
#4:597651 | 33 | 48 | 447 | 351
#4:597736 | 33 | 50 | 402 | 351
#4:597778 | 33 | 51 | 414 | 351
#4:597824 | 33 | 52 | 461 | 351
#4:597867 | 33 | 53 | 430 | 351
#4:597913 | 33 | 54 | 461 | 350
#4:597956 | 33 | 55 | 432 | 350
#4:598001 | 33 | 56 | 449 | 350
#4:598083 | 32 | 58 | 382 | 347
#4:598124 | 31 | 59 | 403 | 345
#4:598170 | 31 | 60 | 459 | 345
#4:598212 | 31 | 61 | 424 | 345
#4:598259 | 31 | 62 | 463 | 345
#4:598303 | 32 | 63 | 441 | 346
#4:598348 | 32 | 64 | 448 | 346
#4:598432 | 32 | 66 | 394 | 348
#4:598473 | 32 | 67 | 409 | 348
#4:598519 | 32 | 68 | 458 | 348
#4:598561 | 33 | 69 | 430 | 349
#4:598609 | 33 | 70 | 468 | 349
#4:598652 | 32 | 71 | 431 | 348
#4:598696 | 32 | 72 | 444 | 348
#4:598780 | 32 | 74 | 395 | 348
#4:598822 | 33 | 75 | 414 | 349
#4:598868 | 33 | 76 | 462 | 349
#4:598911 | 32 | 77 | 423 | 348
#4:598957 | 32 | 78 | 467 | 348
#4:599001 | 33 | 79 | 435 | 349
#4:599045 | 33 | 80 | 444 | 349
#4:599129 | 32 | 82 | 394 | 348
#4:599170 | 32 | 83 | 411 | 347
#4:599216 | 32 | 84 | 462 | 347
#4:599258 | 32 | 85 | 417 | 347
#4:599303 | 31 | 86 | 451 | 345
#4:599346 | 31 | 87 | 429 | 345
#4:599435 | 31 | 89 | 444 | 345
#4:599474 | 31 | 90 | 391 | 345
#4:599515 | 31 | 91 | 407 | 344
#4:599560 | 31 | 92 | 456 | 344
#4:599603 | 31 | 93 | 424 | 344
#4:599648 | 31 | 94 | 453 | 344
#4:599735 | 31 | 96 | 443 | 344
> !daq stop
:stopped

> !drv f -100
:F -100
